time,event,agent,scouts,bombers,tanks
71740,BomberInfestedPlant,Bomber1,1,4,1
71860,BomberInfestedPlant,Bomber0,1,4,1
71860,BomberInfestedPlant,Bomber1,1,4,1
71960,BomberInfestedPlant,Bomber1,1,4,1
71980,BomberInfestedPlant,Bomber0,1,4,1
72400,BomberInfestedPlant,Bomber1,1,4,1
72460,BomberInfestedPlant,Bomber1,1,4,1
72600,BomberInfestedPlant,Bomber0,1,4,1
72800,BomberInfestedPlant,Bomber0,1,4,1
72820,BomberInfestedPlant,Bomber0,1,4,1
73040,BomberInfestedPlant,Bomber0,1,4,1
73100,BomberInfestedPlant,Bomber1,1,4,1
73500,BomberInfestedPlant,Bomber1,1,4,1
73640,BomberInfestedPlant,Bomber0,1,4,1
73660,BomberInfestedPlant,Bomber0,1,4,1
73880,BomberInfestedPlant,Bomber1,1,4,1
73920,BomberInfestedPlant,Bomber1,1,4,1
73940,BomberInfestedPlant,Bomber1,1,4,1
73980,BomberInfestedPlant,Bomber0,1,4,1
73980,BomberInfestedPlant,Bomber1,1,4,1
74000,BomberInfestedPlant,Bomber0,1,4,1
74060,BomberInfestedPlant,Bomber1,1,4,1
74160,BomberInfestedPlant,Bomber0,1,4,1
74460,BomberInfestedPlant,Bomber0,1,4,1
74480,BomberInfestedPlant,Bomber1,1,4,1
74700,BomberInfestedPlant,Bomber1,1,4,1
75480,BomberInfestedPlant,Bomber0,1,4,1
75700,BomberInfestedPlant,Bomber1,1,4,1
75840,BomberInfestedPlant,Bomber1,1,4,1
75980,BomberInfestedPlant,Bomber0,1,4,1
76240,BomberInfestedPlant,Bomber1,1,4,1
76340,BomberInfestedPlant,Bomber0,1,4,1
76400,BomberInfestedPlant,Bomber1,1,4,1
76420,BomberInfestedPlant,Bomber1,1,4,1
76560,BomberInfestedPlant,Bomber0,1,4,1
76660,BomberInfestedPlant,Bomber0,1,4,1
76720,BomberInfestedPlant,Bomber0,1,4,1
76740,BomberInfestedPlant,Bomber1,1,4,1
77060,BomberInfestedPlant,Bomber0,1,4,1
77220,BomberInfestedPlant,Bomber0,1,4,1
77940,BomberInfestedPlant,Bomber0,1,4,1
78200,BomberInfestedPlant,Bomber0,1,4,1
78380,BomberInfestedPlant,Bomber0,1,4,1
78460,BomberInfestedPlant,Bomber1,1,4,1
78480,BomberInfestedPlant,Bomber1,1,4,1
78540,BomberInfestedPlant,Bomber0,1,4,1
78580,BomberInfestedPlant,Bomber0,1,4,1
78600,BomberInfestedPlant,Bomber1,1,4,1
78860,BomberInfestedPlant,Bomber0,1,4,1
78940,BomberInfestedPlant,Bomber0,1,4,1
79040,BomberInfestedPlant,Bomber0,1,4,1
79140,BomberInfestedPlant,Bomber0,1,4,1
79160,BomberInfestedPlant,Bomber0,1,4,1
79200,BomberInfestedPlant,Bomber0,1,4,1
79380,BomberInfestedPlant,Bomber0,1,4,1
79460,BomberInfestedPlant,Bomber1,1,4,1
79520,BomberInfestedPlant,Bomber1,1,4,1
79540,BomberInfestedPlant,Bomber1,1,4,1
79600,BomberInfestedPlant,Bomber1,1,4,1
79640,BomberInfestedPlant,Bomber1,1,4,1
79700,BomberInfestedPlant,Bomber1,1,4,1
80060,BomberInfestedPlant,Bomber1,1,4,1
80180,BomberInfestedPlant,Bomber0,1,4,1
80220,BomberInfestedPlant,Bomber1,1,4,1
80280,BomberInfestedPlant,Bomber0,1,4,1
80440,BomberInfestedPlant,Bomber1,1,4,1
80560,BomberInfestedPlant,Bomber1,1,4,1
80720,BomberInfestedPlant,Bomber1,1,4,1
80960,BomberInfestedPlant,Bomber0,1,4,1
81260,BomberInfestedPlant,Bomber0,1,4,1
81540,BomberInfestedPlant,Bomber0,1,4,1
81980,BomberInfestedPlant,Bomber1,1,4,1
82020,BomberInfestedPlant,Bomber1,1,4,1
82080,BomberInfestedPlant,Bomber0,1,4,1
82200,BomberInfestedPlant,Bomber0,1,4,1
82220,BomberInfestedPlant,Bomber1,1,4,1
82380,BomberInfestedPlant,Bomber1,1,4,1
82420,BomberInfestedPlant,Bomber1,1,4,1
82520,BomberInfestedPlant,Bomber1,1,4,1
82620,BomberInfestedPlant,Bomber1,1,4,1
82740,BomberInfestedPlant,Bomber0,1,4,1
82760,BomberInfestedPlant,Bomber1,1,4,1
82820,BomberInfestedPlant,Bomber1,1,4,1
82860,BomberInfestedPlant,Bomber0,1,4,1
83100,BomberInfestedPlant,Bomber1,1,4,1
83120,BomberInfestedPlant,Bomber1,1,4,1
83400,BomberInfestedPlant,Bomber1,1,4,1
83540,BomberInfestedPlant,Bomber0,1,4,1
83760,BomberInfestedPlant,Bomber0,1,4,1
83780,BomberInfestedPlant,Bomber0,1,4,1
83980,BomberInfestedPlant,Bomber0,1,4,1
84120,BomberInfestedPlant,Bomber0,1,4,1
84680,BomberInfestedPlant,Bomber0,1,4,1
84740,BomberInfestedPlant,Bomber1,1,4,1
85080,BomberInfestedPlant,Bomber1,1,4,1
85100,BomberInfestedPlant,Bomber0,1,4,1
85300,BomberInfestedPlant,Bomber0,1,4,1
85320,BomberInfestedPlant,Bomber1,1,4,1
85400,BomberInfestedPlant,Bomber0,1,4,1
85520,BomberInfestedPlant,Bomber0,1,4,1
85940,BomberInfestedPlant,Bomber0,1,4,1
86000,BomberInfestedPlant,Bomber1,1,4,1
86080,BomberInfestedPlant,Bomber1,1,4,1
86220,BomberInfestedPlant,Bomber0,1,4,1
86240,BomberInfestedPlant,Bomber0,1,4,1
86340,BomberInfestedPlant,Bomber1,1,4,1
86360,BomberInfestedPlant,Bomber0,1,4,1
86380,BomberInfestedPlant,Bomber0,1,4,1
86540,BomberInfestedPlant,Bomber1,1,4,1
86620,BomberInfestedPlant,Bomber1,1,4,1
86780,BomberInfestedPlant,Bomber0,1,4,1
86920,BomberInfestedPlant,Bomber0,1,4,1
87160,BomberInfestedPlant,Bomber0,1,4,1
87240,BomberInfestedPlant,Bomber1,1,4,1
87400,BomberInfestedPlant,Bomber1,1,4,1
87560,BomberInfestedPlant,Bomber1,1,4,1
88000,BomberInfestedPlant,Bomber0,1,4,1
88040,BomberInfestedPlant,Bomber0,1,4,1
88060,BomberInfestedPlant,Bomber0,1,4,1
89360,PickUpBattery,Bomber3,1,4,1
90000,BomberInfestedPlant,Bomber0,1,4,1
90100,BomberInfestedPlant,Bomber1,1,4,1
90320,BomberInfestedPlant,Bomber1,1,4,1
90480,BomberInfestedPlant,Bomber0,1,4,1
90500,BomberInfestedPlant,Bomber1,1,4,1
90660,BomberInfestedPlant,Bomber0,1,4,1
90660,BomberInfestedPlant,Bomber1,1,4,1
90680,BomberInfestedPlant,Bomber0,1,4,1
90980,BomberInfestedPlant,Bomber1,1,4,1
91000,BomberInfestedPlant,Bomber1,1,4,1
91640,BomberInfestedPlant,Bomber1,1,4,1
92660,BomberInfestedPlant,Bomber1,1,4,1
93000,BomberInfestedPlant,Bomber1,1,4,1
93080,BomberInfestedPlant,Bomber1,1,4,1
93520,BomberInfestedPlant,Bomber1,1,4,1
93540,BomberInfestedPlant,Bomber1,1,4,1
93680,BomberInfestedPlant,Bomber1,1,4,1
94020,BomberInfestedPlant,Bomber1,1,4,1
94320,BomberInfestedPlant,Bomber1,1,4,1
94360,BomberInfestedPlant,Bomber1,1,4,1
94400,BomberInfestedPlant,Bomber1,1,4,1
94540,BomberInfestedPlant,Bomber1,1,4,1
94580,BomberInfestedPlant,Bomber1,1,4,1
94720,BomberInfestedPlant,Bomber1,1,4,1
94800,BomberInfestedPlant,Bomber1,1,4,1
94840,BomberInfestedPlant,Bomber1,1,4,1
95540,BomberInfestedPlant,Bomber1,1,4,1
95580,BomberInfestedPlant,Bomber1,1,4,1
95920,BomberInfestedPlant,Bomber1,1,4,1
96080,BomberInfestedPlant,Bomber1,1,4,1
96140,BomberInfestedPlant,Bomber1,1,4,1
96440,BomberInfestedPlant,Bomber1,1,4,1
97020,BomberInfestedPlant,Bomber1,1,4,1
97120,BomberInfestedPlant,Bomber1,1,4,1
97300,BomberInfestedPlant,Bomber1,1,4,1
99060,BomberInfestedPlant,Bomber1,1,4,1
99100,BomberInfestedPlant,Bomber1,1,4,1
99180,BomberInfestedPlant,Bomber1,1,4,1
99640,BomberInfestedPlant,Bomber1,1,4,1
99740,BomberInfestedPlant,Bomber1,1,4,1
99820,BomberInfestedPlant,Bomber1,1,4,1
99840,BomberInfestedPlant,Bomber1,1,4,1
99960,BomberInfestedPlant,Bomber1,1,4,1
100400,BomberInfestedPlant,Bomber1,1,4,1
100540,BomberInfestedPlant,Bomber1,1,4,1
100820,BomberInfestedPlant,Bomber1,1,4,1
100860,BomberInfestedPlant,Bomber1,1,4,1
101020,BomberInfestedPlant,Bomber1,1,4,1
101080,BomberInfestedPlant,Bomber1,1,4,1
101200,BomberInfestedPlant,Bomber1,1,4,1
101280,BomberInfestedPlant,Bomber1,1,4,1
101500,BomberInfestedPlant,Bomber1,1,4,1
101600,BomberInfestedPlant,Bomber1,1,4,1
102000,BomberInfestedPlant,Bomber1,1,4,1
102040,BomberInfestedPlant,Bomber1,1,4,1
102380,BomberInfestedPlant,Bomber1,1,4,1
102600,BomberInfestedPlant,Bomber1,1,4,1
102920,BomberInfestedPlant,Bomber1,1,4,1
103540,BomberInfestedPlant,Bomber1,1,4,1
104160,BomberInfestedPlant,Bomber1,1,4,1
104340,BomberInfestedPlant,Bomber1,1,4,1
104440,BomberInfestedPlant,Bomber1,1,4,1
104560,BomberInfestedPlant,Bomber1,1,4,1
104820,BomberInfestedPlant,Bomber1,1,4,1
105180,BomberInfestedPlant,Bomber1,1,4,1
105260,BomberInfestedPlant,Bomber1,1,4,1
105380,BomberInfestedPlant,Bomber1,1,4,1
105440,BomberInfestedPlant,Bomber1,1,4,1
105560,BomberInfestedPlant,Bomber1,1,4,1
105860,BomberInfestedPlant,Bomber1,1,4,1
105960,BomberInfestedPlant,Bomber1,1,4,1
106000,BomberInfestedPlant,Bomber1,1,4,1
106100,BomberInfestedPlant,Bomber1,1,4,1
106260,BomberInfestedPlant,Bomber1,1,4,1
144880,PickUpBattery,Scout0,1,4,1
147940,UsePesticide,Bomber2,1,4,1
166440,PickUpBattery,Bomber1,1,4,1
186220,UsePesticide,Bomber3,1,4,1
193660,PickUpBattery,Bomber0,1,4,1
199740,UsePesticide,Bomber1,1,4,1
201840,PickUpBattery,Bomber2,1,4,1
212260,TankNutrientPoorPlant,Tank0,1,4,1
212280,TankNutrientPoorPlant,Tank0,1,4,1
212460,TankNutrientPoorPlant,Tank0,1,4,1
212480,TankNutrientPoorPlant,Tank0,1,4,1
212540,TankNutrientPoorPlant,Tank0,1,4,1
212640,TankNutrientPoorPlant,Tank0,1,4,1
212660,TankNutrientPoorPlant,Tank0,1,4,1
212680,TankNutrientPoorPlant,Tank0,1,4,1
212880,TankNutrientPoorPlant,Tank0,1,4,1
212900,TankNutrientPoorPlant,Tank0,1,4,1
213000,TankNutrientPoorPlant,Tank0,1,4,1
213020,TankNutrientPoorPlant,Tank0,1,4,1
213300,TankNutrientPoorPlant,Tank0,1,4,1
213580,TankNutrientPoorPlant,Tank0,1,4,1
213720,TankNutrientPoorPlant,Tank0,1,4,1
214040,TankNutrientPoorPlant,Tank0,1,4,1
214220,TankNutrientPoorPlant,Tank0,1,4,1
214480,TankNutrientPoorPlant,Tank0,1,4,1
214500,TankNutrientPoorPlant,Tank0,1,4,1
214580,TankNutrientPoorPlant,Tank0,1,4,1
214620,TankNutrientPoorPlant,Tank0,1,4,1
214680,TankNutrientPoorPlant,Tank0,1,4,1
214700,TankNutrientPoorPlant,Tank0,1,4,1
214740,TankNutrientPoorPlant,Tank0,1,4,1
214780,TankNutrientPoorPlant,Tank0,1,4,1
214860,TankNutrientPoorPlant,Tank0,1,4,1
215080,TankNutrientPoorPlant,Tank0,1,4,1
215160,TankNutrientPoorPlant,Tank0,1,4,1
215180,TankNutrientPoorPlant,Tank0,1,4,1
215420,TankNutrientPoorPlant,Tank0,1,4,1
215500,TankNutrientPoorPlant,Tank0,1,4,1
215620,TankNutrientPoorPlant,Tank0,1,4,1
215760,TankNutrientPoorPlant,Tank0,1,4,1
215940,TankNutrientPoorPlant,Tank0,1,4,1
216100,TankNutrientPoorPlant,Tank0,1,4,1
216120,TankNutrientPoorPlant,Tank0,1,4,1
216180,TankNutrientPoorPlant,Tank0,1,4,1
216200,TankNutrientPoorPlant,Tank0,1,4,1
216260,TankNutrientPoorPlant,Tank0,1,4,1
216400,TankNutrientPoorPlant,Tank0,1,4,1
216640,TankNutrientPoorPlant,Tank0,1,4,1
217240,TankNutrientPoorPlant,Tank0,1,4,1
217440,TankNutrientPoorPlant,Tank0,1,4,1
217500,TankNutrientPoorPlant,Tank0,1,4,1
217520,TankNutrientPoorPlant,Tank0,1,4,1
217540,TankNutrientPoorPlant,Tank0,1,4,1
217620,TankNutrientPoorPlant,Tank0,1,4,1
217760,TankNutrientPoorPlant,Tank0,1,4,1
217820,TankNutrientPoorPlant,Tank0,1,4,1
217920,TankNutrientPoorPlant,Tank0,1,4,1
217940,TankNutrientPoorPlant,Tank0,1,4,1
218100,TankNutrientPoorPlant,Tank0,1,4,1
218140,TankNutrientPoorPlant,Tank0,1,4,1
218180,TankNutrientPoorPlant,Tank0,1,4,1
218220,TankNutrientPoorPlant,Tank0,1,4,1
218260,TankNutrientPoorPlant,Tank0,1,4,1
218320,TankNutrientPoorPlant,Tank0,1,4,1
218480,TankNutrientPoorPlant,Tank0,1,4,1
218520,TankNutrientPoorPlant,Tank0,1,4,1
218560,TankNutrientPoorPlant,Tank0,1,4,1
218760,TankNutrientPoorPlant,Tank0,1,4,1
219120,TankNutrientPoorPlant,Tank0,1,4,1
219140,TankNutrientPoorPlant,Tank0,1,4,1
219360,TankNutrientPoorPlant,Tank0,1,4,1
219520,TankNutrientPoorPlant,Tank0,1,4,1
219560,TankNutrientPoorPlant,Tank0,1,4,1
219580,TankNutrientPoorPlant,Tank0,1,4,1
219620,TankNutrientPoorPlant,Tank0,1,4,1
219780,TankNutrientPoorPlant,Tank0,1,4,1
219900,TankNutrientPoorPlant,Tank0,1,4,1
220020,TankNutrientPoorPlant,Tank0,1,4,1
220160,TankNutrientPoorPlant,Tank0,1,4,1
220380,TankNutrientPoorPlant,Tank0,1,4,1
220580,TankNutrientPoorPlant,Tank0,1,4,1
220600,TankNutrientPoorPlant,Tank0,1,4,1
220640,TankNutrientPoorPlant,Tank0,1,4,1
220640,TankNutrientPoorPlant,Tank0,1,4,1
220700,TankNutrientPoorPlant,Tank0,1,4,1
220740,TankNutrientPoorPlant,Tank0,1,4,1
220780,TankNutrientPoorPlant,Tank0,1,4,1
220780,TankNutrientPoorPlant,Tank0,1,4,1
220860,TankNutrientPoorPlant,Tank0,1,4,1
220860,TankNutrientPoorPlant,Tank0,1,4,1
220900,TankNutrientPoorPlant,Tank0,1,4,1
220900,TankNutrientPoorPlant,Tank0,1,4,1
220940,TankNutrientPoorPlant,Tank0,1,4,1
220980,TankNutrientPoorPlant,Tank0,1,4,1
220980,TankNutrientPoorPlant,Tank0,1,4,1
221020,TankNutrientPoorPlant,Tank0,1,4,1
221100,TankNutrientPoorPlant,Tank0,1,4,1
221100,TankNutrientPoorPlant,Tank0,1,4,1
221180,TankNutrientPoorPlant,Tank0,1,4,1
221300,TankNutrientPoorPlant,Tank0,1,4,1
221300,TankNutrientPoorPlant,Tank0,1,4,1
221340,TankNutrientPoorPlant,Tank0,1,4,1
221340,TankNutrientPoorPlant,Tank0,1,4,1
221400,TankNutrientPoorPlant,Tank0,1,4,1
221400,TankNutrientPoorPlant,Tank0,1,4,1
221440,TankNutrientPoorPlant,Tank0,1,4,1
221440,TankNutrientPoorPlant,Tank0,1,4,1
260320,TankNutrientPoorPlant,Tank0,1,4,1
260520,TankNutrientPoorPlant,Tank0,1,4,1
260720,TankNutrientPoorPlant,Tank0,1,4,1
260760,TankNutrientPoorPlant,Tank0,1,4,1
261160,TankNutrientPoorPlant,Tank0,1,4,1
261260,TankNutrientPoorPlant,Tank0,1,4,1
261280,TankNutrientPoorPlant,Tank0,1,4,1
261340,TankNutrientPoorPlant,Tank0,1,4,1
261420,TankNutrientPoorPlant,Tank0,1,4,1
261480,TankNutrientPoorPlant,Tank0,1,4,1
261500,TankNutrientPoorPlant,Tank0,1,4,1
261640,TankNutrientPoorPlant,Tank0,1,4,1
261800,TankNutrientPoorPlant,Tank0,1,4,1
261820,TankNutrientPoorPlant,Tank0,1,4,1
262000,TankNutrientPoorPlant,Tank0,1,4,1
262020,TankNutrientPoorPlant,Tank0,1,4,1
262100,TankNutrientPoorPlant,Tank0,1,4,1
262220,TankNutrientPoorPlant,Tank0,1,4,1
262260,TankNutrientPoorPlant,Tank0,1,4,1
262420,TankNutrientPoorPlant,Tank0,1,4,1
262520,TankNutrientPoorPlant,Tank0,1,4,1
262740,TankNutrientPoorPlant,Tank0,1,4,1
263100,TankNutrientPoorPlant,Tank0,1,4,1
263180,TankNutrientPoorPlant,Tank0,1,4,1
263220,TankNutrientPoorPlant,Tank0,1,4,1
263360,TankNutrientPoorPlant,Tank0,1,4,1
263380,TankNutrientPoorPlant,Tank0,1,4,1
263480,TankNutrientPoorPlant,Tank0,1,4,1
263540,TankNutrientPoorPlant,Tank0,1,4,1
263560,TankNutrientPoorPlant,Tank0,1,4,1
263620,TankNutrientPoorPlant,Tank0,1,4,1
263760,TankNutrientPoorPlant,Tank0,1,4,1
263780,TankNutrientPoorPlant,Tank0,1,4,1
263900,TankNutrientPoorPlant,Tank0,1,4,1
264000,TankNutrientPoorPlant,Tank0,1,4,1
264020,TankNutrientPoorPlant,Tank0,1,4,1
264040,TankNutrientPoorPlant,Tank0,1,4,1
264160,TankNutrientPoorPlant,Tank0,1,4,1
264220,TankNutrientPoorPlant,Tank0,1,4,1
264400,TankNutrientPoorPlant,Tank0,1,4,1
264440,TankNutrientPoorPlant,Tank0,1,4,1
264640,TankNutrientPoorPlant,Tank0,1,4,1
264680,TankNutrientPoorPlant,Tank0,1,4,1
264980,TankNutrientPoorPlant,Tank0,1,4,1
265060,TankNutrientPoorPlant,Tank0,1,4,1
265100,TankNutrientPoorPlant,Tank0,1,4,1
265120,TankNutrientPoorPlant,Tank0,1,4,1
265240,TankNutrientPoorPlant,Tank0,1,4,1
265320,TankNutrientPoorPlant,Tank0,1,4,1
265440,TankNutrientPoorPlant,Tank0,1,4,1
265520,TankNutrientPoorPlant,Tank0,1,4,1
265660,TankNutrientPoorPlant,Tank0,1,4,1
265700,TankNutrientPoorPlant,Tank0,1,4,1
265760,TankNutrientPoorPlant,Tank0,1,4,1
265800,TankNutrientPoorPlant,Tank0,1,4,1
265900,TankNutrientPoorPlant,Tank0,1,4,1
266220,TankNutrientPoorPlant,Tank0,1,4,1
266640,TankNutrientPoorPlant,Tank0,1,4,1
266720,TankNutrientPoorPlant,Tank0,1,4,1
266880,TankNutrientPoorPlant,Tank0,1,4,1
267060,TankNutrientPoorPlant,Tank0,1,4,1
267080,TankNutrientPoorPlant,Tank0,1,4,1
267420,TankNutrientPoorPlant,Tank0,1,4,1
267520,TankNutrientPoorPlant,Tank0,1,4,1
267660,TankNutrientPoorPlant,Tank0,1,4,1
267880,TankNutrientPoorPlant,Tank0,1,4,1
268040,TankNutrientPoorPlant,Tank0,1,4,1
268100,TankNutrientPoorPlant,Tank0,1,4,1
268240,TankNutrientPoorPlant,Tank0,1,4,1
268280,TankNutrientPoorPlant,Tank0,1,4,1
268620,TankNutrientPoorPlant,Tank0,1,4,1
268660,TankNutrientPoorPlant,Tank0,1,4,1
268780,TankNutrientPoorPlant,Tank0,1,4,1
268820,TankNutrientPoorPlant,Tank0,1,4,1
269020,TankNutrientPoorPlant,Tank0,1,4,1
269020,TankNutrientPoorPlant,Tank0,1,4,1
269060,TankNutrientPoorPlant,Tank0,1,4,1
269060,TankNutrientPoorPlant,Tank0,1,4,1
269120,TankNutrientPoorPlant,Tank0,1,4,1
269260,TankNutrientPoorPlant,Tank0,1,4,1
269260,TankNutrientPoorPlant,Tank0,1,4,1
269280,TankNutrientPoorPlant,Tank0,1,4,1
269300,TankNutrientPoorPlant,Tank0,1,4,1
269320,TankNutrientPoorPlant,Tank0,1,4,1
269340,TankNutrientPoorPlant,Tank0,1,4,1
269400,TankNutrientPoorPlant,Tank0,1,4,1
269400,TankNutrientPoorPlant,Tank0,1,4,1
269460,TankNutrientPoorPlant,Tank0,1,4,1
269460,TankNutrientPoorPlant,Tank0,1,4,1
269760,TankNutrientPoorPlant,Tank0,1,4,1
269840,TankNutrientPoorPlant,Tank0,1,4,1
269900,TankNutrientPoorPlant,Tank0,1,4,1
270080,TankNutrientPoorPlant,Tank0,1,4,1
270120,TankNutrientPoorPlant,Tank0,1,4,1
270260,TankNutrientPoorPlant,Tank0,1,4,1
270300,TankNutrientPoorPlant,Tank0,1,4,1
270460,TankNutrientPoorPlant,Tank0,1,4,1
270520,TankNutrientPoorPlant,Tank0,1,4,1
270620,TankNutrientPoorPlant,Tank0,1,4,1
270700,TankNutrientPoorPlant,Tank0,1,4,1
270860,TankNutrientPoorPlant,Tank0,1,4,1
271060,TankNutrientPoorPlant,Tank0,1,4,1
271140,TankNutrientPoorPlant,Tank0,1,4,1
271220,TankNutrientPoorPlant,Tank0,1,4,1
271300,TankNutrientPoorPlant,Tank0,1,4,1
271700,TankNutrientPoorPlant,Tank0,1,4,1
271840,TankNutrientPoorPlant,Tank0,1,4,1
271860,TankNutrientPoorPlant,Tank0,1,4,1
271900,TankNutrientPoorPlant,Tank0,1,4,1
272000,TankNutrientPoorPlant,Tank0,1,4,1
272060,TankNutrientPoorPlant,Tank0,1,4,1
272100,TankNutrientPoorPlant,Tank0,1,4,1
272140,TankNutrientPoorPlant,Tank0,1,4,1
272240,TankNutrientPoorPlant,Tank0,1,4,1
272460,TankNutrientPoorPlant,Tank0,1,4,1
272480,TankNutrientPoorPlant,Tank0,1,4,1
272540,TankNutrientPoorPlant,Tank0,1,4,1
272600,TankNutrientPoorPlant,Tank0,1,4,1
272640,TankNutrientPoorPlant,Tank0,1,4,1
272680,TankNutrientPoorPlant,Tank0,1,4,1
272820,TankNutrientPoorPlant,Tank0,1,4,1
282440,UsePesticide,Bomber0,1,4,1
290920,UsePesticide,Bomber3,1,4,1
292980,PickUpBattery,Bomber1,1,4,1
318460,UsePesticide,Bomber2,1,4,1
335440,PickUpBattery,Bomber1,1,4,1
359040,PickUpBattery,Scout0,1,4,1
441940,BomberInfestedPlant,Bomber1,1,4,1
441960,BomberInfestedPlant,Bomber1,1,4,1
442580,BomberInfestedPlant,Bomber1,1,4,1
443080,BomberInfestedPlant,Bomber1,1,4,1
443360,BomberInfestedPlant,Bomber1,1,4,1
443760,BomberInfestedPlant,Bomber2,1,4,1
443820,BomberInfestedPlant,Bomber1,1,4,1
443860,BomberInfestedPlant,Bomber1,1,4,1
443940,BomberInfestedPlant,Bomber1,1,4,1
443980,BomberInfestedPlant,Bomber2,1,4,1
444080,BomberInfestedPlant,Bomber1,1,4,1
444260,BomberInfestedPlant,Bomber1,1,4,1
444560,BomberInfestedPlant,Bomber1,1,4,1
444760,BomberInfestedPlant,Bomber2,1,4,1
444880,BomberInfestedPlant,Bomber2,1,4,1
444900,BomberInfestedPlant,Bomber2,1,4,1
444960,BomberInfestedPlant,Bomber2,1,4,1
445200,BomberInfestedPlant,Bomber1,1,4,1
445520,BomberInfestedPlant,Bomber2,1,4,1
445600,BomberInfestedPlant,Bomber1,1,4,1
445780,BomberInfestedPlant,Bomber1,1,4,1
445860,BomberInfestedPlant,Bomber2,1,4,1
446140,BomberInfestedPlant,Bomber2,1,4,1
446180,BomberInfestedPlant,Bomber2,1,4,1
446220,BomberInfestedPlant,Bomber2,1,4,1
446240,BomberInfestedPlant,Bomber2,1,4,1
446360,BomberInfestedPlant,Bomber1,1,4,1
446360,BomberInfestedPlant,Bomber2,1,4,1
446580,BomberInfestedPlant,Bomber1,1,4,1
446620,BomberInfestedPlant,Bomber1,1,4,1
446780,BomberInfestedPlant,Bomber1,1,4,1
446880,BomberInfestedPlant,Bomber1,1,4,1
447100,BomberInfestedPlant,Bomber1,1,4,1
447180,BomberInfestedPlant,Bomber1,1,4,1
447260,BomberInfestedPlant,Bomber1,1,4,1
447300,BomberInfestedPlant,Bomber1,1,4,1
447320,BomberInfestedPlant,Bomber1,1,4,1
447480,BomberInfestedPlant,Bomber1,1,4,1
447540,BomberInfestedPlant,Bomber1,1,4,1
447780,BomberInfestedPlant,Bomber1,1,4,1
448000,BomberInfestedPlant,Bomber1,1,4,1
448060,BomberInfestedPlant,Bomber2,1,4,1
448080,BomberInfestedPlant,Bomber1,1,4,1
448140,BomberInfestedPlant,Bomber2,1,4,1
448180,BomberInfestedPlant,Bomber1,1,4,1
448260,BomberInfestedPlant,Bomber1,1,4,1
448500,BomberInfestedPlant,Bomber2,1,4,1
448540,BomberInfestedPlant,Bomber1,1,4,1
448640,BomberInfestedPlant,Bomber1,1,4,1
448800,BomberInfestedPlant,Bomber2,1,4,1
448940,BomberInfestedPlant,Bomber1,1,4,1
449040,BomberInfestedPlant,Bomber2,1,4,1
449100,BomberInfestedPlant,Bomber1,1,4,1
449220,BomberInfestedPlant,Bomber1,1,4,1
449260,BomberInfestedPlant,Bomber2,1,4,1
449300,BomberInfestedPlant,Bomber1,1,4,1
449400,BomberInfestedPlant,Bomber2,1,4,1
449620,BomberInfestedPlant,Bomber2,1,4,1
449760,BomberInfestedPlant,Bomber2,1,4,1
449880,BomberInfestedPlant,Bomber1,1,4,1
449960,BomberInfestedPlant,Bomber1,1,4,1
450140,BomberInfestedPlant,Bomber2,1,4,1
450420,BomberInfestedPlant,Bomber2,1,4,1
450700,BomberInfestedPlant,Bomber2,1,4,1
450920,BomberInfestedPlant,Bomber2,1,4,1
451080,BomberInfestedPlant,Bomber1,1,4,1
451160,BomberInfestedPlant,Bomber2,1,4,1
451180,BomberInfestedPlant,Bomber1,1,4,1
451300,BomberInfestedPlant,Bomber1,1,4,1
451400,BomberInfestedPlant,Bomber2,1,4,1
451680,BomberInfestedPlant,Bomber2,1,4,1
451960,BomberInfestedPlant,Bomber1,1,4,1
452060,BomberInfestedPlant,Bomber2,1,4,1
452280,BomberInfestedPlant,Bomber1,1,4,1
452320,BomberInfestedPlant,Bomber1,1,4,1
452760,BomberInfestedPlant,Bomber2,1,4,1
452880,BomberInfestedPlant,Bomber1,1,4,1
453000,BomberInfestedPlant,Bomber2,1,4,1
453380,BomberInfestedPlant,Bomber2,1,4,1
453420,BomberInfestedPlant,Bomber1,1,4,1
453620,BomberInfestedPlant,Bomber1,1,4,1
453720,BomberInfestedPlant,Bomber2,1,4,1
453760,BomberInfestedPlant,Bomber1,1,4,1
453840,BomberInfestedPlant,Bomber2,1,4,1
453880,BomberInfestedPlant,Bomber1,1,4,1
453980,BomberInfestedPlant,Bomber2,1,4,1
468480,PickUpBattery,Bomber0,1,4,1
493020,PickUpBattery,Bomber3,1,4,1
511020,PickUpBattery,Scout0,1,4,1
585500,PickUpBattery,Bomber2,1,4,1
634900,UsePesticide,Bomber1,1,4,1
656360,PickUpBattery,Bomber2,1,4,1
701980,PickUpBattery,Bomber0,1,4,1
725180,PickUpBattery,Scout0,1,4,1
820000,PickUpBattery,Bomber3,1,4,1
877160,PickUpBattery,Scout0,1,4,1
883600,PickUpBattery,Bomber0,1,4,1
944560,TankNutrientPoorPlant,Tank0,1,4,1
944580,TankNutrientPoorPlant,Tank0,1,4,1
944660,TankNutrientPoorPlant,Tank0,1,4,1
944680,TankNutrientPoorPlant,Tank0,1,4,1
944720,TankNutrientPoorPlant,Tank0,1,4,1
944840,TankNutrientPoorPlant,Tank0,1,4,1
944960,TankNutrientPoorPlant,Tank0,1,4,1
945120,TankNutrientPoorPlant,Tank0,1,4,1
945180,TankNutrientPoorPlant,Tank0,1,4,1
945380,TankNutrientPoorPlant,Tank0,1,4,1
945560,TankNutrientPoorPlant,Tank0,1,4,1
945640,TankNutrientPoorPlant,Tank0,1,4,1
945740,TankNutrientPoorPlant,Tank0,1,4,1
946080,TankNutrientPoorPlant,Tank0,1,4,1
946100,TankNutrientPoorPlant,Tank0,1,4,1
946400,TankNutrientPoorPlant,Tank0,1,4,1
946500,TankNutrientPoorPlant,Tank0,1,4,1
946680,TankNutrientPoorPlant,Tank0,1,4,1
946720,TankNutrientPoorPlant,Tank0,1,4,1
946820,TankNutrientPoorPlant,Tank0,1,4,1
947080,TankNutrientPoorPlant,Tank0,1,4,1
947100,TankNutrientPoorPlant,Tank0,1,4,1
947180,TankNutrientPoorPlant,Tank0,1,4,1
947240,TankNutrientPoorPlant,Tank0,1,4,1
947280,TankNutrientPoorPlant,Tank0,1,4,1
947380,TankNutrientPoorPlant,Tank0,1,4,1
947400,TankNutrientPoorPlant,Tank0,1,4,1
947420,TankNutrientPoorPlant,Tank0,1,4,1
947440,TankNutrientPoorPlant,Tank0,1,4,1
947480,TankNutrientPoorPlant,Tank0,1,4,1
947620,TankNutrientPoorPlant,Tank0,1,4,1
947800,TankNutrientPoorPlant,Tank0,1,4,1
948000,TankNutrientPoorPlant,Tank0,1,4,1
948040,TankNutrientPoorPlant,Tank0,1,4,1
948200,TankNutrientPoorPlant,Tank0,1,4,1
948220,TankNutrientPoorPlant,Tank0,1,4,1
948640,TankNutrientPoorPlant,Tank0,1,4,1
948740,TankNutrientPoorPlant,Tank0,1,4,1
948780,TankNutrientPoorPlant,Tank0,1,4,1
949120,TankNutrientPoorPlant,Tank0,1,4,1
949460,TankNutrientPoorPlant,Tank0,1,4,1
949600,TankNutrientPoorPlant,Tank0,1,4,1
949680,TankNutrientPoorPlant,Tank0,1,4,1
949900,TankNutrientPoorPlant,Tank0,1,4,1
950120,TankNutrientPoorPlant,Tank0,1,4,1
950160,TankNutrientPoorPlant,Tank0,1,4,1
950540,TankNutrientPoorPlant,Tank0,1,4,1
950840,TankNutrientPoorPlant,Tank0,1,4,1
950860,TankNutrientPoorPlant,Tank0,1,4,1
950880,TankNutrientPoorPlant,Tank0,1,4,1
950900,TankNutrientPoorPlant,Tank0,1,4,1
951120,TankNutrientPoorPlant,Tank0,1,4,1
951160,TankNutrientPoorPlant,Tank0,1,4,1
951180,TankNutrientPoorPlant,Tank0,1,4,1
951640,TankNutrientPoorPlant,Tank0,1,4,1
954140,PickUpBattery,Bomber2,1,4,1
959900,PickUpBattery,Bomber3,1,4,1
959920,UsePesticide,Bomber2,1,4,1
1022200,PickUpBattery,Bomber2,1,4,1
1032740,UseFertilizer,Tank0,1,4,1
1079880,PickUpBattery,Bomber0,1,4,1
1091320,PickUpBattery,Scout0,1,4,1
1213200,PickUpBattery,Bomber3,1,4,1
1240840,PickUpBattery,Bomber0,1,4,1
1243300,PickUpBattery,Scout0,1,4,1
1346680,PickUpBattery,Bomber3,1,4,1
1368740,PickUpBattery,Bomber0,1,4,1
1457460,PickUpBattery,Scout0,1,4,1
1458640,PickUpBattery,Bomber1,1,4,1
1513840,PickUpBattery,Bomber2,1,4,1
1534460,UseFertilizer,Tank0,1,4,1
1577440,PickUpBattery,Bomber0,1,4,1
1607160,PickUpBattery,Scout0,1,4,1
1658940,PickUpBattery,Bomber2,1,4,1
1751320,PickUpBattery,Bomber1,1,4,1
1792060,PickUpBattery,Scout0,1,4,1
1804960,PickUpBattery,Bomber0,1,4,1
1827740,PickUpBattery,Bomber0,1,4,1
1874080,PickUpBattery,Bomber3,1,4,1
1920180,PickUpBattery,Tank0,1,4,1
1954000,PickUpBattery,Scout0,1,4,1
1980040,PickUpBattery,Bomber2,1,4,1
2054500,PickUpBattery,Bomber3,1,4,1
2099580,PickUpBattery,Bomber2,1,4,1
2168160,PickUpBattery,Scout0,1,4,1
2171640,PickUpBattery,Bomber3,1,4,1
2265640,PickUpBattery,Bomber2,1,4,1
2302640,PickUpBattery,Bomber0,1,4,1
2320140,PickUpBattery,Scout0,1,4,1
2387640,PickUpBattery,Bomber0,1,4,1
2396020,TankNutrientPoorPlant,Tank0,1,4,1
2396040,TankNutrientPoorPlant,Tank0,1,4,1
2396100,TankNutrientPoorPlant,Tank0,1,4,1
2396200,TankNutrientPoorPlant,Tank0,1,4,1
2396260,TankNutrientPoorPlant,Tank0,1,4,1
2396300,TankNutrientPoorPlant,Tank0,1,4,1
2396360,TankNutrientPoorPlant,Tank0,1,4,1
2396480,TankNutrientPoorPlant,Tank0,1,4,1
2396680,TankNutrientPoorPlant,Tank0,1,4,1
2396760,TankNutrientPoorPlant,Tank0,1,4,1
2396860,TankNutrientPoorPlant,Tank0,1,4,1
2397080,TankNutrientPoorPlant,Tank0,1,4,1
2397180,TankNutrientPoorPlant,Tank0,1,4,1
2397380,TankNutrientPoorPlant,Tank0,1,4,1
2397520,TankNutrientPoorPlant,Tank0,1,4,1
2397720,TankNutrientPoorPlant,Tank0,1,4,1
2397820,TankNutrientPoorPlant,Tank0,1,4,1
2397860,TankNutrientPoorPlant,Tank0,1,4,1
2397880,TankNutrientPoorPlant,Tank0,1,4,1
2397920,TankNutrientPoorPlant,Tank0,1,4,1
2398120,TankNutrientPoorPlant,Tank0,1,4,1
2398140,TankNutrientPoorPlant,Tank0,1,4,1
2398200,TankNutrientPoorPlant,Tank0,1,4,1
2398360,TankNutrientPoorPlant,Tank0,1,4,1
2398420,TankNutrientPoorPlant,Tank0,1,4,1
2398520,TankNutrientPoorPlant,Tank0,1,4,1
2398560,TankNutrientPoorPlant,Tank0,1,4,1
2398660,TankNutrientPoorPlant,Tank0,1,4,1
2398740,TankNutrientPoorPlant,Tank0,1,4,1
2398800,TankNutrientPoorPlant,Tank0,1,4,1
2398900,TankNutrientPoorPlant,Tank0,1,4,1
2398940,TankNutrientPoorPlant,Tank0,1,4,1
2399160,TankNutrientPoorPlant,Tank0,1,4,1
2399200,TankNutrientPoorPlant,Tank0,1,4,1
2399320,TankNutrientPoorPlant,Tank0,1,4,1
2399540,TankNutrientPoorPlant,Tank0,1,4,1
2399780,TankNutrientPoorPlant,Tank0,1,4,1
2399800,TankNutrientPoorPlant,Tank0,1,4,1
2399840,TankNutrientPoorPlant,Tank0,1,4,1
2399860,TankNutrientPoorPlant,Tank0,1,4,1
2399940,TankNutrientPoorPlant,Tank0,1,4,1
2400100,TankNutrientPoorPlant,Tank0,1,4,1
2400280,TankNutrientPoorPlant,Tank0,1,4,1
2400460,TankNutrientPoorPlant,Tank0,1,4,1
2400480,TankNutrientPoorPlant,Tank0,1,4,1
2400640,TankNutrientPoorPlant,Tank0,1,4,1
2400960,TankNutrientPoorPlant,Tank0,1,4,1
2401000,TankNutrientPoorPlant,Tank0,1,4,1
2401040,TankNutrientPoorPlant,Tank0,1,4,1
2401060,TankNutrientPoorPlant,Tank0,1,4,1
2401360,TankNutrientPoorPlant,Tank0,1,4,1
2401400,TankNutrientPoorPlant,Tank0,1,4,1
2401580,TankNutrientPoorPlant,Tank0,1,4,1
2401840,TankNutrientPoorPlant,Tank0,1,4,1
2402020,TankNutrientPoorPlant,Tank0,1,4,1
2402200,TankNutrientPoorPlant,Tank0,1,4,1
2402220,TankNutrientPoorPlant,Tank0,1,4,1
2402280,TankNutrientPoorPlant,Tank0,1,4,1
2402620,TankNutrientPoorPlant,Tank0,1,4,1
2402900,TankNutrientPoorPlant,Tank0,1,4,1
2402920,TankNutrientPoorPlant,Tank0,1,4,1
2403100,TankNutrientPoorPlant,Tank0,1,4,1
2403520,TankNutrientPoorPlant,Tank0,1,4,1
2403720,TankNutrientPoorPlant,Tank0,1,4,1
2403920,TankNutrientPoorPlant,Tank0,1,4,1
2404000,TankNutrientPoorPlant,Tank0,1,4,1
2404100,TankNutrientPoorPlant,Tank0,1,4,1
2404440,TankNutrientPoorPlant,Tank0,1,4,1
2404520,TankNutrientPoorPlant,Tank0,1,4,1
2404660,TankNutrientPoorPlant,Tank0,1,4,1
2404760,TankNutrientPoorPlant,Tank0,1,4,1
2404820,TankNutrientPoorPlant,Tank0,1,4,1
2405020,TankNutrientPoorPlant,Tank0,1,4,1
2405240,TankNutrientPoorPlant,Tank0,1,4,1
2405300,TankNutrientPoorPlant,Tank0,1,4,1
2405460,TankNutrientPoorPlant,Tank0,1,4,1
2405520,TankNutrientPoorPlant,Tank0,1,4,1
2406160,TankNutrientPoorPlant,Tank0,1,4,1
2406360,TankNutrientPoorPlant,Tank0,1,4,1
2406420,TankNutrientPoorPlant,Tank0,1,4,1
2406880,TankNutrientPoorPlant,Tank0,1,4,1
2406920,TankNutrientPoorPlant,Tank0,1,4,1
2407300,TankNutrientPoorPlant,Tank0,1,4,1
2407700,TankNutrientPoorPlant,Tank0,1,4,1
2407760,TankNutrientPoorPlant,Tank0,1,4,1
2408180,TankNutrientPoorPlant,Tank0,1,4,1
2408280,TankNutrientPoorPlant,Tank0,1,4,1
2408680,TankNutrientPoorPlant,Tank0,1,4,1
2408700,TankNutrientPoorPlant,Tank0,1,4,1
2408720,TankNutrientPoorPlant,Tank0,1,4,1
2409480,TankNutrientPoorPlant,Tank0,1,4,1
2409640,TankNutrientPoorPlant,Tank0,1,4,1
2409680,TankNutrientPoorPlant,Tank0,1,4,1
2411920,PickUpBattery,Bomber3,1,4,1
2527620,PickUpBattery,Bomber0,1,4,1
2534300,PickUpBattery,Scout0,1,4,1
2570600,PickUpBattery,Bomber2,1,4,1
2625440,PickUpBattery,Bomber1,1,4,1
2681720,UseFertilizer,Tank0,1,4,1
2686280,PickUpBattery,Scout0,1,4,1
2725640,PickUpBattery,Bomber0,1,4,1
2762180,PickUpBattery,Bomber1,1,4,1
2834500,PickUpBattery,Bomber3,1,4,1
2848500,PickUpBattery,Bomber1,1,4,1
2900440,PickUpBattery,Scout0,1,4,1
3008560,PickUpBattery,Bomber1,1,4,1
3032020,PickUpBattery,Bomber2,1,4,1
3052420,PickUpBattery,Scout0,1,4,1
3080000,PickUpBattery,Bomber3,1,4,1
3130780,PickUpBattery,Tank0,1,4,1
3191060,PickUpBattery,Bomber2,1,4,1
3238500,PickUpBattery,Bomber1,1,4,1
3266580,PickUpBattery,Scout0,1,4,1
3298760,PickUpBattery,Bomber2,1,4,1
3402660,PickUpBattery,Bomber0,1,4,1
3418740,PickUpBattery,Scout0,1,4,1
3435820,PickUpBattery,Bomber2,1,4,1
3465000,PickUpBattery,Bomber0,1,4,1
3553860,PickUpBattery,Bomber3,1,4,1
3632900,PickUpBattery,Scout0,1,4,1
3662200,PickUpBattery,Bomber0,1,4,1
3702120,PickUpBattery,Bomber3,1,4,1
3784880,PickUpBattery,Scout0,1,4,1
3786340,PickUpBattery,Bomber1,1,4,1
3848180,PickUpBattery,Bomber3,1,4,1
3906520,PickUpBattery,Bomber0,1,4,1
3948880,PickUpBattery,Bomber1,1,4,1
3979180,PickUpBattery,Scout0,1,4,1
4045200,PickUpBattery,Bomber3,1,4,1
4074660,PickUpBattery,Bomber1,1,4,1
4131160,PickUpBattery,Scout0,1,4,1
4140620,PickUpBattery,Bomber0,1,4,1
4186940,PickUpBattery,Bomber2,1,4,1
4288060,PickUpBattery,Bomber0,1,4,1
4340080,PickUpBattery,Bomber1,1,4,1
4345320,PickUpBattery,Scout0,1,4,1
4388560,PickUpBattery,Bomber2,1,4,1
4497300,PickUpBattery,Scout0,1,4,1
4500700,PickUpBattery,Bomber0,1,4,1
4572360,PickUpBattery,Bomber2,1,4,1
4588600,PickUpBattery,Tank0,1,4,1
4618400,PickUpBattery,Bomber0,1,4,1
4698760,PickUpBattery,Bomber1,1,4,1
4711460,PickUpBattery,Scout0,1,4,1
4808680,PickUpBattery,Bomber3,1,4,1
4856840,PickUpBattery,Bomber2,1,4,1
4863440,PickUpBattery,Scout0,1,4,1
4974020,PickUpBattery,Bomber0,1,4,1
5002220,PickUpBattery,Bomber3,1,4,1
5079360,PickUpBattery,Bomber2,1,4,1
5079600,PickUpBattery,Scout0,1,4,1
5146900,PickUpBattery,Bomber2,1,4,1
5147220,PickUpBattery,Bomber3,1,4,1
5231500,PickUpBattery,Scout0,1,4,1
5254860,PickUpBattery,Bomber2,1,4,1
5272560,PickUpBattery,Bomber1,1,4,1
5389240,PickUpBattery,Bomber2,1,4,1
5435520,PickUpBattery,Bomber1,1,4,1
5445820,PickUpBattery,Scout0,1,4,1
5479680,PickUpBattery,Bomber3,1,4,1
5590920,PickUpBattery,Bomber0,1,4,1
5597800,PickUpBattery,Scout0,1,4,1
5638220,PickUpBattery,Bomber2,1,4,1
5708540,PickUpBattery,Bomber0,1,4,1
5734840,PickUpBattery,Bomber1,1,4,1
5749620,PickUpBattery,Bomber1,1,4,1
5811960,PickUpBattery,Scout0,1,4,1
5845860,PickUpBattery,Bomber3,1,4,1
5903800,PickUpBattery,Bomber0,1,4,1
5949660,PickUpBattery,Bomber2,1,4,1
5963940,PickUpBattery,Scout0,1,4,1
6037220,PickUpBattery,Bomber0,1,4,1
6083140,PickUpBattery,Bomber1,1,4,1
6170780,PickUpBattery,Bomber3,1,4,1
6178100,PickUpBattery,Scout0,1,4,1
6204680,PickUpBattery,Tank0,1,4,1
6247540,PickUpBattery,Bomber0,1,4,1
6330080,PickUpBattery,Scout0,1,4,1
6341400,PickUpBattery,Bomber2,1,4,1
6407480,PickUpBattery,Bomber0,1,4,1
6482140,PickUpBattery,Bomber0,1,4,1
6501540,PickUpBattery,Bomber2,1,4,1
6544240,PickUpBattery,Scout0,1,4,1
6574900,PickUpBattery,Bomber1,1,4,1
6646040,PickUpBattery,Bomber2,1,4,1
6696220,PickUpBattery,Scout0,1,4,1
6730560,PickUpBattery,Bomber0,1,4,1
6770880,PickUpBattery,Bomber3,1,4,1
6811880,PickUpBattery,Bomber0,1,4,1
6882560,PickUpBattery,Bomber2,1,4,1
6910380,PickUpBattery,Scout0,1,4,1
6962340,PickUpBattery,Bomber0,1,4,1
7025880,PickUpBattery,Bomber1,1,4,1
7062360,PickUpBattery,Scout0,1,4,1
7119920,PickUpBattery,Bomber2,1,4,1
7167140,TankNutrientPoorPlant,Tank0,1,4,1
7167220,TankNutrientPoorPlant,Tank0,1,4,1
7167340,TankNutrientPoorPlant,Tank0,1,4,1
7167520,TankNutrientPoorPlant,Tank0,1,4,1
7167660,TankNutrientPoorPlant,Tank0,1,4,1
7167840,TankNutrientPoorPlant,Tank0,1,4,1
7168040,TankNutrientPoorPlant,Tank0,1,4,1
7168060,TankNutrientPoorPlant,Tank0,1,4,1
7168100,TankNutrientPoorPlant,Tank0,1,4,1
7168260,TankNutrientPoorPlant,Tank0,1,4,1
7168280,TankNutrientPoorPlant,Tank0,1,4,1
7168420,TankNutrientPoorPlant,Tank0,1,4,1
7168580,TankNutrientPoorPlant,Tank0,1,4,1
7168740,TankNutrientPoorPlant,Tank0,1,4,1
7168900,TankNutrientPoorPlant,Tank0,1,4,1
7168940,TankNutrientPoorPlant,Tank0,1,4,1
7169040,TankNutrientPoorPlant,Tank0,1,4,1
7169100,TankNutrientPoorPlant,Tank0,1,4,1
7169240,TankNutrientPoorPlant,Tank0,1,4,1
7169320,TankNutrientPoorPlant,Tank0,1,4,1
7169580,TankNutrientPoorPlant,Tank0,1,4,1
7169620,TankNutrientPoorPlant,Tank0,1,4,1
7169880,TankNutrientPoorPlant,Tank0,1,4,1
7169920,TankNutrientPoorPlant,Tank0,1,4,1
7170040,TankNutrientPoorPlant,Tank0,1,4,1
7170080,TankNutrientPoorPlant,Tank0,1,4,1
7170100,TankNutrientPoorPlant,Tank0,1,4,1
7170200,TankNutrientPoorPlant,Tank0,1,4,1
7170360,TankNutrientPoorPlant,Tank0,1,4,1
7170380,TankNutrientPoorPlant,Tank0,1,4,1
7170400,TankNutrientPoorPlant,Tank0,1,4,1
7170580,TankNutrientPoorPlant,Tank0,1,4,1
7170580,TankNutrientPoorPlant,Tank0,1,4,1
7170640,TankNutrientPoorPlant,Tank0,1,4,1
7170680,TankNutrientPoorPlant,Tank0,1,4,1
7170720,TankNutrientPoorPlant,Tank0,1,4,1
7170780,TankNutrientPoorPlant,Tank0,1,4,1
7170780,TankNutrientPoorPlant,Tank0,1,4,1
7170820,TankNutrientPoorPlant,Tank0,1,4,1
7170820,TankNutrientPoorPlant,Tank0,1,4,1
7170880,TankNutrientPoorPlant,Tank0,1,4,1
7170880,TankNutrientPoorPlant,Tank0,1,4,1
7170900,TankNutrientPoorPlant,Tank0,1,4,1
7170920,TankNutrientPoorPlant,Tank0,1,4,1
7170940,TankNutrientPoorPlant,Tank0,1,4,1
7170960,TankNutrientPoorPlant,Tank0,1,4,1
7170980,TankNutrientPoorPlant,Tank0,1,4,1
7171020,TankNutrientPoorPlant,Tank0,1,4,1
7171020,TankNutrientPoorPlant,Tank0,1,4,1
7171060,TankNutrientPoorPlant,Tank0,1,4,1
7171080,TankNutrientPoorPlant,Tank0,1,4,1
7171080,TankNutrientPoorPlant,Tank0,1,4,1
7171140,TankNutrientPoorPlant,Tank0,1,4,1
7171140,TankNutrientPoorPlant,Tank0,1,4,1
7171200,TankNutrientPoorPlant,Tank0,1,4,1
7171240,TankNutrientPoorPlant,Tank0,1,4,1
7171240,TankNutrientPoorPlant,Tank0,1,4,1
7171260,TankNutrientPoorPlant,Tank0,1,4,1
7171340,TankNutrientPoorPlant,Tank0,1,4,1
7171340,TankNutrientPoorPlant,Tank0,1,4,1
7171460,TankNutrientPoorPlant,Tank0,1,4,1
7171460,TankNutrientPoorPlant,Tank0,1,4,1
7171500,TankNutrientPoorPlant,Tank0,1,4,1
7171600,TankNutrientPoorPlant,Tank0,1,4,1
7171600,TankNutrientPoorPlant,Tank0,1,4,1
7171640,TankNutrientPoorPlant,Tank0,1,4,1
7171660,TankNutrientPoorPlant,Tank0,1,4,1
7171660,TankNutrientPoorPlant,Tank0,1,4,1
7171700,TankNutrientPoorPlant,Tank0,1,4,1
7171700,TankNutrientPoorPlant,Tank0,1,4,1
7171740,TankNutrientPoorPlant,Tank0,1,4,1
7171780,TankNutrientPoorPlant,Tank0,1,4,1
7171780,TankNutrientPoorPlant,Tank0,1,4,1
7171880,TankNutrientPoorPlant,Tank0,1,4,1
7171880,TankNutrientPoorPlant,Tank0,1,4,1
7171940,TankNutrientPoorPlant,Tank0,1,4,1
7172000,TankNutrientPoorPlant,Tank0,1,4,1
7172020,TankNutrientPoorPlant,Tank0,1,4,1
7172020,TankNutrientPoorPlant,Tank0,1,4,1
7172040,TankNutrientPoorPlant,Tank0,1,4,1
7172060,TankNutrientPoorPlant,Tank0,1,4,1
7172220,TankNutrientPoorPlant,Tank0,1,4,1
7172220,TankNutrientPoorPlant,Tank0,1,4,1
7172300,TankNutrientPoorPlant,Tank0,1,4,1
7172320,TankNutrientPoorPlant,Tank0,1,4,1
7172340,TankNutrientPoorPlant,Tank0,1,4,1
7172360,TankNutrientPoorPlant,Tank0,1,4,1
7172380,TankNutrientPoorPlant,Tank0,1,4,1
7172380,TankNutrientPoorPlant,Tank0,1,4,1
7172420,TankNutrientPoorPlant,Tank0,1,4,1
7172420,TankNutrientPoorPlant,Tank0,1,4,1
7172480,TankNutrientPoorPlant,Tank0,1,4,1
7173040,TankNutrientPoorPlant,Tank0,1,4,1
7173100,TankNutrientPoorPlant,Tank0,1,4,1
7173120,TankNutrientPoorPlant,Tank0,1,4,1
7173140,TankNutrientPoorPlant,Tank0,1,4,1
7173220,TankNutrientPoorPlant,Tank0,1,4,1
7173260,TankNutrientPoorPlant,Tank0,1,4,1
7173300,TankNutrientPoorPlant,Tank0,1,4,1
7173760,TankNutrientPoorPlant,Tank0,1,4,1
7173800,TankNutrientPoorPlant,Tank0,1,4,1
7173820,TankNutrientPoorPlant,Tank0,1,4,1
7173840,TankNutrientPoorPlant,Tank0,1,4,1
7173940,TankNutrientPoorPlant,Tank0,1,4,1
7173980,TankNutrientPoorPlant,Tank0,1,4,1
7174020,TankNutrientPoorPlant,Tank0,1,4,1
7174060,TankNutrientPoorPlant,Tank0,1,4,1
7174120,TankNutrientPoorPlant,Tank0,1,4,1
7174140,TankNutrientPoorPlant,Tank0,1,4,1
7174160,TankNutrientPoorPlant,Tank0,1,4,1
7174280,TankNutrientPoorPlant,Tank0,1,4,1
7174380,TankNutrientPoorPlant,Tank0,1,4,1
7174400,TankNutrientPoorPlant,Tank0,1,4,1
7174940,TankNutrientPoorPlant,Tank0,1,4,1
7175100,TankNutrientPoorPlant,Tank0,1,4,1
7175180,TankNutrientPoorPlant,Tank0,1,4,1
7175220,TankNutrientPoorPlant,Tank0,1,4,1
7175360,TankNutrientPoorPlant,Tank0,1,4,1
7175420,TankNutrientPoorPlant,Tank0,1,4,1
7175440,TankNutrientPoorPlant,Tank0,1,4,1
7175500,TankNutrientPoorPlant,Tank0,1,4,1
7175980,TankNutrientPoorPlant,Tank0,1,4,1
7176240,TankNutrientPoorPlant,Tank0,1,4,1
7176280,TankNutrientPoorPlant,Tank0,1,4,1
7176320,TankNutrientPoorPlant,Tank0,1,4,1
7176500,TankNutrientPoorPlant,Tank0,1,4,1
7176580,TankNutrientPoorPlant,Tank0,1,4,1
7176600,TankNutrientPoorPlant,Tank0,1,4,1
7176860,TankNutrientPoorPlant,Tank0,1,4,1
7176900,TankNutrientPoorPlant,Tank0,1,4,1
7176960,TankNutrientPoorPlant,Tank0,1,4,1
7176980,TankNutrientPoorPlant,Tank0,1,4,1
7177120,TankNutrientPoorPlant,Tank0,1,4,1
7177140,TankNutrientPoorPlant,Tank0,1,4,1
7177240,TankNutrientPoorPlant,Tank0,1,4,1
7177340,TankNutrientPoorPlant,Tank0,1,4,1
7177360,TankNutrientPoorPlant,Tank0,1,4,1
7177640,TankNutrientPoorPlant,Tank0,1,4,1
7177820,TankNutrientPoorPlant,Tank0,1,4,1
7177840,TankNutrientPoorPlant,Tank0,1,4,1
7178100,TankNutrientPoorPlant,Tank0,1,4,1
7178120,TankNutrientPoorPlant,Tank0,1,4,1
7178280,TankNutrientPoorPlant,Tank0,1,4,1
7178360,TankNutrientPoorPlant,Tank0,1,4,1
7178480,TankNutrientPoorPlant,Tank0,1,4,1
7178540,TankNutrientPoorPlant,Tank0,1,4,1
7178720,TankNutrientPoorPlant,Tank0,1,4,1
7178740,TankNutrientPoorPlant,Tank0,1,4,1
7178780,TankNutrientPoorPlant,Tank0,1,4,1
7178800,TankNutrientPoorPlant,Tank0,1,4,1
7178860,TankNutrientPoorPlant,Tank0,1,4,1
7179100,TankNutrientPoorPlant,Tank0,1,4,1
7179200,TankNutrientPoorPlant,Tank0,1,4,1
7179560,TankNutrientPoorPlant,Tank0,1,4,1
7179580,TankNutrientPoorPlant,Tank0,1,4,1
7179640,TankNutrientPoorPlant,Tank0,1,4,1
7179840,TankNutrientPoorPlant,Tank0,1,4,1
7179900,TankNutrientPoorPlant,Tank0,1,4,1
7180000,TankNutrientPoorPlant,Tank0,1,4,1
7180140,TankNutrientPoorPlant,Tank0,1,4,1
7180240,TankNutrientPoorPlant,Tank0,1,4,1
7180360,TankNutrientPoorPlant,Tank0,1,4,1
7180380,TankNutrientPoorPlant,Tank0,1,4,1
7180480,TankNutrientPoorPlant,Tank0,1,4,1
7180700,TankNutrientPoorPlant,Tank0,1,4,1
7180720,TankNutrientPoorPlant,Tank0,1,4,1
7180800,TankNutrientPoorPlant,Tank0,1,4,1
7180840,TankNutrientPoorPlant,Tank0,1,4,1
7180940,TankNutrientPoorPlant,Tank0,1,4,1
7181020,TankNutrientPoorPlant,Tank0,1,4,1
7195760,PickUpBattery,Bomber3,1,4,1
7215100,PickUpBattery,Bomber1,1,4,1
7276520,PickUpBattery,Scout0,1,4,1
7291100,PickUpBattery,Bomber3,1,4,1
7378740,PickUpBattery,Bomber1,1,4,1
7428500,PickUpBattery,Scout0,1,4,1
7449060,PickUpBattery,Bomber0,1,4,1
7492920,PickUpBattery,Bomber3,1,4,1
7522280,PickUpBattery,Bomber0,1,4,1
7604900,PickUpBattery,Bomber2,1,4,1
7642660,PickUpBattery,Scout0,1,4,1
7660500,PickUpBattery,Bomber0,1,4,1
7772220,PickUpBattery,Bomber3,1,4,1
7794640,PickUpBattery,Scout0,1,4,1
7797540,UseFertilizer,Tank0,1,4,1
7836400,PickUpBattery,Bomber2,1,4,1
7918840,TankNutrientPoorPlant,Tank0,1,4,1
7919040,TankNutrientPoorPlant,Tank0,1,4,1
7919060,TankNutrientPoorPlant,Tank0,1,4,1
7919120,TankNutrientPoorPlant,Tank0,1,4,1
7919160,TankNutrientPoorPlant,Tank0,1,4,1
7919540,TankNutrientPoorPlant,Tank0,1,4,1
7919640,TankNutrientPoorPlant,Tank0,1,4,1
7919820,TankNutrientPoorPlant,Tank0,1,4,1
7920060,TankNutrientPoorPlant,Tank0,1,4,1
7920280,TankNutrientPoorPlant,Tank0,1,4,1
7920380,TankNutrientPoorPlant,Tank0,1,4,1
7920540,TankNutrientPoorPlant,Tank0,1,4,1
7920580,TankNutrientPoorPlant,Tank0,1,4,1
7920820,TankNutrientPoorPlant,Tank0,1,4,1
7920880,TankNutrientPoorPlant,Tank0,1,4,1
7920980,TankNutrientPoorPlant,Tank0,1,4,1
7921000,TankNutrientPoorPlant,Tank0,1,4,1
7921160,TankNutrientPoorPlant,Tank0,1,4,1
7921220,TankNutrientPoorPlant,Tank0,1,4,1
7921260,TankNutrientPoorPlant,Tank0,1,4,1
7921380,TankNutrientPoorPlant,Tank0,1,4,1
7921580,TankNutrientPoorPlant,Tank0,1,4,1
7921720,TankNutrientPoorPlant,Tank0,1,4,1
7921740,TankNutrientPoorPlant,Tank0,1,4,1
7921980,TankNutrientPoorPlant,Tank0,1,4,1
7922220,TankNutrientPoorPlant,Tank0,1,4,1
7922320,TankNutrientPoorPlant,Tank0,1,4,1
7922380,TankNutrientPoorPlant,Tank0,1,4,1
7922440,TankNutrientPoorPlant,Tank0,1,4,1
7922600,TankNutrientPoorPlant,Tank0,1,4,1
7922840,TankNutrientPoorPlant,Tank0,1,4,1
7922960,TankNutrientPoorPlant,Tank0,1,4,1
7923020,TankNutrientPoorPlant,Tank0,1,4,1
7923060,TankNutrientPoorPlant,Tank0,1,4,1
7923300,TankNutrientPoorPlant,Tank0,1,4,1
7923320,TankNutrientPoorPlant,Tank0,1,4,1
7923400,TankNutrientPoorPlant,Tank0,1,4,1
7923440,TankNutrientPoorPlant,Tank0,1,4,1
7923600,TankNutrientPoorPlant,Tank0,1,4,1
7923780,TankNutrientPoorPlant,Tank0,1,4,1
7923940,TankNutrientPoorPlant,Tank0,1,4,1
7923980,TankNutrientPoorPlant,Tank0,1,4,1
7924020,TankNutrientPoorPlant,Tank0,1,4,1
7924040,TankNutrientPoorPlant,Tank0,1,4,1
7924080,TankNutrientPoorPlant,Tank0,1,4,1
7924160,TankNutrientPoorPlant,Tank0,1,4,1
7924180,TankNutrientPoorPlant,Tank0,1,4,1
7924260,TankNutrientPoorPlant,Tank0,1,4,1
7924400,TankNutrientPoorPlant,Tank0,1,4,1
7924460,TankNutrientPoorPlant,Tank0,1,4,1
7924500,TankNutrientPoorPlant,Tank0,1,4,1
7924620,TankNutrientPoorPlant,Tank0,1,4,1
7924640,TankNutrientPoorPlant,Tank0,1,4,1
7924780,TankNutrientPoorPlant,Tank0,1,4,1
7924820,TankNutrientPoorPlant,Tank0,1,4,1
7924900,TankNutrientPoorPlant,Tank0,1,4,1
7925060,TankNutrientPoorPlant,Tank0,1,4,1
7925520,TankNutrientPoorPlant,Tank0,1,4,1
7925560,TankNutrientPoorPlant,Tank0,1,4,1
7925740,TankNutrientPoorPlant,Tank0,1,4,1
7925820,TankNutrientPoorPlant,Tank0,1,4,1
7925880,TankNutrientPoorPlant,Tank0,1,4,1
7926160,TankNutrientPoorPlant,Tank0,1,4,1
7926260,TankNutrientPoorPlant,Tank0,1,4,1
7926360,TankNutrientPoorPlant,Tank0,1,4,1
7926600,TankNutrientPoorPlant,Tank0,1,4,1
7926640,TankNutrientPoorPlant,Tank0,1,4,1
7926680,TankNutrientPoorPlant,Tank0,1,4,1
7926740,TankNutrientPoorPlant,Tank0,1,4,1
7926780,TankNutrientPoorPlant,Tank0,1,4,1
7926800,TankNutrientPoorPlant,Tank0,1,4,1
7927000,TankNutrientPoorPlant,Tank0,1,4,1
7927200,TankNutrientPoorPlant,Tank0,1,4,1
7927260,TankNutrientPoorPlant,Tank0,1,4,1
7927820,TankNutrientPoorPlant,Tank0,1,4,1
7927840,TankNutrientPoorPlant,Tank0,1,4,1
7928220,TankNutrientPoorPlant,Tank0,1,4,1
7928260,TankNutrientPoorPlant,Tank0,1,4,1
7928380,TankNutrientPoorPlant,Tank0,1,4,1
7928880,TankNutrientPoorPlant,Tank0,1,4,1
7928940,TankNutrientPoorPlant,Tank0,1,4,1
7928960,TankNutrientPoorPlant,Tank0,1,4,1
7929140,TankNutrientPoorPlant,Tank0,1,4,1
7929220,TankNutrientPoorPlant,Tank0,1,4,1
7929400,TankNutrientPoorPlant,Tank0,1,4,1
7929420,TankNutrientPoorPlant,Tank0,1,4,1
7941300,PickUpBattery,Bomber0,1,4,1
7949360,PickUpBattery,Bomber1,1,4,1
7992960,PickUpBattery,Scout0,1,4,1
8014000,PickUpBattery,Bomber2,1,4,1
8132060,PickUpBattery,Scout0,1,4,1
8135220,PickUpBattery,Bomber0,1,4,1
8163920,PickUpBattery,Bomber2,1,4,1
8189740,PickUpBattery,Tank0,1,4,1
8226800,PickUpBattery,Bomber3,1,4,1
8317820,PickUpBattery,Bomber1,1,4,1
8326420,PickUpBattery,Bomber3,1,4,1
8346220,PickUpBattery,Scout0,1,4,1
8432000,PickUpBattery,Bomber0,1,4,1
8470620,PickUpBattery,Bomber0,1,4,1
8498200,PickUpBattery,Scout0,1,4,1
8574100,PickUpBattery,Bomber1,1,4,1
8623740,PickUpBattery,Bomber2,1,4,1
8695500,PickUpBattery,Bomber2,1,4,1
8707080,PickUpBattery,Bomber1,1,4,1
8712360,PickUpBattery,Scout0,1,4,1
8826020,PickUpBattery,Bomber0,1,4,1
8864340,PickUpBattery,Scout0,1,4,1
8884300,PickUpBattery,Bomber2,1,4,1
8946400,PickUpBattery,Bomber0,1,4,1
9033440,PickUpBattery,Bomber1,1,4,1
9078500,PickUpBattery,Scout0,1,4,1
9120280,PickUpBattery,Bomber3,1,4,1
9162500,PickUpBattery,Bomber0,1,4,1
9227080,PickUpBattery,Bomber2,1,4,1
9230480,PickUpBattery,Scout0,1,4,1
9246020,PickUpBattery,Bomber3,1,4,1
9265120,UseFertilizer,Tank0,1,4,1
9367640,PickUpBattery,Bomber3,1,4,1
9393660,PickUpBattery,Bomber0,1,4,1
9444640,PickUpBattery,Scout0,1,4,1
9479680,PickUpBattery,Bomber1,1,4,1
9596620,PickUpBattery,Scout0,1,4,1
9604320,PickUpBattery,Bomber2,1,4,1
9650300,PickUpBattery,Bomber3,1,4,1
9709880,PickUpBattery,Bomber0,1,4,1
9787520,PickUpBattery,Bomber2,1,4,1
9810780,PickUpBattery,Scout0,1,4,1
9882960,PickUpBattery,Bomber3,1,4,1
9919940,PickUpBattery,Bomber2,1,4,1
9962760,PickUpBattery,Scout0,1,4,1
9974340,PickUpBattery,Bomber0,1,4,1
10043280,PickUpBattery,Bomber1,1,4,1
10134780,PickUpBattery,Bomber3,1,4,1
10159080,PickUpBattery,Bomber0,1,4,1
10160560,PickUpBattery,Tank0,1,4,1
10176920,PickUpBattery,Scout0,1,4,1
10243080,PickUpBattery,Bomber2,1,4,1
10328900,PickUpBattery,Scout0,1,4,1
10352460,PickUpBattery,Bomber0,1,4,1
10383000,PickUpBattery,Bomber1,1,4,1
10453560,PickUpBattery,Bomber2,1,4,1
10540380,PickUpBattery,Bomber1,1,4,1
10543060,PickUpBattery,Scout0,1,4,1
10552320,PickUpBattery,Bomber0,1,4,1
10691800,PickUpBattery,Bomber0,1,4,1
10694440,PickUpBattery,Bomber2,1,4,1
10696820,PickUpBattery,Scout0,1,4,1
10778260,PickUpBattery,Bomber1,1,4,1
10836180,PickUpBattery,Bomber0,1,4,1
10915040,PickUpBattery,Bomber2,1,4,1
10917040,PickUpBattery,Scout0,1,4,1
10975240,PickUpBattery,Bomber1,1,4,1
10976920,PickUpBattery,Bomber0,1,4,1
11069020,PickUpBattery,Scout0,1,4,1
11081020,PickUpBattery,Bomber1,1,4,1
11164220,PickUpBattery,Bomber1,1,4,1
11174720,PickUpBattery,Bomber0,1,4,1
11223120,PickUpBattery,Bomber2,1,4,1
11281100,PickUpBattery,Bomber1,1,4,1
11283180,PickUpBattery,Scout0,1,4,1
11357720,PickUpBattery,Bomber3,1,4,1
11435160,PickUpBattery,Scout0,1,4,1
11454320,PickUpBattery,Bomber2,1,4,1
11521980,PickUpBattery,Bomber1,1,4,1
11610940,PickUpBattery,Bomber3,1,4,1
11649320,PickUpBattery,Scout0,1,4,1
11658160,PickUpBattery,Bomber0,1,4,1
11740760,PickUpBattery,Bomber3,1,4,1
11782680,PickUpBattery,Bomber1,1,4,1
11801300,PickUpBattery,Scout0,1,4,1
11847160,PickUpBattery,Tank0,1,4,1
11861860,PickUpBattery,Bomber3,1,4,1
11898540,PickUpBattery,Bomber2,1,4,1
11989400,PickUpBattery,Bomber0,1,4,1
12015460,PickUpBattery,Scout0,1,4,1
12066260,PickUpBattery,Bomber1,1,4,1
12110620,PickUpBattery,Bomber0,1,4,1
12167440,PickUpBattery,Scout0,1,4,1
12206580,PickUpBattery,Bomber3,1,4,1
12281960,PickUpBattery,Bomber0,1,4,1
12370260,PickUpBattery,Bomber2,1,4,1
12381600,PickUpBattery,Scout0,1,4,1
12396780,PickUpBattery,Bomber1,1,4,1
12473660,PickUpBattery,Bomber3,1,4,1
12533580,PickUpBattery,Scout0,1,4,1
12552520,PickUpBattery,Bomber2,1,4,1
12587800,PickUpBattery,Bomber3,1,4,1
12697980,PickUpBattery,Bomber2,1,4,1
12747740,PickUpBattery,Scout0,1,4,1
12816640,PickUpBattery,Bomber1,1,4,1
12823820,PickUpBattery,Bomber0,1,4,1
12899720,PickUpBattery,Scout0,1,4,1
12941880,PickUpBattery,Bomber2,1,4,1
12990800,PickUpBattery,Bomber1,1,4,1
12996060,PickUpBattery,Bomber3,1,4,1
13090160,PickUpBattery,Bomber3,1,4,1
13113880,PickUpBattery,Scout0,1,4,1
13193140,PickUpBattery,Bomber1,1,4,1
13226240,PickUpBattery,Bomber0,1,4,1
13265860,PickUpBattery,Scout0,1,4,1
13307980,PickUpBattery,Bomber3,1,4,1
13393780,PickUpBattery,Bomber0,1,4,1
13471180,PickUpBattery,Bomber1,1,4,1
13473200,PickUpBattery,Bomber3,1,4,1
13480020,PickUpBattery,Scout0,1,4,1
13563460,PickUpBattery,Bomber0,1,4,1
13632000,PickUpBattery,Scout0,1,4,1
13655580,PickUpBattery,Bomber1,1,4,1
13661740,PickUpBattery,Bomber2,1,4,1
13736280,PickUpBattery,Bomber0,1,4,1
13815240,PickUpBattery,Bomber0,1,4,1
13815580,PickUpBattery,Bomber3,1,4,1
13846160,PickUpBattery,Scout0,1,4,1
13912620,PickUpBattery,Bomber1,1,4,1
13998140,PickUpBattery,Scout0,1,4,1
14004180,PickUpBattery,Bomber0,1,4,1
14062200,PickUpBattery,Tank0,1,4,1
14068940,PickUpBattery,Bomber2,1,4,1
14135060,PickUpBattery,Bomber1,1,4,1
14212300,PickUpBattery,Scout0,1,4,1
14216780,PickUpBattery,Bomber0,1,4,1
14286580,PickUpBattery,Bomber2,1,4,1
14323880,PickUpBattery,Bomber1,1,4,1
14364280,PickUpBattery,Scout0,1,4,1
14416600,PickUpBattery,Bomber2,1,4,1
14518480,PickUpBattery,Bomber0,1,4,1
14573500,PickUpBattery,Bomber3,1,4,1
14578440,PickUpBattery,Scout0,1,4,1
14634060,PickUpBattery,Bomber0,1,4,1
14660560,PickUpBattery,Bomber3,1,4,1
14730420,PickUpBattery,Scout0,1,4,1
14762420,PickUpBattery,Bomber2,1,4,1
14846760,PickUpBattery,Bomber3,1,4,1
14893780,PickUpBattery,Bomber0,1,4,1
14944580,PickUpBattery,Scout0,1,4,1
14978220,PickUpBattery,Bomber3,1,4,1
15043800,PickUpBattery,Bomber0,1,4,1
15096560,PickUpBattery,Scout0,1,4,1
15139520,PickUpBattery,Bomber1,1,4,1
15200940,TankNutrientPoorPlant,Tank0,1,4,1
15201040,TankNutrientPoorPlant,Tank0,1,4,1
15201120,TankNutrientPoorPlant,Tank0,1,4,1
15201160,TankNutrientPoorPlant,Tank0,1,4,1
15201340,TankNutrientPoorPlant,Tank0,1,4,1
15201360,TankNutrientPoorPlant,Tank0,1,4,1
15201500,TankNutrientPoorPlant,Tank0,1,4,1
15201520,TankNutrientPoorPlant,Tank0,1,4,1
15201580,TankNutrientPoorPlant,Tank0,1,4,1
15201720,TankNutrientPoorPlant,Tank0,1,4,1
15201780,TankNutrientPoorPlant,Tank0,1,4,1
15201920,TankNutrientPoorPlant,Tank0,1,4,1
15202000,TankNutrientPoorPlant,Tank0,1,4,1
15202040,TankNutrientPoorPlant,Tank0,1,4,1
15202200,TankNutrientPoorPlant,Tank0,1,4,1
15202240,TankNutrientPoorPlant,Tank0,1,4,1
15202620,TankNutrientPoorPlant,Tank0,1,4,1
15202880,TankNutrientPoorPlant,Tank0,1,4,1
15202960,TankNutrientPoorPlant,Tank0,1,4,1
15203080,TankNutrientPoorPlant,Tank0,1,4,1
15203260,TankNutrientPoorPlant,Tank0,1,4,1
15236060,PickUpBattery,Bomber2,1,4,1
15295240,PickUpBattery,Bomber0,1,4,1
15301720,UseFertilizer,Tank0,1,4,1
15310720,PickUpBattery,Scout0,1,4,1
15382900,PickUpBattery,Bomber1,1,4,1
