time,event,agent,scouts,bombers,tanks
71720,BomberInfestedPlant,Bomber1,1,2,3
71860,BomberInfestedPlant,Bomber0,1,2,3
71960,BomberInfestedPlant,Bomber0,1,2,3
71980,BomberInfestedPlant,Bomber0,1,2,3
72020,BomberInfestedPlant,Bomber0,1,2,3
72100,BomberInfestedPlant,Bomber1,1,2,3
72140,BomberInfestedPlant,Bomber0,1,2,3
72180,BomberInfestedPlant,Bomber1,1,2,3
72240,BomberInfestedPlant,Bomber1,1,2,3
72420,BomberInfestedPlant,Bomber0,1,2,3
72480,BomberInfestedPlant,Bomber0,1,2,3
72840,BomberInfestedPlant,Bomber0,1,2,3
72920,BomberInfestedPlant,Bomber0,1,2,3
72940,BomberInfestedPlant,Bomber1,1,2,3
73400,BomberInfestedPlant,Bomber1,1,2,3
73540,BomberInfestedPlant,Bomber1,1,2,3
73700,BomberInfestedPlant,Bomber0,1,2,3
73800,BomberInfestedPlant,Bomber0,1,2,3
73860,BomberInfestedPlant,Bomber1,1,2,3
74000,BomberInfestedPlant,Bomber0,1,2,3
74060,BomberInfestedPlant,Bomber1,1,2,3
74100,BomberInfestedPlant,Bomber0,1,2,3
74180,BomberInfestedPlant,Bomber1,1,2,3
74320,BomberInfestedPlant,Bomber0,1,2,3
74340,BomberInfestedPlant,Bomber1,1,2,3
74360,BomberInfestedPlant,Bomber0,1,2,3
74680,BomberInfestedPlant,Bomber1,1,2,3
74720,BomberInfestedPlant,Bomber1,1,2,3
74860,BomberInfestedPlant,Bomber0,1,2,3
74920,BomberInfestedPlant,Bomber0,1,2,3
75060,BomberInfestedPlant,Bomber0,1,2,3
75100,BomberInfestedPlant,Bomber0,1,2,3
75140,BomberInfestedPlant,Bomber0,1,2,3
75860,BomberInfestedPlant,Bomber1,1,2,3
76600,BomberInfestedPlant,Bomber1,1,2,3
76620,BomberInfestedPlant,Bomber0,1,2,3
76820,BomberInfestedPlant,Bomber0,1,2,3
76900,BomberInfestedPlant,Bomber0,1,2,3
77080,BomberInfestedPlant,Bomber0,1,2,3
77780,BomberInfestedPlant,Bomber0,1,2,3
77860,BomberInfestedPlant,Bomber1,1,2,3
77880,BomberInfestedPlant,Bomber1,1,2,3
77960,BomberInfestedPlant,Bomber0,1,2,3
77980,BomberInfestedPlant,Bomber1,1,2,3
78180,BomberInfestedPlant,Bomber1,1,2,3
78280,BomberInfestedPlant,Bomber1,1,2,3
78340,BomberInfestedPlant,Bomber1,1,2,3
78380,BomberInfestedPlant,Bomber1,1,2,3
78440,BomberInfestedPlant,Bomber1,1,2,3
78820,BomberInfestedPlant,Bomber0,1,2,3
78860,BomberInfestedPlant,Bomber1,1,2,3
78920,BomberInfestedPlant,Bomber1,1,2,3
79180,BomberInfestedPlant,Bomber1,1,2,3
79260,BomberInfestedPlant,Bomber1,1,2,3
79360,BomberInfestedPlant,Bomber1,1,2,3
79400,BomberInfestedPlant,Bomber0,1,2,3
79640,BomberInfestedPlant,Bomber0,1,2,3
79660,BomberInfestedPlant,Bomber0,1,2,3
79780,BomberInfestedPlant,Bomber0,1,2,3
79820,BomberInfestedPlant,Bomber1,1,2,3
79840,BomberInfestedPlant,Bomber1,1,2,3
79880,BomberInfestedPlant,Bomber1,1,2,3
79900,BomberInfestedPlant,Bomber1,1,2,3
80000,BomberInfestedPlant,Bomber0,1,2,3
80000,BomberInfestedPlant,Bomber1,1,2,3
80060,BomberInfestedPlant,Bomber0,1,2,3
80140,BomberInfestedPlant,Bomber0,1,2,3
80200,BomberInfestedPlant,Bomber0,1,2,3
80500,BomberInfestedPlant,Bomber1,1,2,3
80580,BomberInfestedPlant,Bomber0,1,2,3
80700,BomberInfestedPlant,Bomber0,1,2,3
80720,BomberInfestedPlant,Bomber0,1,2,3
80980,BomberInfestedPlant,Bomber1,1,2,3
81100,BomberInfestedPlant,Bomber1,1,2,3
81140,BomberInfestedPlant,Bomber0,1,2,3
81180,BomberInfestedPlant,Bomber1,1,2,3
81240,BomberInfestedPlant,Bomber0,1,2,3
81240,BomberInfestedPlant,Bomber1,1,2,3
81280,BomberInfestedPlant,Bomber0,1,2,3
81280,BomberInfestedPlant,Bomber1,1,2,3
81600,BomberInfestedPlant,Bomber1,1,2,3
81660,BomberInfestedPlant,Bomber0,1,2,3
81960,BomberInfestedPlant,Bomber0,1,2,3
81980,BomberInfestedPlant,Bomber1,1,2,3
82020,BomberInfestedPlant,Bomber0,1,2,3
82420,BomberInfestedPlant,Bomber0,1,2,3
82500,BomberInfestedPlant,Bomber0,1,2,3
82860,BomberInfestedPlant,Bomber0,1,2,3
82900,BomberInfestedPlant,Bomber0,1,2,3
82920,BomberInfestedPlant,Bomber1,1,2,3
83120,BomberInfestedPlant,Bomber1,1,2,3
83180,BomberInfestedPlant,Bomber1,1,2,3
83220,BomberInfestedPlant,Bomber1,1,2,3
83280,BomberInfestedPlant,Bomber0,1,2,3
83320,BomberInfestedPlant,Bomber1,1,2,3
83460,BomberInfestedPlant,Bomber1,1,2,3
83600,BomberInfestedPlant,Bomber0,1,2,3
83660,BomberInfestedPlant,Bomber0,1,2,3
83760,BomberInfestedPlant,Bomber1,1,2,3
83920,BomberInfestedPlant,Bomber1,1,2,3
84020,BomberInfestedPlant,Bomber0,1,2,3
84160,BomberInfestedPlant,Bomber1,1,2,3
84220,BomberInfestedPlant,Bomber0,1,2,3
84260,BomberInfestedPlant,Bomber0,1,2,3
84380,BomberInfestedPlant,Bomber0,1,2,3
84480,BomberInfestedPlant,Bomber1,1,2,3
84680,BomberInfestedPlant,Bomber0,1,2,3
85060,BomberInfestedPlant,Bomber1,1,2,3
85340,BomberInfestedPlant,Bomber1,1,2,3
85420,BomberInfestedPlant,Bomber0,1,2,3
85720,BomberInfestedPlant,Bomber0,1,2,3
85760,BomberInfestedPlant,Bomber1,1,2,3
85820,BomberInfestedPlant,Bomber0,1,2,3
85966,BomberInfestedPlant,Bomber0,1,2,3
86060,BomberInfestedPlant,Bomber1,1,2,3
86080,BomberInfestedPlant,Bomber0,1,2,3
86100,BomberInfestedPlant,Bomber0,1,2,3
86140,BomberInfestedPlant,Bomber1,1,2,3
86180,BomberInfestedPlant,Bomber0,1,2,3
86200,BomberInfestedPlant,Bomber0,1,2,3
86260,BomberInfestedPlant,Bomber1,1,2,3
86280,BomberInfestedPlant,Bomber1,1,2,3
86340,BomberInfestedPlant,Bomber1,1,2,3
86640,BomberInfestedPlant,Bomber0,1,2,3
86700,BomberInfestedPlant,Bomber0,1,2,3
86760,BomberInfestedPlant,Bomber1,1,2,3
86820,BomberInfestedPlant,Bomber1,1,2,3
86900,BomberInfestedPlant,Bomber0,1,2,3
86940,BomberInfestedPlant,Bomber1,1,2,3
87000,BomberInfestedPlant,Bomber0,1,2,3
87160,BomberInfestedPlant,Bomber0,1,2,3
87280,BomberInfestedPlant,Bomber1,1,2,3
87340,BomberInfestedPlant,Bomber1,1,2,3
87580,BomberInfestedPlant,Bomber0,1,2,3
87700,BomberInfestedPlant,Bomber0,1,2,3
87760,BomberInfestedPlant,Bomber0,1,2,3
87800,BomberInfestedPlant,Bomber1,1,2,3
87940,BomberInfestedPlant,Bomber1,1,2,3
90180,BomberInfestedPlant,Bomber0,1,2,3
90180,BomberInfestedPlant,Bomber1,1,2,3
90240,BomberInfestedPlant,Bomber0,1,2,3
90300,BomberInfestedPlant,Bomber1,1,2,3
90520,BomberInfestedPlant,Bomber1,1,2,3
91020,BomberInfestedPlant,Bomber1,1,2,3
91080,BomberInfestedPlant,Bomber1,1,2,3
91480,BomberInfestedPlant,Bomber1,1,2,3
92080,BomberInfestedPlant,Bomber1,1,2,3
92180,BomberInfestedPlant,Bomber1,1,2,3
92200,BomberInfestedPlant,Bomber1,1,2,3
92280,BomberInfestedPlant,Bomber1,1,2,3
92760,BomberInfestedPlant,Bomber1,1,2,3
93160,BomberInfestedPlant,Bomber1,1,2,3
93580,BomberInfestedPlant,Bomber1,1,2,3
93740,BomberInfestedPlant,Bomber1,1,2,3
94080,BomberInfestedPlant,Bomber1,1,2,3
94120,BomberInfestedPlant,Bomber1,1,2,3
94140,BomberInfestedPlant,Bomber1,1,2,3
94260,BomberInfestedPlant,Bomber1,1,2,3
94880,BomberInfestedPlant,Bomber1,1,2,3
95060,BomberInfestedPlant,Bomber1,1,2,3
95320,BomberInfestedPlant,Bomber1,1,2,3
95580,BomberInfestedPlant,Bomber1,1,2,3
95600,BomberInfestedPlant,Bomber1,1,2,3
95940,BomberInfestedPlant,Bomber1,1,2,3
96240,BomberInfestedPlant,Bomber1,1,2,3
97000,BomberInfestedPlant,Bomber1,1,2,3
97220,BomberInfestedPlant,Bomber1,1,2,3
97720,BomberInfestedPlant,Bomber1,1,2,3
98160,BomberInfestedPlant,Bomber1,1,2,3
98520,BomberInfestedPlant,Bomber1,1,2,3
98620,BomberInfestedPlant,Bomber1,1,2,3
98840,BomberInfestedPlant,Bomber1,1,2,3
99080,BomberInfestedPlant,Bomber1,1,2,3
99320,BomberInfestedPlant,Bomber1,1,2,3
99440,BomberInfestedPlant,Bomber1,1,2,3
100440,BomberInfestedPlant,Bomber1,1,2,3
100560,BomberInfestedPlant,Bomber1,1,2,3
101660,BomberInfestedPlant,Bomber1,1,2,3
101960,BomberInfestedPlant,Bomber1,1,2,3
102080,BomberInfestedPlant,Bomber1,1,2,3
102140,BomberInfestedPlant,Bomber1,1,2,3
102440,BomberInfestedPlant,Bomber1,1,2,3
102480,BomberInfestedPlant,Bomber1,1,2,3
102680,BomberInfestedPlant,Bomber1,1,2,3
102740,BomberInfestedPlant,Bomber1,1,2,3
103040,BomberInfestedPlant,Bomber1,1,2,3
103220,BomberInfestedPlant,Bomber1,1,2,3
103380,BomberInfestedPlant,Bomber1,1,2,3
103920,BomberInfestedPlant,Bomber1,1,2,3
104020,BomberInfestedPlant,Bomber1,1,2,3
104060,BomberInfestedPlant,Bomber1,1,2,3
105140,BomberInfestedPlant,Bomber1,1,2,3
105180,BomberInfestedPlant,Bomber1,1,2,3
105440,BomberInfestedPlant,Bomber1,1,2,3
105680,BomberInfestedPlant,Bomber1,1,2,3
106020,BomberInfestedPlant,Bomber1,1,2,3
106180,BomberInfestedPlant,Bomber1,1,2,3
141160,UsePesticide,Bomber0,1,2,3
144880,PickUpBattery,Scout0,1,2,3
198400,PickUpBattery,Bomber0,1,2,3
202440,UsePesticide,Bomber1,1,2,3
212220,TankNutrientPoorPlant,Tank2,1,2,3
212580,TankNutrientPoorPlant,Tank2,1,2,3
212600,TankNutrientPoorPlant,Tank2,1,2,3
212700,TankNutrientPoorPlant,Tank2,1,2,3
212720,TankNutrientPoorPlant,Tank2,1,2,3
212780,TankNutrientPoorPlant,Tank2,1,2,3
212960,TankNutrientPoorPlant,Tank2,1,2,3
213020,TankNutrientPoorPlant,Tank2,1,2,3
213140,TankNutrientPoorPlant,Tank2,1,2,3
213220,TankNutrientPoorPlant,Tank2,1,2,3
213640,TankNutrientPoorPlant,Tank2,1,2,3
213740,TankNutrientPoorPlant,Tank2,1,2,3
214080,TankNutrientPoorPlant,Tank2,1,2,3
214120,TankNutrientPoorPlant,Tank2,1,2,3
214180,TankNutrientPoorPlant,Tank2,1,2,3
214300,TankNutrientPoorPlant,Tank2,1,2,3
214520,TankNutrientPoorPlant,Tank2,1,2,3
214620,TankNutrientPoorPlant,Tank2,1,2,3
214640,TankNutrientPoorPlant,Tank2,1,2,3
215240,TankNutrientPoorPlant,Tank2,1,2,3
215700,TankNutrientPoorPlant,Tank2,1,2,3
215840,TankNutrientPoorPlant,Tank2,1,2,3
215920,TankNutrientPoorPlant,Tank2,1,2,3
216080,TankNutrientPoorPlant,Tank2,1,2,3
216100,TankNutrientPoorPlant,Tank2,1,2,3
216140,TankNutrientPoorPlant,Tank2,1,2,3
216360,TankNutrientPoorPlant,Tank2,1,2,3
216600,TankNutrientPoorPlant,Tank2,1,2,3
216760,TankNutrientPoorPlant,Tank2,1,2,3
216880,TankNutrientPoorPlant,Tank2,1,2,3
216960,TankNutrientPoorPlant,Tank2,1,2,3
217120,TankNutrientPoorPlant,Tank2,1,2,3
217200,TankNutrientPoorPlant,Tank2,1,2,3
217320,TankNutrientPoorPlant,Tank2,1,2,3
217540,TankNutrientPoorPlant,Tank2,1,2,3
217560,TankNutrientPoorPlant,Tank2,1,2,3
217720,TankNutrientPoorPlant,Tank2,1,2,3
218100,TankNutrientPoorPlant,Tank2,1,2,3
218200,TankNutrientPoorPlant,Tank2,1,2,3
218360,TankNutrientPoorPlant,Tank2,1,2,3
218420,TankNutrientPoorPlant,Tank2,1,2,3
218680,TankNutrientPoorPlant,Tank2,1,2,3
218740,TankNutrientPoorPlant,Tank2,1,2,3
218980,TankNutrientPoorPlant,Tank2,1,2,3
219080,TankNutrientPoorPlant,Tank2,1,2,3
219100,TankNutrientPoorPlant,Tank2,1,2,3
219120,TankNutrientPoorPlant,Tank2,1,2,3
219200,TankNutrientPoorPlant,Tank2,1,2,3
219300,TankNutrientPoorPlant,Tank2,1,2,3
219340,TankNutrientPoorPlant,Tank2,1,2,3
219660,TankNutrientPoorPlant,Tank2,1,2,3
219740,TankNutrientPoorPlant,Tank2,1,2,3
219800,TankNutrientPoorPlant,Tank2,1,2,3
220000,TankNutrientPoorPlant,Tank2,1,2,3
220160,TankNutrientPoorPlant,Tank2,1,2,3
220260,TankNutrientPoorPlant,Tank2,1,2,3
220280,TankNutrientPoorPlant,Tank2,1,2,3
220580,TankNutrientPoorPlant,Tank2,1,2,3
220620,TankNutrientPoorPlant,Tank2,1,2,3
220680,TankNutrientPoorPlant,Tank2,1,2,3
220720,TankNutrientPoorPlant,Tank2,1,2,3
220720,TankNutrientPoorPlant,Tank2,1,2,3
220740,TankNutrientPoorPlant,Tank2,1,2,3
220840,TankNutrientPoorPlant,Tank2,1,2,3
220880,TankNutrientPoorPlant,Tank2,1,2,3
220900,TankNutrientPoorPlant,Tank2,1,2,3
220900,TankNutrientPoorPlant,Tank2,1,2,3
220920,TankNutrientPoorPlant,Tank2,1,2,3
220940,TankNutrientPoorPlant,Tank2,1,2,3
220960,TankNutrientPoorPlant,Tank2,1,2,3
221000,TankNutrientPoorPlant,Tank2,1,2,3
221020,TankNutrientPoorPlant,Tank2,1,2,3
221040,TankNutrientPoorPlant,Tank2,1,2,3
221080,TankNutrientPoorPlant,Tank2,1,2,3
221080,TankNutrientPoorPlant,Tank2,1,2,3
221120,TankNutrientPoorPlant,Tank2,1,2,3
221180,TankNutrientPoorPlant,Tank2,1,2,3
221200,TankNutrientPoorPlant,Tank2,1,2,3
221200,TankNutrientPoorPlant,Tank2,1,2,3
221240,TankNutrientPoorPlant,Tank2,1,2,3
221240,TankNutrientPoorPlant,Tank2,1,2,3
221280,TankNutrientPoorPlant,Tank2,1,2,3
221280,TankNutrientPoorPlant,Tank2,1,2,3
221320,TankNutrientPoorPlant,Tank2,1,2,3
221320,TankNutrientPoorPlant,Tank2,1,2,3
221380,TankNutrientPoorPlant,Tank2,1,2,3
221380,TankNutrientPoorPlant,Tank2,1,2,3
221420,TankNutrientPoorPlant,Tank2,1,2,3
221440,TankNutrientPoorPlant,Tank2,1,2,3
235760,PickUpBattery,Bomber1,1,2,3
260300,TankNutrientPoorPlant,Tank2,1,2,3
260340,TankNutrientPoorPlant,Tank2,1,2,3
260360,TankNutrientPoorPlant,Tank2,1,2,3
260380,TankNutrientPoorPlant,Tank2,1,2,3
260560,TankNutrientPoorPlant,Tank2,1,2,3
260680,TankNutrientPoorPlant,Tank2,1,2,3
260760,TankNutrientPoorPlant,Tank2,1,2,3
260800,TankNutrientPoorPlant,Tank2,1,2,3
260900,TankNutrientPoorPlant,Tank2,1,2,3
261200,TankNutrientPoorPlant,Tank2,1,2,3
261300,TankNutrientPoorPlant,Tank2,1,2,3
261620,TankNutrientPoorPlant,Tank2,1,2,3
261740,TankNutrientPoorPlant,Tank2,1,2,3
261820,TankNutrientPoorPlant,Tank2,1,2,3
262000,TankNutrientPoorPlant,Tank2,1,2,3
262040,TankNutrientPoorPlant,Tank2,1,2,3
262300,TankNutrientPoorPlant,Tank2,1,2,3
262460,TankNutrientPoorPlant,Tank2,1,2,3
262500,TankNutrientPoorPlant,Tank2,1,2,3
262600,TankNutrientPoorPlant,Tank2,1,2,3
262720,TankNutrientPoorPlant,Tank2,1,2,3
262800,TankNutrientPoorPlant,Tank2,1,2,3
263060,TankNutrientPoorPlant,Tank2,1,2,3
263280,TankNutrientPoorPlant,Tank2,1,2,3
263460,TankNutrientPoorPlant,Tank2,1,2,3
263520,TankNutrientPoorPlant,Tank2,1,2,3
263620,TankNutrientPoorPlant,Tank2,1,2,3
263760,TankNutrientPoorPlant,Tank2,1,2,3
263780,TankNutrientPoorPlant,Tank2,1,2,3
264100,TankNutrientPoorPlant,Tank2,1,2,3
264140,TankNutrientPoorPlant,Tank2,1,2,3
264380,TankNutrientPoorPlant,Tank2,1,2,3
264420,TankNutrientPoorPlant,Tank2,1,2,3
264820,TankNutrientPoorPlant,Tank2,1,2,3
264840,TankNutrientPoorPlant,Tank2,1,2,3
265100,TankNutrientPoorPlant,Tank2,1,2,3
265220,TankNutrientPoorPlant,Tank2,1,2,3
265280,TankNutrientPoorPlant,Tank2,1,2,3
265360,TankNutrientPoorPlant,Tank2,1,2,3
265440,TankNutrientPoorPlant,Tank2,1,2,3
265560,TankNutrientPoorPlant,Tank2,1,2,3
265620,TankNutrientPoorPlant,Tank2,1,2,3
265740,TankNutrientPoorPlant,Tank2,1,2,3
265780,TankNutrientPoorPlant,Tank2,1,2,3
265860,TankNutrientPoorPlant,Tank2,1,2,3
266000,TankNutrientPoorPlant,Tank2,1,2,3
266160,TankNutrientPoorPlant,Tank2,1,2,3
266280,TankNutrientPoorPlant,Tank2,1,2,3
266320,TankNutrientPoorPlant,Tank2,1,2,3
266400,TankNutrientPoorPlant,Tank2,1,2,3
266720,TankNutrientPoorPlant,Tank2,1,2,3
266780,TankNutrientPoorPlant,Tank2,1,2,3
266820,TankNutrientPoorPlant,Tank2,1,2,3
266980,TankNutrientPoorPlant,Tank2,1,2,3
267000,TankNutrientPoorPlant,Tank2,1,2,3
267200,TankNutrientPoorPlant,Tank2,1,2,3
267280,TankNutrientPoorPlant,Tank2,1,2,3
267320,TankNutrientPoorPlant,Tank2,1,2,3
267600,TankNutrientPoorPlant,Tank2,1,2,3
267640,TankNutrientPoorPlant,Tank2,1,2,3
267660,TankNutrientPoorPlant,Tank2,1,2,3
267780,TankNutrientPoorPlant,Tank2,1,2,3
267820,TankNutrientPoorPlant,Tank2,1,2,3
267900,TankNutrientPoorPlant,Tank2,1,2,3
268000,TankNutrientPoorPlant,Tank2,1,2,3
268020,TankNutrientPoorPlant,Tank2,1,2,3
268320,TankNutrientPoorPlant,Tank2,1,2,3
268380,TankNutrientPoorPlant,Tank2,1,2,3
268520,TankNutrientPoorPlant,Tank2,1,2,3
268560,TankNutrientPoorPlant,Tank2,1,2,3
268700,TankNutrientPoorPlant,Tank2,1,2,3
268720,TankNutrientPoorPlant,Tank2,1,2,3
269000,TankNutrientPoorPlant,Tank2,1,2,3
269040,TankNutrientPoorPlant,Tank2,1,2,3
269060,TankNutrientPoorPlant,Tank2,1,2,3
269100,TankNutrientPoorPlant,Tank2,1,2,3
269100,TankNutrientPoorPlant,Tank2,1,2,3
269140,TankNutrientPoorPlant,Tank2,1,2,3
269160,TankNutrientPoorPlant,Tank2,1,2,3
269220,TankNutrientPoorPlant,Tank2,1,2,3
269260,TankNutrientPoorPlant,Tank2,1,2,3
269260,TankNutrientPoorPlant,Tank2,1,2,3
269280,TankNutrientPoorPlant,Tank2,1,2,3
269320,TankNutrientPoorPlant,Tank2,1,2,3
269340,TankNutrientPoorPlant,Tank2,1,2,3
269340,TankNutrientPoorPlant,Tank2,1,2,3
269420,TankNutrientPoorPlant,Tank2,1,2,3
269420,TankNutrientPoorPlant,Tank2,1,2,3
269460,TankNutrientPoorPlant,Tank2,1,2,3
269640,TankNutrientPoorPlant,Tank2,1,2,3
269740,TankNutrientPoorPlant,Tank2,1,2,3
269760,TankNutrientPoorPlant,Tank2,1,2,3
269840,TankNutrientPoorPlant,Tank2,1,2,3
270000,TankNutrientPoorPlant,Tank2,1,2,3
270060,TankNutrientPoorPlant,Tank2,1,2,3
270220,TankNutrientPoorPlant,Tank2,1,2,3
270340,TankNutrientPoorPlant,Tank2,1,2,3
270640,TankNutrientPoorPlant,Tank2,1,2,3
270780,TankNutrientPoorPlant,Tank2,1,2,3
270820,TankNutrientPoorPlant,Tank2,1,2,3
271100,TankNutrientPoorPlant,Tank2,1,2,3
271240,TankNutrientPoorPlant,Tank2,1,2,3
271380,TankNutrientPoorPlant,Tank2,1,2,3
271440,TankNutrientPoorPlant,Tank2,1,2,3
271680,TankNutrientPoorPlant,Tank2,1,2,3
271800,TankNutrientPoorPlant,Tank2,1,2,3
271980,TankNutrientPoorPlant,Tank2,1,2,3
272100,TankNutrientPoorPlant,Tank2,1,2,3
272160,TankNutrientPoorPlant,Tank2,1,2,3
272180,TankNutrientPoorPlant,Tank2,1,2,3
272480,TankNutrientPoorPlant,Tank2,1,2,3
272500,TankNutrientPoorPlant,Tank2,1,2,3
272680,TankNutrientPoorPlant,Tank2,1,2,3
272840,TankNutrientPoorPlant,Tank2,1,2,3
272880,TankNutrientPoorPlant,Tank2,1,2,3
287180,UsePesticide,Bomber0,1,2,3
359040,PickUpBattery,Scout0,1,2,3
398080,PickUpBattery,Bomber0,1,2,3
426300,UseFertilizer,Tank0,1,2,3
440180,BomberInfestedPlant,Bomber1,1,2,3
440400,BomberInfestedPlant,Bomber1,1,2,3
440940,BomberInfestedPlant,Bomber1,1,2,3
440980,BomberInfestedPlant,Bomber1,1,2,3
441040,BomberInfestedPlant,Bomber1,1,2,3
441180,BomberInfestedPlant,Bomber1,1,2,3
441280,BomberInfestedPlant,Bomber1,1,2,3
441680,BomberInfestedPlant,Bomber1,1,2,3
441920,BomberInfestedPlant,Bomber1,1,2,3
441940,BomberInfestedPlant,Bomber1,1,2,3
442280,BomberInfestedPlant,Bomber1,1,2,3
443000,BomberInfestedPlant,Bomber1,1,2,3
443180,BomberInfestedPlant,Bomber1,1,2,3
443340,BomberInfestedPlant,Bomber1,1,2,3
443400,BomberInfestedPlant,Bomber1,1,2,3
443460,BomberInfestedPlant,Bomber1,1,2,3
443500,BomberInfestedPlant,Bomber1,1,2,3
443560,BomberInfestedPlant,Bomber1,1,2,3
443700,BomberInfestedPlant,Bomber1,1,2,3
444060,BomberInfestedPlant,Bomber1,1,2,3
444460,BomberInfestedPlant,Bomber1,1,2,3
444860,BomberInfestedPlant,Bomber1,1,2,3
445000,BomberInfestedPlant,Bomber1,1,2,3
445020,BomberInfestedPlant,Bomber1,1,2,3
445120,BomberInfestedPlant,Bomber1,1,2,3
445700,BomberInfestedPlant,Bomber1,1,2,3
446080,BomberInfestedPlant,Bomber1,1,2,3
446280,BomberInfestedPlant,Bomber1,1,2,3
446320,BomberInfestedPlant,Bomber0,1,2,3
446400,BomberInfestedPlant,Bomber1,1,2,3
446820,BomberInfestedPlant,Bomber0,1,2,3
446880,BomberInfestedPlant,Bomber0,1,2,3
446940,BomberInfestedPlant,Bomber1,1,2,3
447040,BomberInfestedPlant,Bomber1,1,2,3
447100,BomberInfestedPlant,Bomber0,1,2,3
447120,BomberInfestedPlant,Bomber1,1,2,3
447200,BomberInfestedPlant,Bomber1,1,2,3
447240,BomberInfestedPlant,Bomber0,1,2,3
447260,BomberInfestedPlant,Bomber1,1,2,3
447320,BomberInfestedPlant,Bomber1,1,2,3
447660,BomberInfestedPlant,Bomber0,1,2,3
447860,BomberInfestedPlant,Bomber1,1,2,3
447960,BomberInfestedPlant,Bomber1,1,2,3
448100,BomberInfestedPlant,Bomber1,1,2,3
448220,BomberInfestedPlant,Bomber1,1,2,3
448260,BomberInfestedPlant,Bomber0,1,2,3
448600,BomberInfestedPlant,Bomber0,1,2,3
448680,BomberInfestedPlant,Bomber1,1,2,3
448800,BomberInfestedPlant,Bomber1,1,2,3
448820,BomberInfestedPlant,Bomber0,1,2,3
448880,BomberInfestedPlant,Bomber1,1,2,3
449020,BomberInfestedPlant,Bomber1,1,2,3
449220,BomberInfestedPlant,Bomber0,1,2,3
449340,BomberInfestedPlant,Bomber1,1,2,3
449400,BomberInfestedPlant,Bomber1,1,2,3
449500,BomberInfestedPlant,Bomber1,1,2,3
449560,BomberInfestedPlant,Bomber1,1,2,3
449660,BomberInfestedPlant,Bomber0,1,2,3
449680,BomberInfestedPlant,Bomber1,1,2,3
449720,BomberInfestedPlant,Bomber1,1,2,3
449960,BomberInfestedPlant,Bomber0,1,2,3
450060,BomberInfestedPlant,Bomber1,1,2,3
450380,BomberInfestedPlant,Bomber0,1,2,3
450500,BomberInfestedPlant,Bomber1,1,2,3
450620,BomberInfestedPlant,Bomber0,1,2,3
450740,BomberInfestedPlant,Bomber1,1,2,3
450760,BomberInfestedPlant,Bomber1,1,2,3
450820,BomberInfestedPlant,Bomber0,1,2,3
450940,BomberInfestedPlant,Bomber1,1,2,3
451240,BomberInfestedPlant,Bomber0,1,2,3
451420,BomberInfestedPlant,Bomber0,1,2,3
451540,BomberInfestedPlant,Bomber0,1,2,3
451540,BomberInfestedPlant,Bomber1,1,2,3
451760,BomberInfestedPlant,Bomber0,1,2,3
451820,BomberInfestedPlant,Bomber0,1,2,3
451960,BomberInfestedPlant,Bomber1,1,2,3
451980,BomberInfestedPlant,Bomber0,1,2,3
452060,BomberInfestedPlant,Bomber0,1,2,3
452060,BomberInfestedPlant,Bomber1,1,2,3
452200,BomberInfestedPlant,Bomber1,1,2,3
452300,BomberInfestedPlant,Bomber1,1,2,3
452360,BomberInfestedPlant,Bomber1,1,2,3
452580,BomberInfestedPlant,Bomber0,1,2,3
452680,BomberInfestedPlant,Bomber0,1,2,3
452920,BomberInfestedPlant,Bomber0,1,2,3
453020,BomberInfestedPlant,Bomber0,1,2,3
453020,BomberInfestedPlant,Bomber1,1,2,3
453060,BomberInfestedPlant,Bomber1,1,2,3
453520,BomberInfestedPlant,Bomber0,1,2,3
453620,BomberInfestedPlant,Bomber0,1,2,3
454140,BomberInfestedPlant,Bomber1,1,2,3
511020,PickUpBattery,Scout0,1,2,3
513040,UsePesticide,Bomber1,1,2,3
578540,TankNutrientPoorPlant,Tank0,1,2,3
578720,TankNutrientPoorPlant,Tank0,1,2,3
578760,TankNutrientPoorPlant,Tank0,1,2,3
578880,TankNutrientPoorPlant,Tank0,1,2,3
578980,TankNutrientPoorPlant,Tank0,1,2,3
579000,TankNutrientPoorPlant,Tank0,1,2,3
579160,TankNutrientPoorPlant,Tank0,1,2,3
579180,TankNutrientPoorPlant,Tank0,1,2,3
579220,TankNutrientPoorPlant,Tank0,1,2,3
579240,TankNutrientPoorPlant,Tank0,1,2,3
579260,TankNutrientPoorPlant,Tank0,1,2,3
579300,TankNutrientPoorPlant,Tank0,1,2,3
579360,TankNutrientPoorPlant,Tank0,1,2,3
579400,TankNutrientPoorPlant,Tank0,1,2,3
579460,TankNutrientPoorPlant,Tank0,1,2,3
579520,TankNutrientPoorPlant,Tank0,1,2,3
579540,TankNutrientPoorPlant,Tank0,1,2,3
579600,TankNutrientPoorPlant,Tank0,1,2,3
579840,TankNutrientPoorPlant,Tank0,1,2,3
579880,TankNutrientPoorPlant,Tank0,1,2,3
579920,TankNutrientPoorPlant,Tank0,1,2,3
580140,TankNutrientPoorPlant,Tank0,1,2,3
580280,TankNutrientPoorPlant,Tank0,1,2,3
580320,TankNutrientPoorPlant,Tank0,1,2,3
580460,TankNutrientPoorPlant,Tank0,1,2,3
580480,TankNutrientPoorPlant,Tank0,1,2,3
580540,TankNutrientPoorPlant,Tank0,1,2,3
580580,TankNutrientPoorPlant,Tank0,1,2,3
580700,TankNutrientPoorPlant,Tank0,1,2,3
580760,TankNutrientPoorPlant,Tank0,1,2,3
580780,TankNutrientPoorPlant,Tank0,1,2,3
580840,TankNutrientPoorPlant,Tank0,1,2,3
580900,TankNutrientPoorPlant,Tank0,1,2,3
581040,TankNutrientPoorPlant,Tank0,1,2,3
581160,TankNutrientPoorPlant,Tank0,1,2,3
581180,TankNutrientPoorPlant,Tank0,1,2,3
581260,TankNutrientPoorPlant,Tank0,1,2,3
581380,TankNutrientPoorPlant,Tank0,1,2,3
581440,TankNutrientPoorPlant,Tank0,1,2,3
581480,TankNutrientPoorPlant,Tank0,1,2,3
581620,TankNutrientPoorPlant,Tank0,1,2,3
581660,TankNutrientPoorPlant,Tank0,1,2,3
581680,TankNutrientPoorPlant,Tank0,1,2,3
581960,TankNutrientPoorPlant,Tank0,1,2,3
582200,TankNutrientPoorPlant,Tank0,1,2,3
589120,PickUpBattery,Bomber1,1,2,3
624420,BomberInfestedPlant,Bomber0,1,2,3
624620,BomberInfestedPlant,Bomber0,1,2,3
625140,BomberInfestedPlant,Bomber0,1,2,3
625240,BomberInfestedPlant,Bomber0,1,2,3
625340,BomberInfestedPlant,Bomber0,1,2,3
625540,BomberInfestedPlant,Bomber0,1,2,3
625620,BomberInfestedPlant,Bomber0,1,2,3
625680,BomberInfestedPlant,Bomber0,1,2,3
626140,BomberInfestedPlant,Bomber0,1,2,3
626420,BomberInfestedPlant,Bomber0,1,2,3
627060,BomberInfestedPlant,Bomber0,1,2,3
627200,BomberInfestedPlant,Bomber0,1,2,3
627660,BomberInfestedPlant,Bomber0,1,2,3
627840,BomberInfestedPlant,Bomber0,1,2,3
627900,BomberInfestedPlant,Bomber0,1,2,3
628260,BomberInfestedPlant,Bomber0,1,2,3
628900,BomberInfestedPlant,Bomber0,1,2,3
629360,BomberInfestedPlant,Bomber0,1,2,3
629600,TankNutrientPoorPlant,Tank0,1,2,3
629720,BomberInfestedPlant,Bomber0,1,2,3
629720,TankNutrientPoorPlant,Tank0,1,2,3
629880,TankNutrientPoorPlant,Tank0,1,2,3
629940,TankNutrientPoorPlant,Tank0,1,2,3
630200,TankNutrientPoorPlant,Tank0,1,2,3
630240,TankNutrientPoorPlant,Tank0,1,2,3
630340,TankNutrientPoorPlant,Tank0,1,2,3
630360,BomberInfestedPlant,Bomber0,1,2,3
630480,BomberInfestedPlant,Bomber0,1,2,3
630640,TankNutrientPoorPlant,Tank0,1,2,3
630880,TankNutrientPoorPlant,Tank0,1,2,3
630900,BomberInfestedPlant,Bomber0,1,2,3
630920,BomberInfestedPlant,Bomber0,1,2,3
631020,TankNutrientPoorPlant,Tank0,1,2,3
631360,TankNutrientPoorPlant,Tank0,1,2,3
631500,BomberInfestedPlant,Bomber0,1,2,3
631580,TankNutrientPoorPlant,Tank0,1,2,3
631600,BomberInfestedPlant,Bomber0,1,2,3
631800,BomberInfestedPlant,Bomber0,1,2,3
632040,TankNutrientPoorPlant,Tank0,1,2,3
632340,BomberInfestedPlant,Bomber0,1,2,3
632400,BomberInfestedPlant,Bomber0,1,2,3
632480,TankNutrientPoorPlant,Tank0,1,2,3
632640,TankNutrientPoorPlant,Tank0,1,2,3
632800,TankNutrientPoorPlant,Tank0,1,2,3
632820,BomberInfestedPlant,Bomber0,1,2,3
632820,TankNutrientPoorPlant,Tank0,1,2,3
632880,TankNutrientPoorPlant,Tank0,1,2,3
633000,TankNutrientPoorPlant,Tank0,1,2,3
633100,TankNutrientPoorPlant,Tank0,1,2,3
633200,TankNutrientPoorPlant,Tank0,1,2,3
633260,TankNutrientPoorPlant,Tank0,1,2,3
633340,TankNutrientPoorPlant,Tank0,1,2,3
633500,BomberInfestedPlant,Bomber0,1,2,3
633600,TankNutrientPoorPlant,Tank0,1,2,3
633660,TankNutrientPoorPlant,Tank0,1,2,3
633680,TankNutrientPoorPlant,Tank0,1,2,3
633760,BomberInfestedPlant,Bomber0,1,2,3
633800,TankNutrientPoorPlant,Tank0,1,2,3
633820,BomberInfestedPlant,Bomber0,1,2,3
634000,TankNutrientPoorPlant,Tank0,1,2,3
634020,TankNutrientPoorPlant,Tank0,1,2,3
634040,TankNutrientPoorPlant,Tank0,1,2,3
634140,BomberInfestedPlant,Bomber0,1,2,3
634140,TankNutrientPoorPlant,Tank0,1,2,3
634600,TankNutrientPoorPlant,Tank0,1,2,3
634660,TankNutrientPoorPlant,Tank0,1,2,3
634700,BomberInfestedPlant,Bomber0,1,2,3
634700,TankNutrientPoorPlant,Tank0,1,2,3
634840,BomberInfestedPlant,Bomber0,1,2,3
635020,TankNutrientPoorPlant,Tank0,1,2,3
635100,TankNutrientPoorPlant,Tank0,1,2,3
635120,TankNutrientPoorPlant,Tank0,1,2,3
635220,TankNutrientPoorPlant,Tank0,1,2,3
635380,TankNutrientPoorPlant,Tank0,1,2,3
635440,TankNutrientPoorPlant,Tank0,1,2,3
635500,TankNutrientPoorPlant,Tank0,1,2,3
650580,BomberInfestedPlant,Bomber0,1,2,3
650720,BomberInfestedPlant,Bomber0,1,2,3
651080,BomberInfestedPlant,Bomber0,1,2,3
651160,BomberInfestedPlant,Bomber0,1,2,3
651220,BomberInfestedPlant,Bomber0,1,2,3
651560,BomberInfestedPlant,Bomber0,1,2,3
651980,BomberInfestedPlant,Bomber0,1,2,3
652800,BomberInfestedPlant,Bomber0,1,2,3
653160,BomberInfestedPlant,Bomber0,1,2,3
653200,BomberInfestedPlant,Bomber0,1,2,3
653220,BomberInfestedPlant,Bomber0,1,2,3
654300,BomberInfestedPlant,Bomber0,1,2,3
654720,BomberInfestedPlant,Bomber0,1,2,3
654820,BomberInfestedPlant,Bomber0,1,2,3
654880,BomberInfestedPlant,Bomber0,1,2,3
655420,BomberInfestedPlant,Bomber0,1,2,3
655700,BomberInfestedPlant,Bomber0,1,2,3
655760,BomberInfestedPlant,Bomber0,1,2,3
656980,BomberInfestedPlant,Bomber0,1,2,3
657400,BomberInfestedPlant,Bomber0,1,2,3
657440,BomberInfestedPlant,Bomber0,1,2,3
657880,BomberInfestedPlant,Bomber0,1,2,3
658020,BomberInfestedPlant,Bomber0,1,2,3
658400,BomberInfestedPlant,Bomber0,1,2,3
658500,BomberInfestedPlant,Bomber0,1,2,3
658520,BomberInfestedPlant,Bomber0,1,2,3
658660,BomberInfestedPlant,Bomber0,1,2,3
658900,BomberInfestedPlant,Bomber0,1,2,3
659020,BomberInfestedPlant,Bomber0,1,2,3
659280,BomberInfestedPlant,Bomber0,1,2,3
659380,BomberInfestedPlant,Bomber0,1,2,3
659520,BomberInfestedPlant,Bomber0,1,2,3
660020,BomberInfestedPlant,Bomber0,1,2,3
660220,BomberInfestedPlant,Bomber0,1,2,3
660480,BomberInfestedPlant,Bomber0,1,2,3
660500,BomberInfestedPlant,Bomber0,1,2,3
660680,BomberInfestedPlant,Bomber0,1,2,3
660780,BomberInfestedPlant,Bomber0,1,2,3
661260,BomberInfestedPlant,Bomber0,1,2,3
661280,BomberInfestedPlant,Bomber0,1,2,3
662240,BomberInfestedPlant,Bomber0,1,2,3
662760,BomberInfestedPlant,Bomber0,1,2,3
663540,BomberInfestedPlant,Bomber0,1,2,3
663840,BomberInfestedPlant,Bomber0,1,2,3
664380,BomberInfestedPlant,Bomber0,1,2,3
664460,BomberInfestedPlant,Bomber0,1,2,3
664580,BomberInfestedPlant,Bomber0,1,2,3
666200,BomberInfestedPlant,Bomber0,1,2,3
666320,BomberInfestedPlant,Bomber0,1,2,3
666560,BomberInfestedPlant,Bomber0,1,2,3
718120,UsePesticide,Bomber0,1,2,3
725180,PickUpBattery,Scout0,1,2,3
763200,UseFertilizer,Tank0,1,2,3
776580,UsePesticide,Bomber1,1,2,3
789920,UseFertilizer,Tank1,1,2,3
790740,PickUpBattery,Bomber0,1,2,3
857060,PickUpBattery,Bomber1,1,2,3
877160,PickUpBattery,Scout0,1,2,3
944560,TankNutrientPoorPlant,Tank1,1,2,3
944600,TankNutrientPoorPlant,Tank1,1,2,3
944620,TankNutrientPoorPlant,Tank0,1,2,3
944700,TankNutrientPoorPlant,Tank0,1,2,3
944720,TankNutrientPoorPlant,Tank0,1,2,3
944780,TankNutrientPoorPlant,Tank0,1,2,3
944840,TankNutrientPoorPlant,Tank0,1,2,3
944900,TankNutrientPoorPlant,Tank0,1,2,3
944920,TankNutrientPoorPlant,Tank1,1,2,3
945120,TankNutrientPoorPlant,Tank0,1,2,3
945180,TankNutrientPoorPlant,Tank1,1,2,3
945200,TankNutrientPoorPlant,Tank1,1,2,3
945220,TankNutrientPoorPlant,Tank1,1,2,3
945240,TankNutrientPoorPlant,Tank1,1,2,3
945260,TankNutrientPoorPlant,Tank1,1,2,3
945280,TankNutrientPoorPlant,Tank1,1,2,3
945340,TankNutrientPoorPlant,Tank1,1,2,3
945360,TankNutrientPoorPlant,Tank1,1,2,3
945380,TankNutrientPoorPlant,Tank0,1,2,3
945700,TankNutrientPoorPlant,Tank0,1,2,3
945760,TankNutrientPoorPlant,Tank0,1,2,3
945820,TankNutrientPoorPlant,Tank0,1,2,3
945900,TankNutrientPoorPlant,Tank1,1,2,3
946020,TankNutrientPoorPlant,Tank1,1,2,3
946160,TankNutrientPoorPlant,Tank0,1,2,3
946260,TankNutrientPoorPlant,Tank1,1,2,3
946380,TankNutrientPoorPlant,Tank1,1,2,3
946460,TankNutrientPoorPlant,Tank1,1,2,3
946520,TankNutrientPoorPlant,Tank0,1,2,3
946540,TankNutrientPoorPlant,Tank1,1,2,3
946560,TankNutrientPoorPlant,Tank0,1,2,3
946580,TankNutrientPoorPlant,Tank1,1,2,3
946600,TankNutrientPoorPlant,Tank0,1,2,3
946600,TankNutrientPoorPlant,Tank1,1,2,3
946660,TankNutrientPoorPlant,Tank0,1,2,3
946680,TankNutrientPoorPlant,Tank1,1,2,3
946720,TankNutrientPoorPlant,Tank1,1,2,3
946880,TankNutrientPoorPlant,Tank0,1,2,3
947060,TankNutrientPoorPlant,Tank1,1,2,3
947100,TankNutrientPoorPlant,Tank0,1,2,3
947220,TankNutrientPoorPlant,Tank0,1,2,3
947240,TankNutrientPoorPlant,Tank0,1,2,3
947300,TankNutrientPoorPlant,Tank1,1,2,3
947540,TankNutrientPoorPlant,Tank1,1,2,3
947560,TankNutrientPoorPlant,Tank1,1,2,3
947740,TankNutrientPoorPlant,Tank0,1,2,3
947780,TankNutrientPoorPlant,Tank1,1,2,3
947820,TankNutrientPoorPlant,Tank1,1,2,3
947840,TankNutrientPoorPlant,Tank0,1,2,3
947880,TankNutrientPoorPlant,Tank0,1,2,3
947940,TankNutrientPoorPlant,Tank0,1,2,3
947960,TankNutrientPoorPlant,Tank0,1,2,3
948000,TankNutrientPoorPlant,Tank0,1,2,3
948020,TankNutrientPoorPlant,Tank0,1,2,3
948040,TankNutrientPoorPlant,Tank0,1,2,3
948100,TankNutrientPoorPlant,Tank1,1,2,3
948120,TankNutrientPoorPlant,Tank0,1,2,3
948140,TankNutrientPoorPlant,Tank0,1,2,3
948320,TankNutrientPoorPlant,Tank0,1,2,3
948360,TankNutrientPoorPlant,Tank0,1,2,3
948420,TankNutrientPoorPlant,Tank0,1,2,3
948460,TankNutrientPoorPlant,Tank0,1,2,3
948540,TankNutrientPoorPlant,Tank1,1,2,3
948600,TankNutrientPoorPlant,Tank1,1,2,3
948620,TankNutrientPoorPlant,Tank0,1,2,3
948680,TankNutrientPoorPlant,Tank0,1,2,3
948840,TankNutrientPoorPlant,Tank0,1,2,3
948880,TankNutrientPoorPlant,Tank0,1,2,3
948900,TankNutrientPoorPlant,Tank1,1,2,3
948920,TankNutrientPoorPlant,Tank0,1,2,3
948940,TankNutrientPoorPlant,Tank0,1,2,3
949000,TankNutrientPoorPlant,Tank1,1,2,3
949020,TankNutrientPoorPlant,Tank1,1,2,3
949100,TankNutrientPoorPlant,Tank1,1,2,3
949300,TankNutrientPoorPlant,Tank0,1,2,3
949380,TankNutrientPoorPlant,Tank1,1,2,3
949440,TankNutrientPoorPlant,Tank0,1,2,3
949520,TankNutrientPoorPlant,Tank1,1,2,3
949780,TankNutrientPoorPlant,Tank1,1,2,3
949860,TankNutrientPoorPlant,Tank1,1,2,3
949960,TankNutrientPoorPlant,Tank1,1,2,3
950220,TankNutrientPoorPlant,Tank1,1,2,3
950260,TankNutrientPoorPlant,Tank1,1,2,3
950400,TankNutrientPoorPlant,Tank1,1,2,3
950440,TankNutrientPoorPlant,Tank1,1,2,3
950460,TankNutrientPoorPlant,Tank1,1,2,3
950480,TankNutrientPoorPlant,Tank1,1,2,3
950500,TankNutrientPoorPlant,Tank1,1,2,3
950520,TankNutrientPoorPlant,Tank1,1,2,3
950620,TankNutrientPoorPlant,Tank1,1,2,3
950720,TankNutrientPoorPlant,Tank1,1,2,3
950780,TankNutrientPoorPlant,Tank1,1,2,3
950800,TankNutrientPoorPlant,Tank1,1,2,3
950820,TankNutrientPoorPlant,Tank1,1,2,3
950840,TankNutrientPoorPlant,Tank1,1,2,3
950880,TankNutrientPoorPlant,Tank1,1,2,3
951020,TankNutrientPoorPlant,Tank1,1,2,3
951040,TankNutrientPoorPlant,Tank1,1,2,3
951060,TankNutrientPoorPlant,Tank1,1,2,3
951120,TankNutrientPoorPlant,Tank1,1,2,3
951340,TankNutrientPoorPlant,Tank1,1,2,3
951480,TankNutrientPoorPlant,Tank1,1,2,3
951580,TankNutrientPoorPlant,Tank1,1,2,3
951620,TankNutrientPoorPlant,Tank1,1,2,3
951700,TankNutrientPoorPlant,Tank1,1,2,3
951760,TankNutrientPoorPlant,Tank1,1,2,3
951820,TankNutrientPoorPlant,Tank1,1,2,3
951900,TankNutrientPoorPlant,Tank1,1,2,3
951980,TankNutrientPoorPlant,Tank1,1,2,3
952000,TankNutrientPoorPlant,Tank1,1,2,3
952080,TankNutrientPoorPlant,Tank1,1,2,3
952140,TankNutrientPoorPlant,Tank1,1,2,3
952180,TankNutrientPoorPlant,Tank1,1,2,3
952220,TankNutrientPoorPlant,Tank1,1,2,3
952300,TankNutrientPoorPlant,Tank1,1,2,3
974480,PickUpBattery,Bomber1,1,2,3
1031500,UseFertilizer,Tank2,1,2,3
1091320,PickUpBattery,Scout0,1,2,3
1176820,PickUpBattery,Bomber1,1,2,3
1243300,PickUpBattery,Scout0,1,2,3
1260260,PickUpBattery,Bomber0,1,2,3
1269520,PickUpBattery,Tank1,1,2,3
1417220,PickUpBattery,Tank2,1,2,3
1452000,PickUpBattery,Bomber0,1,2,3
1455380,PickUpBattery,Scout0,1,2,3
1508680,UseFertilizer,Tank0,1,2,3
1528980,PickUpBattery,Bomber1,1,2,3
1605860,PickUpBattery,Scout0,1,2,3
1681700,TankNutrientPoorPlant,Tank1,1,2,3
1681760,TankNutrientPoorPlant,Tank1,1,2,3
1681800,TankNutrientPoorPlant,Tank1,1,2,3
1682000,TankNutrientPoorPlant,Tank1,1,2,3
1682080,TankNutrientPoorPlant,Tank1,1,2,3
1682120,TankNutrientPoorPlant,Tank1,1,2,3
1682660,TankNutrientPoorPlant,Tank1,1,2,3
1682680,TankNutrientPoorPlant,Tank1,1,2,3
1682780,TankNutrientPoorPlant,Tank1,1,2,3
1682860,TankNutrientPoorPlant,Tank1,1,2,3
1682900,TankNutrientPoorPlant,Tank1,1,2,3
1682940,TankNutrientPoorPlant,Tank1,1,2,3
1683020,TankNutrientPoorPlant,Tank1,1,2,3
1683080,TankNutrientPoorPlant,Tank1,1,2,3
1683160,TankNutrientPoorPlant,Tank1,1,2,3
1683380,TankNutrientPoorPlant,Tank1,1,2,3
1683680,TankNutrientPoorPlant,Tank1,1,2,3
1684160,TankNutrientPoorPlant,Tank1,1,2,3
1684380,TankNutrientPoorPlant,Tank1,1,2,3
1684440,TankNutrientPoorPlant,Tank1,1,2,3
1684680,TankNutrientPoorPlant,Tank1,1,2,3
1684800,TankNutrientPoorPlant,Tank1,1,2,3
1684920,TankNutrientPoorPlant,Tank1,1,2,3
1684980,TankNutrientPoorPlant,Tank1,1,2,3
1685120,TankNutrientPoorPlant,Tank1,1,2,3
1685180,TankNutrientPoorPlant,Tank1,1,2,3
1685300,TankNutrientPoorPlant,Tank1,1,2,3
1685440,TankNutrientPoorPlant,Tank1,1,2,3
1685520,TankNutrientPoorPlant,Tank1,1,2,3
1685920,TankNutrientPoorPlant,Tank1,1,2,3
1685960,TankNutrientPoorPlant,Tank1,1,2,3
1686040,TankNutrientPoorPlant,Tank1,1,2,3
1686080,TankNutrientPoorPlant,Tank1,1,2,3
1706120,TankNutrientPoorPlant,Tank1,1,2,3
1706260,TankNutrientPoorPlant,Tank1,1,2,3
1706580,TankNutrientPoorPlant,Tank1,1,2,3
1706920,TankNutrientPoorPlant,Tank1,1,2,3
1707040,TankNutrientPoorPlant,Tank1,1,2,3
1707080,TankNutrientPoorPlant,Tank1,1,2,3
1707260,TankNutrientPoorPlant,Tank1,1,2,3
1707420,TankNutrientPoorPlant,Tank1,1,2,3
1707480,TankNutrientPoorPlant,Tank1,1,2,3
1707940,TankNutrientPoorPlant,Tank1,1,2,3
1708000,TankNutrientPoorPlant,Tank1,1,2,3
1708040,TankNutrientPoorPlant,Tank1,1,2,3
1708080,TankNutrientPoorPlant,Tank1,1,2,3
1708180,TankNutrientPoorPlant,Tank1,1,2,3
1708280,TankNutrientPoorPlant,Tank1,1,2,3
1708380,TankNutrientPoorPlant,Tank1,1,2,3
1708820,TankNutrientPoorPlant,Tank1,1,2,3
1708900,TankNutrientPoorPlant,Tank1,1,2,3
1708980,TankNutrientPoorPlant,Tank1,1,2,3
1709080,TankNutrientPoorPlant,Tank1,1,2,3
1709180,TankNutrientPoorPlant,Tank1,1,2,3
1709300,TankNutrientPoorPlant,Tank1,1,2,3
1709360,TankNutrientPoorPlant,Tank1,1,2,3
1709380,TankNutrientPoorPlant,Tank1,1,2,3
1709680,TankNutrientPoorPlant,Tank1,1,2,3
1709880,TankNutrientPoorPlant,Tank1,1,2,3
1710000,TankNutrientPoorPlant,Tank1,1,2,3
1710040,TankNutrientPoorPlant,Tank1,1,2,3
1710040,TankNutrientPoorPlant,Tank1,1,2,3
1710100,TankNutrientPoorPlant,Tank1,1,2,3
1710100,TankNutrientPoorPlant,Tank1,1,2,3
1710220,TankNutrientPoorPlant,Tank1,1,2,3
1710220,TankNutrientPoorPlant,Tank1,1,2,3
1710280,TankNutrientPoorPlant,Tank1,1,2,3
1710280,TankNutrientPoorPlant,Tank1,1,2,3
1710380,TankNutrientPoorPlant,Tank1,1,2,3
1710420,TankNutrientPoorPlant,Tank1,1,2,3
1710480,TankNutrientPoorPlant,Tank1,1,2,3
1710520,TankNutrientPoorPlant,Tank1,1,2,3
1710520,TankNutrientPoorPlant,Tank1,1,2,3
1710540,TankNutrientPoorPlant,Tank1,1,2,3
1710600,TankNutrientPoorPlant,Tank1,1,2,3
1710640,TankNutrientPoorPlant,Tank1,1,2,3
1710760,TankNutrientPoorPlant,Tank1,1,2,3
1710780,TankNutrientPoorPlant,Tank1,1,2,3
1710780,TankNutrientPoorPlant,Tank1,1,2,3
1710800,TankNutrientPoorPlant,Tank1,1,2,3
1710860,TankNutrientPoorPlant,Tank1,1,2,3
1710880,TankNutrientPoorPlant,Tank1,1,2,3
1710900,TankNutrientPoorPlant,Tank1,1,2,3
1710900,TankNutrientPoorPlant,Tank1,1,2,3
1710940,TankNutrientPoorPlant,Tank1,1,2,3
1710960,TankNutrientPoorPlant,Tank1,1,2,3
1710960,TankNutrientPoorPlant,Tank1,1,2,3
1711020,TankNutrientPoorPlant,Tank1,1,2,3
1711020,TankNutrientPoorPlant,Tank1,1,2,3
1711080,TankNutrientPoorPlant,Tank1,1,2,3
1711080,TankNutrientPoorPlant,Tank1,1,2,3
1711120,TankNutrientPoorPlant,Tank1,1,2,3
1711180,TankNutrientPoorPlant,Tank1,1,2,3
1711200,TankNutrientPoorPlant,Tank1,1,2,3
1711260,TankNutrientPoorPlant,Tank1,1,2,3
1711300,TankNutrientPoorPlant,Tank1,1,2,3
1711340,TankNutrientPoorPlant,Tank1,1,2,3
1711400,TankNutrientPoorPlant,Tank1,1,2,3
1711640,TankNutrientPoorPlant,Tank1,1,2,3
1711660,TankNutrientPoorPlant,Tank1,1,2,3
1711720,TankNutrientPoorPlant,Tank1,1,2,3
1711880,TankNutrientPoorPlant,Tank1,1,2,3
1712080,TankNutrientPoorPlant,Tank1,1,2,3
1712240,TankNutrientPoorPlant,Tank1,1,2,3
1712320,TankNutrientPoorPlant,Tank1,1,2,3
1712360,TankNutrientPoorPlant,Tank1,1,2,3
1712400,TankNutrientPoorPlant,Tank1,1,2,3
1712460,TankNutrientPoorPlant,Tank1,1,2,3
1712700,TankNutrientPoorPlant,Tank1,1,2,3
1712780,TankNutrientPoorPlant,Tank1,1,2,3
1712860,TankNutrientPoorPlant,Tank1,1,2,3
1713020,TankNutrientPoorPlant,Tank1,1,2,3
1713060,TankNutrientPoorPlant,Tank1,1,2,3
1713080,TankNutrientPoorPlant,Tank1,1,2,3
1713100,TankNutrientPoorPlant,Tank1,1,2,3
1713240,TankNutrientPoorPlant,Tank1,1,2,3
1713440,TankNutrientPoorPlant,Tank1,1,2,3
1713700,TankNutrientPoorPlant,Tank1,1,2,3
1713760,TankNutrientPoorPlant,Tank1,1,2,3
1713860,TankNutrientPoorPlant,Tank1,1,2,3
1714040,TankNutrientPoorPlant,Tank1,1,2,3
1714160,TankNutrientPoorPlant,Tank1,1,2,3
1714200,TankNutrientPoorPlant,Tank1,1,2,3
1714300,TankNutrientPoorPlant,Tank1,1,2,3
1714480,TankNutrientPoorPlant,Tank1,1,2,3
1714700,TankNutrientPoorPlant,Tank1,1,2,3
1714740,TankNutrientPoorPlant,Tank1,1,2,3
1714800,TankNutrientPoorPlant,Tank1,1,2,3
1714820,TankNutrientPoorPlant,Tank1,1,2,3
1714960,TankNutrientPoorPlant,Tank1,1,2,3
1715120,TankNutrientPoorPlant,Tank1,1,2,3
1715460,TankNutrientPoorPlant,Tank1,1,2,3
1715480,TankNutrientPoorPlant,Tank1,1,2,3
1715560,TankNutrientPoorPlant,Tank1,1,2,3
1715640,TankNutrientPoorPlant,Tank1,1,2,3
1715660,TankNutrientPoorPlant,Tank1,1,2,3
1715740,TankNutrientPoorPlant,Tank1,1,2,3
1715800,TankNutrientPoorPlant,Tank1,1,2,3
1734980,PickUpBattery,Bomber1,1,2,3
1764400,PickUpBattery,Tank0,1,2,3
1815740,UseFertilizer,Tank1,1,2,3
1820020,PickUpBattery,Scout0,1,2,3
1825400,PickUpBattery,Bomber1,1,2,3
1972000,PickUpBattery,Scout0,1,2,3
1993740,PickUpBattery,Bomber1,1,2,3
2048120,TankNutrientPoorPlant,Tank0,1,2,3
2048380,TankNutrientPoorPlant,Tank0,1,2,3
2048400,TankNutrientPoorPlant,Tank0,1,2,3
2048440,TankNutrientPoorPlant,Tank0,1,2,3
2048500,TankNutrientPoorPlant,Tank0,1,2,3
2048560,TankNutrientPoorPlant,Tank0,1,2,3
2048800,TankNutrientPoorPlant,Tank0,1,2,3
2048880,TankNutrientPoorPlant,Tank0,1,2,3
2048940,TankNutrientPoorPlant,Tank0,1,2,3
2048960,TankNutrientPoorPlant,Tank0,1,2,3
2049100,TankNutrientPoorPlant,Tank0,1,2,3
2049200,TankNutrientPoorPlant,Tank0,1,2,3
2049260,TankNutrientPoorPlant,Tank0,1,2,3
2049320,TankNutrientPoorPlant,Tank0,1,2,3
2049360,TankNutrientPoorPlant,Tank0,1,2,3
2049480,TankNutrientPoorPlant,Tank0,1,2,3
2049600,TankNutrientPoorPlant,Tank0,1,2,3
2049720,TankNutrientPoorPlant,Tank0,1,2,3
2049760,TankNutrientPoorPlant,Tank0,1,2,3
2049840,TankNutrientPoorPlant,Tank0,1,2,3
2049940,TankNutrientPoorPlant,Tank0,1,2,3
2049960,TankNutrientPoorPlant,Tank0,1,2,3
2050220,TankNutrientPoorPlant,Tank0,1,2,3
2050340,TankNutrientPoorPlant,Tank0,1,2,3
2050380,TankNutrientPoorPlant,Tank0,1,2,3
2050680,TankNutrientPoorPlant,Tank0,1,2,3
2050940,TankNutrientPoorPlant,Tank0,1,2,3
2050960,TankNutrientPoorPlant,Tank0,1,2,3
2051140,TankNutrientPoorPlant,Tank0,1,2,3
2051440,TankNutrientPoorPlant,Tank0,1,2,3
2051580,TankNutrientPoorPlant,Tank0,1,2,3
2051720,TankNutrientPoorPlant,Tank0,1,2,3
2051840,TankNutrientPoorPlant,Tank0,1,2,3
2051860,TankNutrientPoorPlant,Tank0,1,2,3
2051900,TankNutrientPoorPlant,Tank0,1,2,3
2051920,TankNutrientPoorPlant,Tank0,1,2,3
2051960,TankNutrientPoorPlant,Tank0,1,2,3
2052060,TankNutrientPoorPlant,Tank0,1,2,3
2052160,TankNutrientPoorPlant,Tank0,1,2,3
2052180,TankNutrientPoorPlant,Tank0,1,2,3
2052200,TankNutrientPoorPlant,Tank0,1,2,3
2052480,TankNutrientPoorPlant,Tank0,1,2,3
2052740,TankNutrientPoorPlant,Tank0,1,2,3
2080660,BomberInfestedPlant,Bomber1,1,2,3
2081160,BomberInfestedPlant,Bomber1,1,2,3
2081260,BomberInfestedPlant,Bomber1,1,2,3
2081280,BomberInfestedPlant,Bomber1,1,2,3
2082300,BomberInfestedPlant,Bomber1,1,2,3
2082500,BomberInfestedPlant,Bomber1,1,2,3
2083100,BomberInfestedPlant,Bomber1,1,2,3
2083480,BomberInfestedPlant,Bomber1,1,2,3
2084000,BomberInfestedPlant,Bomber1,1,2,3
2084020,BomberInfestedPlant,Bomber1,1,2,3
2084040,BomberInfestedPlant,Bomber1,1,2,3
2084320,BomberInfestedPlant,Bomber1,1,2,3
2084660,BomberInfestedPlant,Bomber1,1,2,3
2084700,BomberInfestedPlant,Bomber1,1,2,3
2084980,BomberInfestedPlant,Bomber1,1,2,3
2085700,BomberInfestedPlant,Bomber1,1,2,3
2085720,BomberInfestedPlant,Bomber1,1,2,3
2086020,BomberInfestedPlant,Bomber1,1,2,3
2086060,BomberInfestedPlant,Bomber1,1,2,3
2086440,BomberInfestedPlant,Bomber1,1,2,3
2086480,BomberInfestedPlant,Bomber1,1,2,3
2086640,BomberInfestedPlant,Bomber1,1,2,3
2086880,BomberInfestedPlant,Bomber1,1,2,3
2087120,BomberInfestedPlant,Bomber1,1,2,3
2087160,BomberInfestedPlant,Bomber1,1,2,3
2087960,BomberInfestedPlant,Bomber1,1,2,3
2088240,BomberInfestedPlant,Bomber1,1,2,3
2088640,BomberInfestedPlant,Bomber1,1,2,3
2088660,BomberInfestedPlant,Bomber1,1,2,3
2088740,BomberInfestedPlant,Bomber1,1,2,3
2088780,BomberInfestedPlant,Bomber1,1,2,3
2088980,BomberInfestedPlant,Bomber1,1,2,3
2089260,BomberInfestedPlant,Bomber1,1,2,3
2089380,BomberInfestedPlant,Bomber1,1,2,3
2089540,BomberInfestedPlant,Bomber1,1,2,3
2089680,BomberInfestedPlant,Bomber1,1,2,3
2089780,BomberInfestedPlant,Bomber1,1,2,3
2090080,BomberInfestedPlant,Bomber1,1,2,3
2090120,BomberInfestedPlant,Bomber1,1,2,3
2090220,BomberInfestedPlant,Bomber1,1,2,3
2090400,BomberInfestedPlant,Bomber1,1,2,3
2090440,BomberInfestedPlant,Bomber1,1,2,3
2090580,BomberInfestedPlant,Bomber1,1,2,3
2091260,BomberInfestedPlant,Bomber1,1,2,3
2091380,BomberInfestedPlant,Bomber1,1,2,3
2091520,BomberInfestedPlant,Bomber1,1,2,3
2091700,BomberInfestedPlant,Bomber1,1,2,3
2091720,BomberInfestedPlant,Bomber1,1,2,3
2092300,BomberInfestedPlant,Bomber1,1,2,3
2092400,BomberInfestedPlant,Bomber1,1,2,3
2092500,BomberInfestedPlant,Bomber1,1,2,3
2092620,BomberInfestedPlant,Bomber1,1,2,3
2092680,BomberInfestedPlant,Bomber1,1,2,3
2092800,BomberInfestedPlant,Bomber1,1,2,3
2093500,BomberInfestedPlant,Bomber1,1,2,3
2093780,BomberInfestedPlant,Bomber1,1,2,3
2093920,BomberInfestedPlant,Bomber1,1,2,3
2094340,BomberInfestedPlant,Bomber1,1,2,3
2094540,BomberInfestedPlant,Bomber1,1,2,3
2094840,BomberInfestedPlant,Bomber1,1,2,3
2094880,BomberInfestedPlant,Bomber1,1,2,3
2094920,BomberInfestedPlant,Bomber1,1,2,3
2096000,BomberInfestedPlant,Bomber1,1,2,3
2096260,BomberInfestedPlant,Bomber1,1,2,3
2096300,BomberInfestedPlant,Bomber1,1,2,3
2119220,PickUpBattery,Bomber0,1,2,3
2178760,UseFertilizer,Tank2,1,2,3
2186160,PickUpBattery,Scout0,1,2,3
2200960,PickUpBattery,Bomber1,1,2,3
2236280,UsePesticide,Bomber0,1,2,3
2338140,PickUpBattery,Scout0,1,2,3
