time,event,agent,scouts,bombers,tanks
72020,BomberInfestedPlant,Bomber0,1,1,3
72260,BomberInfestedPlant,Bomber0,1,1,3
72820,BomberInfestedPlant,Bomber0,1,1,3
73160,BomberInfestedPlant,Bomber0,1,1,3
73840,BomberInfestedPlant,Bomber0,1,1,3
74120,BomberInfestedPlant,Bomber0,1,1,3
74140,BomberInfestedPlant,Bomber0,1,1,3
74520,BomberInfestedPlant,Bomber0,1,1,3
74720,BomberInfestedPlant,Bomber0,1,1,3
74920,BomberInfestedPlant,Bomber0,1,1,3
74940,BomberInfestedPlant,Bomber0,1,1,3
76000,BomberInfestedPlant,Bomber0,1,1,3
76100,BomberInfestedPlant,Bomber0,1,1,3
76260,BomberInfestedPlant,Bomber0,1,1,3
76700,BomberInfestedPlant,Bomber0,1,1,3
77120,BomberInfestedPlant,Bomber0,1,1,3
77740,BomberInfestedPlant,Bomber0,1,1,3
77820,BomberInfestedPlant,Bomber0,1,1,3
78080,BomberInfestedPlant,Bomber0,1,1,3
78220,BomberInfestedPlant,Bomber0,1,1,3
78300,BomberInfestedPlant,Bomber0,1,1,3
78760,BomberInfestedPlant,Bomber0,1,1,3
79020,BomberInfestedPlant,Bomber0,1,1,3
79220,BomberInfestedPlant,Bomber0,1,1,3
79400,BomberInfestedPlant,Bomber0,1,1,3
79500,BomberInfestedPlant,Bomber0,1,1,3
79760,BomberInfestedPlant,Bomber0,1,1,3
79940,BomberInfestedPlant,Bomber0,1,1,3
80340,BomberInfestedPlant,Bomber0,1,1,3
80360,BomberInfestedPlant,Bomber0,1,1,3
80980,BomberInfestedPlant,Bomber0,1,1,3
81880,BomberInfestedPlant,Bomber0,1,1,3
81900,BomberInfestedPlant,Bomber0,1,1,3
82080,BomberInfestedPlant,Bomber0,1,1,3
82140,BomberInfestedPlant,Bomber0,1,1,3
82180,BomberInfestedPlant,Bomber0,1,1,3
82380,BomberInfestedPlant,Bomber0,1,1,3
83200,BomberInfestedPlant,Bomber0,1,1,3
83280,BomberInfestedPlant,Bomber0,1,1,3
83340,BomberInfestedPlant,Bomber0,1,1,3
83480,BomberInfestedPlant,Bomber0,1,1,3
83740,BomberInfestedPlant,Bomber0,1,1,3
83860,BomberInfestedPlant,Bomber0,1,1,3
84680,BomberInfestedPlant,Bomber0,1,1,3
84900,BomberInfestedPlant,Bomber0,1,1,3
85780,BomberInfestedPlant,Bomber0,1,1,3
86060,BomberInfestedPlant,Bomber0,1,1,3
86260,BomberInfestedPlant,Bomber0,1,1,3
86340,BomberInfestedPlant,Bomber0,1,1,3
86600,BomberInfestedPlant,Bomber0,1,1,3
86880,BomberInfestedPlant,Bomber0,1,1,3
86980,BomberInfestedPlant,Bomber0,1,1,3
87180,BomberInfestedPlant,Bomber0,1,1,3
87440,BomberInfestedPlant,Bomber0,1,1,3
87600,BomberInfestedPlant,Bomber0,1,1,3
87640,BomberInfestedPlant,Bomber0,1,1,3
87680,BomberInfestedPlant,Bomber0,1,1,3
88040,BomberInfestedPlant,Bomber0,1,1,3
90260,BomberInfestedPlant,Bomber0,1,1,3
90340,BomberInfestedPlant,Bomber0,1,1,3
90600,BomberInfestedPlant,Bomber0,1,1,3
90620,BomberInfestedPlant,Bomber0,1,1,3
90880,BomberInfestedPlant,Bomber0,1,1,3
91060,BomberInfestedPlant,Bomber0,1,1,3
91160,BomberInfestedPlant,Bomber0,1,1,3
91920,BomberInfestedPlant,Bomber0,1,1,3
92080,BomberInfestedPlant,Bomber0,1,1,3
92480,BomberInfestedPlant,Bomber0,1,1,3
92540,BomberInfestedPlant,Bomber0,1,1,3
92600,BomberInfestedPlant,Bomber0,1,1,3
92640,BomberInfestedPlant,Bomber0,1,1,3
92660,BomberInfestedPlant,Bomber0,1,1,3
92700,BomberInfestedPlant,Bomber0,1,1,3
93040,BomberInfestedPlant,Bomber0,1,1,3
93100,BomberInfestedPlant,Bomber0,1,1,3
93980,BomberInfestedPlant,Bomber0,1,1,3
94220,BomberInfestedPlant,Bomber0,1,1,3
95060,BomberInfestedPlant,Bomber0,1,1,3
95340,BomberInfestedPlant,Bomber0,1,1,3
95960,BomberInfestedPlant,Bomber0,1,1,3
96760,BomberInfestedPlant,Bomber0,1,1,3
96820,BomberInfestedPlant,Bomber0,1,1,3
96880,BomberInfestedPlant,Bomber0,1,1,3
97300,BomberInfestedPlant,Bomber0,1,1,3
97820,BomberInfestedPlant,Bomber0,1,1,3
98100,BomberInfestedPlant,Bomber0,1,1,3
98380,BomberInfestedPlant,Bomber0,1,1,3
98420,BomberInfestedPlant,Bomber0,1,1,3
98980,BomberInfestedPlant,Bomber0,1,1,3
99020,BomberInfestedPlant,Bomber0,1,1,3
99460,BomberInfestedPlant,Bomber0,1,1,3
99540,BomberInfestedPlant,Bomber0,1,1,3
144880,PickUpBattery,Scout0,1,1,3
206580,UsePesticide,Bomber0,1,1,3
330800,PickUpBattery,Bomber0,1,1,3
359040,PickUpBattery,Scout0,1,1,3
364100,UsePesticide,Bomber0,1,1,3
453120,UsePesticide,Bomber0,1,1,3
486440,PickUpBattery,Bomber0,1,1,3
511020,PickUpBattery,Scout0,1,1,3
608340,TankNutrientPoorPlant,Tank2,1,1,3
608380,TankNutrientPoorPlant,Tank2,1,1,3
608400,TankNutrientPoorPlant,Tank2,1,1,3
608480,TankNutrientPoorPlant,Tank2,1,1,3
608500,TankNutrientPoorPlant,Tank2,1,1,3
608580,TankNutrientPoorPlant,Tank2,1,1,3
608640,TankNutrientPoorPlant,Tank2,1,1,3
608680,TankNutrientPoorPlant,Tank2,1,1,3
608860,TankNutrientPoorPlant,Tank2,1,1,3
608900,TankNutrientPoorPlant,Tank2,1,1,3
609060,TankNutrientPoorPlant,Tank2,1,1,3
609080,TankNutrientPoorPlant,Tank2,1,1,3
609820,TankNutrientPoorPlant,Tank2,1,1,3
609960,TankNutrientPoorPlant,Tank2,1,1,3
609980,TankNutrientPoorPlant,Tank1,1,1,3
610000,TankNutrientPoorPlant,Tank2,1,1,3
610020,TankNutrientPoorPlant,Tank2,1,1,3
610180,TankNutrientPoorPlant,Tank1,1,1,3
610260,TankNutrientPoorPlant,Tank1,1,1,3
610400,TankNutrientPoorPlant,Tank1,1,1,3
610540,TankNutrientPoorPlant,Tank1,1,1,3
610720,TankNutrientPoorPlant,Tank1,1,1,3
610740,TankNutrientPoorPlant,Tank2,1,1,3
610780,TankNutrientPoorPlant,Tank2,1,1,3
611060,TankNutrientPoorPlant,Tank2,1,1,3
611140,TankNutrientPoorPlant,Tank2,1,1,3
611340,TankNutrientPoorPlant,Tank2,1,1,3
611420,TankNutrientPoorPlant,Tank1,1,1,3
611560,TankNutrientPoorPlant,Tank2,1,1,3
611620,TankNutrientPoorPlant,Tank2,1,1,3
611660,TankNutrientPoorPlant,Tank1,1,1,3
611720,TankNutrientPoorPlant,Tank1,1,1,3
611760,TankNutrientPoorPlant,Tank1,1,1,3
611820,TankNutrientPoorPlant,Tank2,1,1,3
611960,TankNutrientPoorPlant,Tank1,1,1,3
611980,TankNutrientPoorPlant,Tank2,1,1,3
612160,TankNutrientPoorPlant,Tank2,1,1,3
612220,TankNutrientPoorPlant,Tank1,1,1,3
612300,TankNutrientPoorPlant,Tank1,1,1,3
612380,TankNutrientPoorPlant,Tank2,1,1,3
612480,TankNutrientPoorPlant,Tank1,1,1,3
612520,TankNutrientPoorPlant,Tank1,1,1,3
612640,TankNutrientPoorPlant,Tank1,1,1,3
612660,TankNutrientPoorPlant,Tank1,1,1,3
612740,TankNutrientPoorPlant,Tank1,1,1,3
612760,TankNutrientPoorPlant,Tank2,1,1,3
612920,TankNutrientPoorPlant,Tank2,1,1,3
612940,TankNutrientPoorPlant,Tank1,1,1,3
613000,TankNutrientPoorPlant,Tank1,1,1,3
613000,TankNutrientPoorPlant,Tank2,1,1,3
613120,TankNutrientPoorPlant,Tank2,1,1,3
613180,TankNutrientPoorPlant,Tank1,1,1,3
613240,TankNutrientPoorPlant,Tank1,1,1,3
613320,TankNutrientPoorPlant,Tank1,1,1,3
613360,TankNutrientPoorPlant,Tank2,1,1,3
613380,TankNutrientPoorPlant,Tank1,1,1,3
613400,TankNutrientPoorPlant,Tank1,1,1,3
613420,TankNutrientPoorPlant,Tank1,1,1,3
613420,TankNutrientPoorPlant,Tank2,1,1,3
613600,TankNutrientPoorPlant,Tank2,1,1,3
613640,TankNutrientPoorPlant,Tank2,1,1,3
613800,TankNutrientPoorPlant,Tank1,1,1,3
613820,TankNutrientPoorPlant,Tank2,1,1,3
613840,TankNutrientPoorPlant,Tank2,1,1,3
613900,TankNutrientPoorPlant,Tank1,1,1,3
613940,TankNutrientPoorPlant,Tank1,1,1,3
614040,TankNutrientPoorPlant,Tank1,1,1,3
614080,TankNutrientPoorPlant,Tank1,1,1,3
614100,TankNutrientPoorPlant,Tank1,1,1,3
614240,TankNutrientPoorPlant,Tank2,1,1,3
614300,TankNutrientPoorPlant,Tank1,1,1,3
614340,TankNutrientPoorPlant,Tank1,1,1,3
614380,TankNutrientPoorPlant,Tank1,1,1,3
614400,TankNutrientPoorPlant,Tank2,1,1,3
614460,TankNutrientPoorPlant,Tank2,1,1,3
614480,TankNutrientPoorPlant,Tank2,1,1,3
614540,TankNutrientPoorPlant,Tank1,1,1,3
614660,TankNutrientPoorPlant,Tank1,1,1,3
614700,TankNutrientPoorPlant,Tank2,1,1,3
614740,TankNutrientPoorPlant,Tank1,1,1,3
614780,TankNutrientPoorPlant,Tank2,1,1,3
614800,TankNutrientPoorPlant,Tank1,1,1,3
614840,TankNutrientPoorPlant,Tank1,1,1,3
615100,TankNutrientPoorPlant,Tank1,1,1,3
615100,TankNutrientPoorPlant,Tank2,1,1,3
615160,TankNutrientPoorPlant,Tank2,1,1,3
615180,TankNutrientPoorPlant,Tank1,1,1,3
615240,TankNutrientPoorPlant,Tank1,1,1,3
615260,TankNutrientPoorPlant,Tank1,1,1,3
615300,TankNutrientPoorPlant,Tank2,1,1,3
615360,TankNutrientPoorPlant,Tank2,1,1,3
615360,TankNutrientPoorPlant,Tank2,1,1,3
615400,TankNutrientPoorPlant,Tank2,1,1,3
615420,TankNutrientPoorPlant,Tank2,1,1,3
615440,TankNutrientPoorPlant,Tank1,1,1,3
615440,TankNutrientPoorPlant,Tank1,1,1,3
615440,TankNutrientPoorPlant,Tank2,1,1,3
615440,TankNutrientPoorPlant,Tank2,1,1,3
615500,TankNutrientPoorPlant,Tank2,1,1,3
615520,TankNutrientPoorPlant,Tank2,1,1,3
615540,TankNutrientPoorPlant,Tank1,1,1,3
615580,TankNutrientPoorPlant,Tank1,1,1,3
615600,TankNutrientPoorPlant,Tank1,1,1,3
615620,TankNutrientPoorPlant,Tank1,1,1,3
615620,TankNutrientPoorPlant,Tank2,1,1,3
615640,TankNutrientPoorPlant,Tank1,1,1,3
615700,TankNutrientPoorPlant,Tank2,1,1,3
615760,TankNutrientPoorPlant,Tank1,1,1,3
615760,TankNutrientPoorPlant,Tank1,1,1,3
615760,TankNutrientPoorPlant,Tank2,1,1,3
615800,TankNutrientPoorPlant,Tank2,1,1,3
615820,TankNutrientPoorPlant,Tank1,1,1,3
615840,TankNutrientPoorPlant,Tank2,1,1,3
615860,TankNutrientPoorPlant,Tank1,1,1,3
615880,TankNutrientPoorPlant,Tank1,1,1,3
615920,TankNutrientPoorPlant,Tank2,1,1,3
615920,TankNutrientPoorPlant,Tank2,1,1,3
615980,TankNutrientPoorPlant,Tank2,1,1,3
616000,TankNutrientPoorPlant,Tank2,1,1,3
616000,TankNutrientPoorPlant,Tank2,1,1,3
616020,TankNutrientPoorPlant,Tank1,1,1,3
616040,TankNutrientPoorPlant,Tank1,1,1,3
616040,TankNutrientPoorPlant,Tank2,1,1,3
616040,TankNutrientPoorPlant,Tank2,1,1,3
616140,TankNutrientPoorPlant,Tank2,1,1,3
616160,TankNutrientPoorPlant,Tank2,1,1,3
616240,TankNutrientPoorPlant,Tank2,1,1,3
616240,TankNutrientPoorPlant,Tank2,1,1,3
616260,TankNutrientPoorPlant,Tank1,1,1,3
616260,TankNutrientPoorPlant,Tank1,1,1,3
616280,TankNutrientPoorPlant,Tank2,1,1,3
616280,TankNutrientPoorPlant,Tank2,1,1,3
616300,TankNutrientPoorPlant,Tank1,1,1,3
616300,TankNutrientPoorPlant,Tank2,1,1,3
616320,TankNutrientPoorPlant,Tank1,1,1,3
616340,TankNutrientPoorPlant,Tank2,1,1,3
616360,TankNutrientPoorPlant,Tank1,1,1,3
616360,TankNutrientPoorPlant,Tank2,1,1,3
616380,TankNutrientPoorPlant,Tank2,1,1,3
616380,TankNutrientPoorPlant,Tank2,1,1,3
616400,TankNutrientPoorPlant,Tank1,1,1,3
616500,TankNutrientPoorPlant,Tank2,1,1,3
616520,TankNutrientPoorPlant,Tank1,1,1,3
616580,TankNutrientPoorPlant,Tank1,1,1,3
616620,TankNutrientPoorPlant,Tank2,1,1,3
616700,TankNutrientPoorPlant,Tank1,1,1,3
616820,TankNutrientPoorPlant,Tank2,1,1,3
616860,TankNutrientPoorPlant,Tank2,1,1,3
616980,TankNutrientPoorPlant,Tank1,1,1,3
617080,TankNutrientPoorPlant,Tank2,1,1,3
617220,TankNutrientPoorPlant,Tank2,1,1,3
617280,TankNutrientPoorPlant,Tank2,1,1,3
617320,TankNutrientPoorPlant,Tank2,1,1,3
617420,TankNutrientPoorPlant,Tank2,1,1,3
617520,TankNutrientPoorPlant,Tank2,1,1,3
617580,TankNutrientPoorPlant,Tank1,1,1,3
617640,TankNutrientPoorPlant,Tank1,1,1,3
617640,TankNutrientPoorPlant,Tank2,1,1,3
617680,TankNutrientPoorPlant,Tank2,1,1,3
617720,TankNutrientPoorPlant,Tank1,1,1,3
617740,TankNutrientPoorPlant,Tank1,1,1,3
617800,TankNutrientPoorPlant,Tank1,1,1,3
617860,TankNutrientPoorPlant,Tank2,1,1,3
618000,TankNutrientPoorPlant,Tank1,1,1,3
618100,TankNutrientPoorPlant,Tank1,1,1,3
618140,TankNutrientPoorPlant,Tank2,1,1,3
618260,TankNutrientPoorPlant,Tank1,1,1,3
618360,TankNutrientPoorPlant,Tank2,1,1,3
618420,TankNutrientPoorPlant,Tank2,1,1,3
618480,TankNutrientPoorPlant,Tank2,1,1,3
618520,TankNutrientPoorPlant,Tank1,1,1,3
618520,TankNutrientPoorPlant,Tank2,1,1,3
618660,TankNutrientPoorPlant,Tank2,1,1,3
618740,TankNutrientPoorPlant,Tank1,1,1,3
618880,TankNutrientPoorPlant,Tank1,1,1,3
618880,TankNutrientPoorPlant,Tank2,1,1,3
618940,TankNutrientPoorPlant,Tank2,1,1,3
618980,TankNutrientPoorPlant,Tank1,1,1,3
619040,TankNutrientPoorPlant,Tank2,1,1,3
619140,TankNutrientPoorPlant,Tank2,1,1,3
619160,TankNutrientPoorPlant,Tank1,1,1,3
619260,TankNutrientPoorPlant,Tank1,1,1,3
619300,TankNutrientPoorPlant,Tank2,1,1,3
619300,TankNutrientPoorPlant,Tank2,1,1,3
619320,TankNutrientPoorPlant,Tank2,1,1,3
619340,TankNutrientPoorPlant,Tank1,1,1,3
619340,TankNutrientPoorPlant,Tank1,1,1,3
619360,TankNutrientPoorPlant,Tank1,1,1,3
619360,TankNutrientPoorPlant,Tank2,1,1,3
619360,TankNutrientPoorPlant,Tank2,1,1,3
619400,TankNutrientPoorPlant,Tank2,1,1,3
619500,TankNutrientPoorPlant,Tank2,1,1,3
619500,TankNutrientPoorPlant,Tank2,1,1,3
619520,TankNutrientPoorPlant,Tank1,1,1,3
619520,TankNutrientPoorPlant,Tank1,1,1,3
619540,TankNutrientPoorPlant,Tank2,1,1,3
619560,TankNutrientPoorPlant,Tank2,1,1,3
619580,TankNutrientPoorPlant,Tank2,1,1,3
619600,TankNutrientPoorPlant,Tank1,1,1,3
619600,TankNutrientPoorPlant,Tank2,1,1,3
619620,TankNutrientPoorPlant,Tank1,1,1,3
619620,TankNutrientPoorPlant,Tank1,1,1,3
619640,TankNutrientPoorPlant,Tank2,1,1,3
619680,TankNutrientPoorPlant,Tank2,1,1,3
619720,TankNutrientPoorPlant,Tank1,1,1,3
619740,TankNutrientPoorPlant,Tank2,1,1,3
619760,TankNutrientPoorPlant,Tank1,1,1,3
619780,TankNutrientPoorPlant,Tank2,1,1,3
619820,TankNutrientPoorPlant,Tank1,1,1,3
619820,TankNutrientPoorPlant,Tank2,1,1,3
619840,TankNutrientPoorPlant,Tank1,1,1,3
619880,TankNutrientPoorPlant,Tank2,1,1,3
619880,TankNutrientPoorPlant,Tank2,1,1,3
619920,TankNutrientPoorPlant,Tank2,1,1,3
619920,TankNutrientPoorPlant,Tank2,1,1,3
619940,TankNutrientPoorPlant,Tank1,1,1,3
619940,TankNutrientPoorPlant,Tank1,1,1,3
619980,TankNutrientPoorPlant,Tank2,1,1,3
620020,TankNutrientPoorPlant,Tank1,1,1,3
620040,TankNutrientPoorPlant,Tank2,1,1,3
620060,TankNutrientPoorPlant,Tank1,1,1,3
620060,TankNutrientPoorPlant,Tank2,1,1,3
620080,TankNutrientPoorPlant,Tank2,1,1,3
620080,TankNutrientPoorPlant,Tank2,1,1,3
620100,TankNutrientPoorPlant,Tank1,1,1,3
620100,TankNutrientPoorPlant,Tank2,1,1,3
620120,TankNutrientPoorPlant,Tank1,1,1,3
620120,TankNutrientPoorPlant,Tank1,1,1,3
620180,TankNutrientPoorPlant,Tank1,1,1,3
620200,TankNutrientPoorPlant,Tank1,1,1,3
620200,TankNutrientPoorPlant,Tank1,1,1,3
620220,TankNutrientPoorPlant,Tank1,1,1,3
620220,TankNutrientPoorPlant,Tank2,1,1,3
620280,TankNutrientPoorPlant,Tank2,1,1,3
620280,TankNutrientPoorPlant,Tank2,1,1,3
620300,TankNutrientPoorPlant,Tank2,1,1,3
620340,TankNutrientPoorPlant,Tank1,1,1,3
620340,TankNutrientPoorPlant,Tank2,1,1,3
620360,TankNutrientPoorPlant,Tank1,1,1,3
620420,TankNutrientPoorPlant,Tank1,1,1,3
620420,TankNutrientPoorPlant,Tank2,1,1,3
620420,TankNutrientPoorPlant,Tank2,1,1,3
620440,TankNutrientPoorPlant,Tank1,1,1,3
620600,TankNutrientPoorPlant,Tank1,1,1,3
620600,TankNutrientPoorPlant,Tank1,1,1,3
620600,TankNutrientPoorPlant,Tank2,1,1,3
620620,TankNutrientPoorPlant,Tank1,1,1,3
620620,TankNutrientPoorPlant,Tank2,1,1,3
620620,TankNutrientPoorPlant,Tank2,1,1,3
620640,TankNutrientPoorPlant,Tank1,1,1,3
620660,TankNutrientPoorPlant,Tank1,1,1,3
620660,TankNutrientPoorPlant,Tank2,1,1,3
620700,TankNutrientPoorPlant,Tank1,1,1,3
620760,TankNutrientPoorPlant,Tank1,1,1,3
620760,TankNutrientPoorPlant,Tank1,1,1,3
620780,TankNutrientPoorPlant,Tank2,1,1,3
620780,TankNutrientPoorPlant,Tank2,1,1,3
620800,TankNutrientPoorPlant,Tank2,1,1,3
620860,TankNutrientPoorPlant,Tank2,1,1,3
620880,TankNutrientPoorPlant,Tank2,1,1,3
620880,TankNutrientPoorPlant,Tank2,1,1,3
620940,TankNutrientPoorPlant,Tank1,1,1,3
620960,TankNutrientPoorPlant,Tank2,1,1,3
620960,TankNutrientPoorPlant,Tank2,1,1,3
621000,TankNutrientPoorPlant,Tank1,1,1,3
621040,TankNutrientPoorPlant,Tank1,1,1,3
621040,TankNutrientPoorPlant,Tank2,1,1,3
621060,TankNutrientPoorPlant,Tank1,1,1,3
621080,TankNutrientPoorPlant,Tank1,1,1,3
621080,TankNutrientPoorPlant,Tank2,1,1,3
621080,TankNutrientPoorPlant,Tank2,1,1,3
621180,TankNutrientPoorPlant,Tank2,1,1,3
621660,TankNutrientPoorPlant,Tank1,1,1,3
621740,TankNutrientPoorPlant,Tank2,1,1,3
621800,TankNutrientPoorPlant,Tank1,1,1,3
621840,TankNutrientPoorPlant,Tank1,1,1,3
621980,TankNutrientPoorPlant,Tank1,1,1,3
622000,TankNutrientPoorPlant,Tank1,1,1,3
622040,TankNutrientPoorPlant,Tank2,1,1,3
622180,TankNutrientPoorPlant,Tank2,1,1,3
622200,TankNutrientPoorPlant,Tank1,1,1,3
622220,TankNutrientPoorPlant,Tank2,1,1,3
622240,TankNutrientPoorPlant,Tank1,1,1,3
622260,TankNutrientPoorPlant,Tank1,1,1,3
622300,TankNutrientPoorPlant,Tank2,1,1,3
622320,TankNutrientPoorPlant,Tank2,1,1,3
622380,TankNutrientPoorPlant,Tank2,1,1,3
622400,TankNutrientPoorPlant,Tank2,1,1,3
622600,TankNutrientPoorPlant,Tank1,1,1,3
622700,TankNutrientPoorPlant,Tank2,1,1,3
622820,TankNutrientPoorPlant,Tank1,1,1,3
622840,TankNutrientPoorPlant,Tank1,1,1,3
622840,TankNutrientPoorPlant,Tank2,1,1,3
622860,TankNutrientPoorPlant,Tank1,1,1,3
623080,TankNutrientPoorPlant,Tank1,1,1,3
623160,TankNutrientPoorPlant,Tank2,1,1,3
623200,TankNutrientPoorPlant,Tank1,1,1,3
623260,TankNutrientPoorPlant,Tank1,1,1,3
623280,TankNutrientPoorPlant,Tank1,1,1,3
623300,TankNutrientPoorPlant,Tank2,1,1,3
623480,TankNutrientPoorPlant,Tank2,1,1,3
623580,TankNutrientPoorPlant,Tank1,1,1,3
623580,TankNutrientPoorPlant,Tank2,1,1,3
623840,TankNutrientPoorPlant,Tank2,1,1,3
623880,TankNutrientPoorPlant,Tank2,1,1,3
623920,TankNutrientPoorPlant,Tank2,1,1,3
624060,TankNutrientPoorPlant,Tank1,1,1,3
624080,TankNutrientPoorPlant,Tank1,1,1,3
624140,TankNutrientPoorPlant,Tank1,1,1,3
624180,TankNutrientPoorPlant,Tank1,1,1,3
624240,TankNutrientPoorPlant,Tank2,1,1,3
624280,TankNutrientPoorPlant,Tank2,1,1,3
624340,TankNutrientPoorPlant,Tank2,1,1,3
624420,TankNutrientPoorPlant,Tank1,1,1,3
624600,TankNutrientPoorPlant,Tank2,1,1,3
624720,TankNutrientPoorPlant,Tank2,1,1,3
624760,TankNutrientPoorPlant,Tank2,1,1,3
624800,TankNutrientPoorPlant,Tank1,1,1,3
624800,TankNutrientPoorPlant,Tank2,1,1,3
624860,TankNutrientPoorPlant,Tank2,1,1,3
624880,TankNutrientPoorPlant,Tank2,1,1,3
625020,TankNutrientPoorPlant,Tank1,1,1,3
625200,TankNutrientPoorPlant,Tank1,1,1,3
625280,TankNutrientPoorPlant,Tank2,1,1,3
625300,TankNutrientPoorPlant,Tank1,1,1,3
625320,TankNutrientPoorPlant,Tank1,1,1,3
625320,TankNutrientPoorPlant,Tank2,1,1,3
625400,TankNutrientPoorPlant,Tank1,1,1,3
625440,TankNutrientPoorPlant,Tank2,1,1,3
625560,TankNutrientPoorPlant,Tank1,1,1,3
625580,TankNutrientPoorPlant,Tank2,1,1,3
625680,TankNutrientPoorPlant,Tank2,1,1,3
625840,TankNutrientPoorPlant,Tank2,1,1,3
625860,TankNutrientPoorPlant,Tank2,1,1,3
625880,TankNutrientPoorPlant,Tank2,1,1,3
626000,TankNutrientPoorPlant,Tank2,1,1,3
626020,TankNutrientPoorPlant,Tank1,1,1,3
626120,TankNutrientPoorPlant,Tank2,1,1,3
626180,TankNutrientPoorPlant,Tank1,1,1,3
626260,TankNutrientPoorPlant,Tank1,1,1,3
626260,TankNutrientPoorPlant,Tank2,1,1,3
626340,TankNutrientPoorPlant,Tank1,1,1,3
626400,TankNutrientPoorPlant,Tank2,1,1,3
626440,TankNutrientPoorPlant,Tank1,1,1,3
626480,TankNutrientPoorPlant,Tank2,1,1,3
626700,TankNutrientPoorPlant,Tank2,1,1,3
626740,TankNutrientPoorPlant,Tank1,1,1,3
626760,TankNutrientPoorPlant,Tank1,1,1,3
626780,TankNutrientPoorPlant,Tank2,1,1,3
626800,TankNutrientPoorPlant,Tank2,1,1,3
626820,TankNutrientPoorPlant,Tank1,1,1,3
626840,TankNutrientPoorPlant,Tank2,1,1,3
626900,TankNutrientPoorPlant,Tank1,1,1,3
626980,TankNutrientPoorPlant,Tank1,1,1,3
627020,TankNutrientPoorPlant,Tank1,1,1,3
627120,TankNutrientPoorPlant,Tank2,1,1,3
627160,TankNutrientPoorPlant,Tank1,1,1,3
627180,TankNutrientPoorPlant,Tank1,1,1,3
627240,TankNutrientPoorPlant,Tank2,1,1,3
627260,TankNutrientPoorPlant,Tank1,1,1,3
627540,TankNutrientPoorPlant,Tank1,1,1,3
627680,TankNutrientPoorPlant,Tank1,1,1,3
627740,TankNutrientPoorPlant,Tank2,1,1,3
627780,TankNutrientPoorPlant,Tank2,1,1,3
627860,TankNutrientPoorPlant,Tank2,1,1,3
628060,TankNutrientPoorPlant,Tank1,1,1,3
628080,TankNutrientPoorPlant,Tank1,1,1,3
628100,TankNutrientPoorPlant,Tank1,1,1,3
628100,TankNutrientPoorPlant,Tank2,1,1,3
628260,TankNutrientPoorPlant,Tank1,1,1,3
628280,TankNutrientPoorPlant,Tank2,1,1,3
628300,TankNutrientPoorPlant,Tank2,1,1,3
628420,TankNutrientPoorPlant,Tank1,1,1,3
628460,TankNutrientPoorPlant,Tank1,1,1,3
628520,TankNutrientPoorPlant,Tank1,1,1,3
628580,TankNutrientPoorPlant,Tank2,1,1,3
628600,TankNutrientPoorPlant,Tank2,1,1,3
628620,TankNutrientPoorPlant,Tank1,1,1,3
628840,TankNutrientPoorPlant,Tank2,1,1,3
628940,TankNutrientPoorPlant,Tank2,1,1,3
628960,TankNutrientPoorPlant,Tank1,1,1,3
629040,TankNutrientPoorPlant,Tank2,1,1,3
629080,TankNutrientPoorPlant,Tank2,1,1,3
629140,TankNutrientPoorPlant,Tank2,1,1,3
629160,TankNutrientPoorPlant,Tank1,1,1,3
629280,TankNutrientPoorPlant,Tank2,1,1,3
629300,TankNutrientPoorPlant,Tank2,1,1,3
629400,TankNutrientPoorPlant,Tank1,1,1,3
629420,TankNutrientPoorPlant,Tank1,1,1,3
629440,TankNutrientPoorPlant,Tank2,1,1,3
629500,TankNutrientPoorPlant,Tank1,1,1,3
629520,TankNutrientPoorPlant,Tank2,1,1,3
629640,TankNutrientPoorPlant,Tank2,1,1,3
629760,TankNutrientPoorPlant,Tank2,1,1,3
629780,TankNutrientPoorPlant,Tank2,1,1,3
629800,TankNutrientPoorPlant,Tank2,1,1,3
629920,TankNutrientPoorPlant,Tank1,1,1,3
629920,TankNutrientPoorPlant,Tank2,1,1,3
630040,TankNutrientPoorPlant,Tank2,1,1,3
630080,TankNutrientPoorPlant,Tank1,1,1,3
630140,TankNutrientPoorPlant,Tank1,1,1,3
630180,TankNutrientPoorPlant,Tank1,1,1,3
630260,TankNutrientPoorPlant,Tank2,1,1,3
630280,TankNutrientPoorPlant,Tank1,1,1,3
630320,TankNutrientPoorPlant,Tank2,1,1,3
630340,TankNutrientPoorPlant,Tank2,1,1,3
630380,TankNutrientPoorPlant,Tank1,1,1,3
630440,TankNutrientPoorPlant,Tank1,1,1,3
630460,TankNutrientPoorPlant,Tank1,1,1,3
630480,TankNutrientPoorPlant,Tank2,1,1,3
630600,TankNutrientPoorPlant,Tank1,1,1,3
630660,TankNutrientPoorPlant,Tank1,1,1,3
630700,TankNutrientPoorPlant,Tank1,1,1,3
630740,TankNutrientPoorPlant,Tank2,1,1,3
630760,TankNutrientPoorPlant,Tank1,1,1,3
631040,TankNutrientPoorPlant,Tank1,1,1,3
631060,TankNutrientPoorPlant,Tank2,1,1,3
631100,TankNutrientPoorPlant,Tank2,1,1,3
631180,TankNutrientPoorPlant,Tank1,1,1,3
631240,TankNutrientPoorPlant,Tank2,1,1,3
631260,TankNutrientPoorPlant,Tank1,1,1,3
631280,TankNutrientPoorPlant,Tank1,1,1,3
631280,TankNutrientPoorPlant,Tank2,1,1,3
631300,TankNutrientPoorPlant,Tank2,1,1,3
631340,TankNutrientPoorPlant,Tank2,1,1,3
631460,TankNutrientPoorPlant,Tank2,1,1,3
631640,TankNutrientPoorPlant,Tank2,1,1,3
631680,TankNutrientPoorPlant,Tank1,1,1,3
631760,TankNutrientPoorPlant,Tank1,1,1,3
631820,TankNutrientPoorPlant,Tank2,1,1,3
631900,TankNutrientPoorPlant,Tank2,1,1,3
631940,TankNutrientPoorPlant,Tank2,1,1,3
632000,TankNutrientPoorPlant,Tank1,1,1,3
632080,TankNutrientPoorPlant,Tank1,1,1,3
632140,TankNutrientPoorPlant,Tank2,1,1,3
632200,TankNutrientPoorPlant,Tank2,1,1,3
632260,TankNutrientPoorPlant,Tank2,1,1,3
632280,TankNutrientPoorPlant,Tank2,1,1,3
632360,TankNutrientPoorPlant,Tank1,1,1,3
632460,TankNutrientPoorPlant,Tank1,1,1,3
632500,TankNutrientPoorPlant,Tank2,1,1,3
632680,TankNutrientPoorPlant,Tank1,1,1,3
632700,TankNutrientPoorPlant,Tank2,1,1,3
632720,TankNutrientPoorPlant,Tank2,1,1,3
632740,TankNutrientPoorPlant,Tank1,1,1,3
632740,TankNutrientPoorPlant,Tank2,1,1,3
632800,TankNutrientPoorPlant,Tank1,1,1,3
633000,TankNutrientPoorPlant,Tank1,1,1,3
633100,TankNutrientPoorPlant,Tank1,1,1,3
633160,TankNutrientPoorPlant,Tank2,1,1,3
633200,TankNutrientPoorPlant,Tank1,1,1,3
633340,TankNutrientPoorPlant,Tank2,1,1,3
633520,TankNutrientPoorPlant,Tank1,1,1,3
633540,TankNutrientPoorPlant,Tank1,1,1,3
633580,TankNutrientPoorPlant,Tank1,1,1,3
633640,TankNutrientPoorPlant,Tank1,1,1,3
633700,TankNutrientPoorPlant,Tank1,1,1,3
633800,TankNutrientPoorPlant,Tank1,1,1,3
633840,TankNutrientPoorPlant,Tank1,1,1,3
634040,TankNutrientPoorPlant,Tank1,1,1,3
634080,TankNutrientPoorPlant,Tank1,1,1,3
634120,TankNutrientPoorPlant,Tank1,1,1,3
634280,TankNutrientPoorPlant,Tank1,1,1,3
634320,TankNutrientPoorPlant,Tank1,1,1,3
634560,TankNutrientPoorPlant,Tank1,1,1,3
634620,TankNutrientPoorPlant,Tank1,1,1,3
634740,TankNutrientPoorPlant,Tank1,1,1,3
634780,TankNutrientPoorPlant,Tank1,1,1,3
634840,TankNutrientPoorPlant,Tank1,1,1,3
634920,TankNutrientPoorPlant,Tank1,1,1,3
635320,TankNutrientPoorPlant,Tank1,1,1,3
635340,TankNutrientPoorPlant,Tank1,1,1,3
635440,TankNutrientPoorPlant,Tank1,1,1,3
635440,TankNutrientPoorPlant,Tank1,1,1,3
635500,TankNutrientPoorPlant,Tank1,1,1,3
635500,TankNutrientPoorPlant,Tank1,1,1,3
635520,TankNutrientPoorPlant,Tank1,1,1,3
635600,TankNutrientPoorPlant,Tank1,1,1,3
635600,TankNutrientPoorPlant,Tank1,1,1,3
635900,TankNutrientPoorPlant,Tank1,1,1,3
635960,TankNutrientPoorPlant,Tank1,1,1,3
636300,TankNutrientPoorPlant,Tank1,1,1,3
636460,TankNutrientPoorPlant,Tank1,1,1,3
636480,TankNutrientPoorPlant,Tank1,1,1,3
636500,TankNutrientPoorPlant,Tank1,1,1,3
636680,TankNutrientPoorPlant,Tank1,1,1,3
636700,TankNutrientPoorPlant,Tank1,1,1,3
636820,TankNutrientPoorPlant,Tank1,1,1,3
636880,TankNutrientPoorPlant,Tank1,1,1,3
684420,PickUpBattery,Tank0,1,1,3
725180,PickUpBattery,Scout0,1,1,3
819700,PickUpBattery,Bomber0,1,1,3
877160,PickUpBattery,Scout0,1,1,3
997320,PickUpBattery,Bomber0,1,1,3
1069300,PickUpBattery,Tank1,1,1,3
1091320,PickUpBattery,Scout0,1,1,3
1104040,UsePesticide,Bomber0,1,1,3
1225080,PickUpBattery,Bomber0,1,1,3
1243300,PickUpBattery,Scout0,1,1,3
1310780,TankNutrientPoorPlant,Tank2,1,1,3
1310840,TankNutrientPoorPlant,Tank2,1,1,3
1310880,TankNutrientPoorPlant,Tank2,1,1,3
1310960,TankNutrientPoorPlant,Tank2,1,1,3
1311160,TankNutrientPoorPlant,Tank2,1,1,3
1311380,TankNutrientPoorPlant,Tank2,1,1,3
1311740,TankNutrientPoorPlant,Tank2,1,1,3
1311940,TankNutrientPoorPlant,Tank2,1,1,3
1312020,TankNutrientPoorPlant,Tank2,1,1,3
1312100,TankNutrientPoorPlant,Tank2,1,1,3
1312520,TankNutrientPoorPlant,Tank2,1,1,3
1312560,TankNutrientPoorPlant,Tank2,1,1,3
1312620,TankNutrientPoorPlant,Tank2,1,1,3
1312720,TankNutrientPoorPlant,Tank2,1,1,3
1312800,TankNutrientPoorPlant,Tank2,1,1,3
1312880,TankNutrientPoorPlant,Tank2,1,1,3
1312940,TankNutrientPoorPlant,Tank2,1,1,3
1312980,TankNutrientPoorPlant,Tank2,1,1,3
1313000,TankNutrientPoorPlant,Tank2,1,1,3
1313040,TankNutrientPoorPlant,Tank2,1,1,3
1313080,TankNutrientPoorPlant,Tank2,1,1,3
1313240,TankNutrientPoorPlant,Tank2,1,1,3
1313340,TankNutrientPoorPlant,Tank2,1,1,3
1313540,TankNutrientPoorPlant,Tank2,1,1,3
1313560,TankNutrientPoorPlant,Tank2,1,1,3
1313740,TankNutrientPoorPlant,Tank2,1,1,3
1313940,TankNutrientPoorPlant,Tank2,1,1,3
1314200,TankNutrientPoorPlant,Tank2,1,1,3
1314300,TankNutrientPoorPlant,Tank2,1,1,3
1314360,TankNutrientPoorPlant,Tank2,1,1,3
1314380,TankNutrientPoorPlant,Tank2,1,1,3
1314420,TankNutrientPoorPlant,Tank2,1,1,3
1314480,TankNutrientPoorPlant,Tank2,1,1,3
1314620,TankNutrientPoorPlant,Tank2,1,1,3
1314700,TankNutrientPoorPlant,Tank2,1,1,3
1314740,TankNutrientPoorPlant,Tank2,1,1,3
1314760,TankNutrientPoorPlant,Tank2,1,1,3
1314800,TankNutrientPoorPlant,Tank2,1,1,3
1314860,TankNutrientPoorPlant,Tank2,1,1,3
1314980,TankNutrientPoorPlant,Tank2,1,1,3
1315220,TankNutrientPoorPlant,Tank2,1,1,3
1315440,TankNutrientPoorPlant,Tank2,1,1,3
1315460,TankNutrientPoorPlant,Tank2,1,1,3
1315700,TankNutrientPoorPlant,Tank2,1,1,3
1315740,TankNutrientPoorPlant,Tank2,1,1,3
1315920,TankNutrientPoorPlant,Tank2,1,1,3
1315980,TankNutrientPoorPlant,Tank2,1,1,3
1316000,TankNutrientPoorPlant,Tank2,1,1,3
1316440,TankNutrientPoorPlant,Tank2,1,1,3
1316520,TankNutrientPoorPlant,Tank2,1,1,3
1316540,TankNutrientPoorPlant,Tank2,1,1,3
1316600,TankNutrientPoorPlant,Tank2,1,1,3
1316620,TankNutrientPoorPlant,Tank2,1,1,3
1317180,TankNutrientPoorPlant,Tank2,1,1,3
1317220,TankNutrientPoorPlant,Tank2,1,1,3
1317580,TankNutrientPoorPlant,Tank2,1,1,3
1317640,TankNutrientPoorPlant,Tank2,1,1,3
1317820,TankNutrientPoorPlant,Tank2,1,1,3
1317940,TankNutrientPoorPlant,Tank2,1,1,3
1318300,TankNutrientPoorPlant,Tank2,1,1,3
1318420,TankNutrientPoorPlant,Tank2,1,1,3
1318560,TankNutrientPoorPlant,Tank2,1,1,3
1318920,TankNutrientPoorPlant,Tank2,1,1,3
1319060,TankNutrientPoorPlant,Tank2,1,1,3
1319060,TankNutrientPoorPlant,Tank2,1,1,3
1319080,TankNutrientPoorPlant,Tank2,1,1,3
1319120,TankNutrientPoorPlant,Tank2,1,1,3
1319160,TankNutrientPoorPlant,Tank2,1,1,3
1319160,TankNutrientPoorPlant,Tank2,1,1,3
1319300,TankNutrientPoorPlant,Tank2,1,1,3
1319320,TankNutrientPoorPlant,Tank2,1,1,3
1319320,TankNutrientPoorPlant,Tank2,1,1,3
1319340,TankNutrientPoorPlant,Tank2,1,1,3
1319420,TankNutrientPoorPlant,Tank2,1,1,3
1319700,TankNutrientPoorPlant,Tank2,1,1,3
1319700,TankNutrientPoorPlant,Tank2,1,1,3
1319800,TankNutrientPoorPlant,Tank2,1,1,3
1319800,TankNutrientPoorPlant,Tank2,1,1,3
1319820,TankNutrientPoorPlant,Tank2,1,1,3
1319960,TankNutrientPoorPlant,Tank2,1,1,3
1319980,TankNutrientPoorPlant,Tank2,1,1,3
1319980,TankNutrientPoorPlant,Tank2,1,1,3
1320360,TankNutrientPoorPlant,Tank2,1,1,3
1320380,TankNutrientPoorPlant,Tank2,1,1,3
1320420,TankNutrientPoorPlant,Tank2,1,1,3
1320440,TankNutrientPoorPlant,Tank2,1,1,3
1320440,TankNutrientPoorPlant,Tank2,1,1,3
1320600,TankNutrientPoorPlant,Tank2,1,1,3
1411120,PickUpBattery,Bomber0,1,1,3
1426840,UseFertilizer,Tank2,1,1,3
1457460,PickUpBattery,Scout0,1,1,3
1492920,UseFertilizer,Tank1,1,1,3
1609440,PickUpBattery,Scout0,1,1,3
1653280,UseFertilizer,Tank0,1,1,3
1676820,TankNutrientPoorPlant,Tank2,1,1,3
1676880,TankNutrientPoorPlant,Tank2,1,1,3
1676920,TankNutrientPoorPlant,Tank2,1,1,3
1676940,TankNutrientPoorPlant,Tank2,1,1,3
1677120,TankNutrientPoorPlant,Tank2,1,1,3
1677260,TankNutrientPoorPlant,Tank2,1,1,3
1677340,TankNutrientPoorPlant,Tank2,1,1,3
1677420,TankNutrientPoorPlant,Tank2,1,1,3
1677480,TankNutrientPoorPlant,Tank2,1,1,3
1677600,TankNutrientPoorPlant,Tank2,1,1,3
1677660,TankNutrientPoorPlant,Tank2,1,1,3
1677760,TankNutrientPoorPlant,Tank2,1,1,3
1678040,TankNutrientPoorPlant,Tank2,1,1,3
1678200,TankNutrientPoorPlant,Tank2,1,1,3
1678300,TankNutrientPoorPlant,Tank2,1,1,3
1678660,TankNutrientPoorPlant,Tank2,1,1,3
1678680,TankNutrientPoorPlant,Tank2,1,1,3
1678820,TankNutrientPoorPlant,Tank2,1,1,3
1679040,TankNutrientPoorPlant,Tank2,1,1,3
1679080,TankNutrientPoorPlant,Tank2,1,1,3
1679100,TankNutrientPoorPlant,Tank2,1,1,3
1679240,TankNutrientPoorPlant,Tank2,1,1,3
1679440,TankNutrientPoorPlant,Tank2,1,1,3
1679500,TankNutrientPoorPlant,Tank2,1,1,3
1679520,TankNutrientPoorPlant,Tank2,1,1,3
1679780,TankNutrientPoorPlant,Tank2,1,1,3
1679800,TankNutrientPoorPlant,Tank2,1,1,3
1680100,TankNutrientPoorPlant,Tank2,1,1,3
1680120,TankNutrientPoorPlant,Tank2,1,1,3
1680180,TankNutrientPoorPlant,Tank2,1,1,3
1680220,TankNutrientPoorPlant,Tank2,1,1,3
1680360,TankNutrientPoorPlant,Tank2,1,1,3
1680520,TankNutrientPoorPlant,Tank2,1,1,3
1680600,TankNutrientPoorPlant,Tank2,1,1,3
1680620,TankNutrientPoorPlant,Tank2,1,1,3
1680760,TankNutrientPoorPlant,Tank2,1,1,3
1680800,TankNutrientPoorPlant,Tank2,1,1,3
1680980,TankNutrientPoorPlant,Tank0,1,1,3
1681120,TankNutrientPoorPlant,Tank0,1,1,3
1681220,TankNutrientPoorPlant,Tank0,1,1,3
1681220,TankNutrientPoorPlant,Tank2,1,1,3
1681300,TankNutrientPoorPlant,Tank2,1,1,3
1681320,TankNutrientPoorPlant,Tank2,1,1,3
1681360,TankNutrientPoorPlant,Tank0,1,1,3
1681520,TankNutrientPoorPlant,Tank2,1,1,3
1681560,TankNutrientPoorPlant,Tank2,1,1,3
1681600,TankNutrientPoorPlant,Tank2,1,1,3
1681700,TankNutrientPoorPlant,Tank2,1,1,3
1681740,TankNutrientPoorPlant,Tank2,1,1,3
1681760,TankNutrientPoorPlant,Tank2,1,1,3
1681780,TankNutrientPoorPlant,Tank2,1,1,3
1681840,TankNutrientPoorPlant,Tank0,1,1,3
1681860,TankNutrientPoorPlant,Tank2,1,1,3
1681900,TankNutrientPoorPlant,Tank2,1,1,3
1681920,TankNutrientPoorPlant,Tank2,1,1,3
1682000,TankNutrientPoorPlant,Tank2,1,1,3
1682040,TankNutrientPoorPlant,Tank0,1,1,3
1682060,TankNutrientPoorPlant,Tank2,1,1,3
1682120,TankNutrientPoorPlant,Tank2,1,1,3
1682140,TankNutrientPoorPlant,Tank2,1,1,3
1682240,TankNutrientPoorPlant,Tank2,1,1,3
1682260,TankNutrientPoorPlant,Tank2,1,1,3
1682320,TankNutrientPoorPlant,Tank0,1,1,3
1682360,TankNutrientPoorPlant,Tank2,1,1,3
1682480,TankNutrientPoorPlant,Tank2,1,1,3
1682500,TankNutrientPoorPlant,Tank0,1,1,3
1682520,TankNutrientPoorPlant,Tank2,1,1,3
1682600,TankNutrientPoorPlant,Tank2,1,1,3
1682620,TankNutrientPoorPlant,Tank0,1,1,3
1682680,TankNutrientPoorPlant,Tank0,1,1,3
1682740,TankNutrientPoorPlant,Tank0,1,1,3
1682900,TankNutrientPoorPlant,Tank0,1,1,3
1682980,TankNutrientPoorPlant,Tank2,1,1,3
1683060,TankNutrientPoorPlant,Tank0,1,1,3
1683120,TankNutrientPoorPlant,Tank0,1,1,3
1683120,TankNutrientPoorPlant,Tank2,1,1,3
1683140,TankNutrientPoorPlant,Tank0,1,1,3
1683200,TankNutrientPoorPlant,Tank2,1,1,3
1683220,TankNutrientPoorPlant,Tank2,1,1,3
1683260,TankNutrientPoorPlant,Tank0,1,1,3
1683280,TankNutrientPoorPlant,Tank0,1,1,3
1683280,TankNutrientPoorPlant,Tank2,1,1,3
1683360,TankNutrientPoorPlant,Tank0,1,1,3
1683380,TankNutrientPoorPlant,Tank2,1,1,3
1683400,TankNutrientPoorPlant,Tank0,1,1,3
1683420,TankNutrientPoorPlant,Tank0,1,1,3
1683420,TankNutrientPoorPlant,Tank2,1,1,3
1683440,TankNutrientPoorPlant,Tank0,1,1,3
1683520,TankNutrientPoorPlant,Tank0,1,1,3
1683540,TankNutrientPoorPlant,Tank2,1,1,3
1683560,TankNutrientPoorPlant,Tank2,1,1,3
1683680,TankNutrientPoorPlant,Tank2,1,1,3
1683840,TankNutrientPoorPlant,Tank0,1,1,3
1683860,TankNutrientPoorPlant,Tank2,1,1,3
1683880,TankNutrientPoorPlant,Tank0,1,1,3
1684060,TankNutrientPoorPlant,Tank0,1,1,3
1684080,TankNutrientPoorPlant,Tank0,1,1,3
1684140,TankNutrientPoorPlant,Tank2,1,1,3
1684160,TankNutrientPoorPlant,Tank0,1,1,3
1684180,TankNutrientPoorPlant,Tank2,1,1,3
1684200,TankNutrientPoorPlant,Tank0,1,1,3
1684240,TankNutrientPoorPlant,Tank2,1,1,3
1684300,TankNutrientPoorPlant,Tank0,1,1,3
1684440,TankNutrientPoorPlant,Tank2,1,1,3
1684460,TankNutrientPoorPlant,Tank2,1,1,3
1684480,TankNutrientPoorPlant,Tank2,1,1,3
1684520,TankNutrientPoorPlant,Tank0,1,1,3
1684560,TankNutrientPoorPlant,Tank0,1,1,3
1684640,TankNutrientPoorPlant,Tank0,1,1,3
1684700,TankNutrientPoorPlant,Tank2,1,1,3
1684780,TankNutrientPoorPlant,Tank2,1,1,3
1684820,TankNutrientPoorPlant,Tank0,1,1,3
1685120,TankNutrientPoorPlant,Tank0,1,1,3
1685220,TankNutrientPoorPlant,Tank0,1,1,3
1685280,TankNutrientPoorPlant,Tank0,1,1,3
1685300,TankNutrientPoorPlant,Tank0,1,1,3
1685480,TankNutrientPoorPlant,Tank0,1,1,3
1685580,TankNutrientPoorPlant,Tank0,1,1,3
1685620,TankNutrientPoorPlant,Tank0,1,1,3
1685660,TankNutrientPoorPlant,Tank0,1,1,3
1685780,PickUpBattery,Bomber0,1,1,3
1685880,TankNutrientPoorPlant,Tank0,1,1,3
1686120,TankNutrientPoorPlant,Tank0,1,1,3
1686260,TankNutrientPoorPlant,Tank0,1,1,3
1686380,TankNutrientPoorPlant,Tank0,1,1,3
1686500,TankNutrientPoorPlant,Tank0,1,1,3
1686660,TankNutrientPoorPlant,Tank0,1,1,3
1686680,TankNutrientPoorPlant,Tank0,1,1,3
1686700,TankNutrientPoorPlant,Tank0,1,1,3
1686940,TankNutrientPoorPlant,Tank0,1,1,3
1686980,TankNutrientPoorPlant,Tank0,1,1,3
1687040,TankNutrientPoorPlant,Tank0,1,1,3
1687500,TankNutrientPoorPlant,Tank0,1,1,3
1687700,TankNutrientPoorPlant,Tank0,1,1,3
1688140,TankNutrientPoorPlant,Tank0,1,1,3
1688220,TankNutrientPoorPlant,Tank0,1,1,3
1688260,TankNutrientPoorPlant,Tank0,1,1,3
1688540,TankNutrientPoorPlant,Tank0,1,1,3
1689040,TankNutrientPoorPlant,Tank0,1,1,3
1689220,TankNutrientPoorPlant,Tank0,1,1,3
1689260,TankNutrientPoorPlant,Tank0,1,1,3
1689300,TankNutrientPoorPlant,Tank0,1,1,3
1689500,TankNutrientPoorPlant,Tank0,1,1,3
1689640,TankNutrientPoorPlant,Tank0,1,1,3
1689860,TankNutrientPoorPlant,Tank0,1,1,3
1689940,TankNutrientPoorPlant,Tank0,1,1,3
1689980,TankNutrientPoorPlant,Tank0,1,1,3
1690020,TankNutrientPoorPlant,Tank0,1,1,3
1690040,TankNutrientPoorPlant,Tank0,1,1,3
1690100,TankNutrientPoorPlant,Tank0,1,1,3
1690120,TankNutrientPoorPlant,Tank0,1,1,3
1690180,TankNutrientPoorPlant,Tank0,1,1,3
1690200,TankNutrientPoorPlant,Tank0,1,1,3
1690280,TankNutrientPoorPlant,Tank0,1,1,3
1690500,TankNutrientPoorPlant,Tank0,1,1,3
1690520,TankNutrientPoorPlant,Tank0,1,1,3
1690580,TankNutrientPoorPlant,Tank0,1,1,3
1690680,TankNutrientPoorPlant,Tank0,1,1,3
1690900,TankNutrientPoorPlant,Tank0,1,1,3
1691140,TankNutrientPoorPlant,Tank0,1,1,3
1691360,TankNutrientPoorPlant,Tank0,1,1,3
1691500,TankNutrientPoorPlant,Tank0,1,1,3
1691600,TankNutrientPoorPlant,Tank0,1,1,3
1691620,TankNutrientPoorPlant,Tank0,1,1,3
1691760,TankNutrientPoorPlant,Tank0,1,1,3
1691840,TankNutrientPoorPlant,Tank0,1,1,3
1692140,TankNutrientPoorPlant,Tank0,1,1,3
1692340,TankNutrientPoorPlant,Tank0,1,1,3
1692360,TankNutrientPoorPlant,Tank0,1,1,3
1692600,TankNutrientPoorPlant,Tank0,1,1,3
1692660,TankNutrientPoorPlant,Tank0,1,1,3
1692720,TankNutrientPoorPlant,Tank0,1,1,3
1692740,TankNutrientPoorPlant,Tank0,1,1,3
1692820,TankNutrientPoorPlant,Tank0,1,1,3
1693120,TankNutrientPoorPlant,Tank0,1,1,3
1823600,PickUpBattery,Scout0,1,1,3
1975580,PickUpBattery,Scout0,1,1,3
2043660,TankNutrientPoorPlant,Tank1,1,1,3
2043960,TankNutrientPoorPlant,Tank1,1,1,3
2044540,TankNutrientPoorPlant,Tank1,1,1,3
2044600,TankNutrientPoorPlant,Tank1,1,1,3
2044700,TankNutrientPoorPlant,Tank1,1,1,3
2044740,TankNutrientPoorPlant,Tank1,1,1,3
2045160,TankNutrientPoorPlant,Tank1,1,1,3
2045300,TankNutrientPoorPlant,Tank1,1,1,3
2045480,TankNutrientPoorPlant,Tank1,1,1,3
2045500,TankNutrientPoorPlant,Tank1,1,1,3
2045540,TankNutrientPoorPlant,Tank1,1,1,3
2045580,TankNutrientPoorPlant,Tank1,1,1,3
2045600,TankNutrientPoorPlant,Tank1,1,1,3
2045880,TankNutrientPoorPlant,Tank1,1,1,3
2046060,TankNutrientPoorPlant,Tank1,1,1,3
2046080,TankNutrientPoorPlant,Tank1,1,1,3
2046240,TankNutrientPoorPlant,Tank1,1,1,3
2046300,TankNutrientPoorPlant,Tank1,1,1,3
2046900,TankNutrientPoorPlant,Tank1,1,1,3
2046980,TankNutrientPoorPlant,Tank1,1,1,3
2047020,TankNutrientPoorPlant,Tank1,1,1,3
2047040,TankNutrientPoorPlant,Tank1,1,1,3
2047440,TankNutrientPoorPlant,Tank1,1,1,3
2047500,TankNutrientPoorPlant,Tank1,1,1,3
2047520,TankNutrientPoorPlant,Tank1,1,1,3
2047840,TankNutrientPoorPlant,Tank1,1,1,3
2047960,TankNutrientPoorPlant,Tank1,1,1,3
2047980,TankNutrientPoorPlant,Tank1,1,1,3
2048080,TankNutrientPoorPlant,Tank1,1,1,3
2048120,TankNutrientPoorPlant,Tank1,1,1,3
2048300,TankNutrientPoorPlant,Tank1,1,1,3
2048320,TankNutrientPoorPlant,Tank1,1,1,3
2048380,TankNutrientPoorPlant,Tank1,1,1,3
2048560,TankNutrientPoorPlant,Tank1,1,1,3
2048820,TankNutrientPoorPlant,Tank1,1,1,3
2048840,TankNutrientPoorPlant,Tank1,1,1,3
2048960,TankNutrientPoorPlant,Tank1,1,1,3
2049300,TankNutrientPoorPlant,Tank1,1,1,3
2049320,TankNutrientPoorPlant,Tank1,1,1,3
2049360,TankNutrientPoorPlant,Tank1,1,1,3
2049520,TankNutrientPoorPlant,Tank1,1,1,3
2049600,TankNutrientPoorPlant,Tank1,1,1,3
2049780,TankNutrientPoorPlant,Tank1,1,1,3
2049800,TankNutrientPoorPlant,Tank1,1,1,3
2050060,TankNutrientPoorPlant,Tank1,1,1,3
2050060,UseFertilizer,Tank1,1,1,3
2074280,PickUpBattery,Tank0,1,1,3
2084800,PickUpBattery,Bomber0,1,1,3
2189740,PickUpBattery,Scout0,1,1,3
2341720,PickUpBattery,Scout0,1,1,3
2425100,PickUpBattery,Bomber0,1,1,3
2486800,BomberInfestedPlant,Bomber0,1,1,3
2487020,BomberInfestedPlant,Bomber0,1,1,3
2487220,BomberInfestedPlant,Bomber0,1,1,3
2487240,BomberInfestedPlant,Bomber0,1,1,3
2487720,BomberInfestedPlant,Bomber0,1,1,3
2488220,BomberInfestedPlant,Bomber0,1,1,3
2488380,BomberInfestedPlant,Bomber0,1,1,3
2488660,BomberInfestedPlant,Bomber0,1,1,3
2488780,BomberInfestedPlant,Bomber0,1,1,3
2489320,BomberInfestedPlant,Bomber0,1,1,3
2489540,BomberInfestedPlant,Bomber0,1,1,3
2489660,BomberInfestedPlant,Bomber0,1,1,3
2489720,BomberInfestedPlant,Bomber0,1,1,3
2490000,BomberInfestedPlant,Bomber0,1,1,3
2490220,BomberInfestedPlant,Bomber0,1,1,3
2490740,BomberInfestedPlant,Bomber0,1,1,3
2490920,BomberInfestedPlant,Bomber0,1,1,3
2491160,BomberInfestedPlant,Bomber0,1,1,3
2491640,BomberInfestedPlant,Bomber0,1,1,3
2491660,BomberInfestedPlant,Bomber0,1,1,3
2491860,BomberInfestedPlant,Bomber0,1,1,3
2492000,BomberInfestedPlant,Bomber0,1,1,3
2492120,BomberInfestedPlant,Bomber0,1,1,3
2492320,BomberInfestedPlant,Bomber0,1,1,3
2492540,BomberInfestedPlant,Bomber0,1,1,3
2492640,BomberInfestedPlant,Bomber0,1,1,3
2492800,BomberInfestedPlant,Bomber0,1,1,3
2492900,BomberInfestedPlant,Bomber0,1,1,3
2493260,BomberInfestedPlant,Bomber0,1,1,3
2493340,BomberInfestedPlant,Bomber0,1,1,3
2493440,BomberInfestedPlant,Bomber0,1,1,3
2493640,BomberInfestedPlant,Bomber0,1,1,3
2493760,BomberInfestedPlant,Bomber0,1,1,3
2493820,BomberInfestedPlant,Bomber0,1,1,3
2493980,BomberInfestedPlant,Bomber0,1,1,3
2494280,BomberInfestedPlant,Bomber0,1,1,3
2494600,BomberInfestedPlant,Bomber0,1,1,3
2494800,BomberInfestedPlant,Bomber0,1,1,3
2494940,BomberInfestedPlant,Bomber0,1,1,3
2495680,BomberInfestedPlant,Bomber0,1,1,3
2496040,BomberInfestedPlant,Bomber0,1,1,3
2496700,BomberInfestedPlant,Bomber0,1,1,3
2497220,BomberInfestedPlant,Bomber0,1,1,3
2497240,BomberInfestedPlant,Bomber0,1,1,3
2503280,UsePesticide,Bomber0,1,1,3
2555880,PickUpBattery,Scout0,1,1,3
2570400,UsePesticide,Bomber0,1,1,3
2577160,PickUpBattery,Tank2,1,1,3
2669240,PickUpBattery,Bomber0,1,1,3
2707860,PickUpBattery,Scout0,1,1,3
2820620,TankNutrientPoorPlant,Tank1,1,1,3
2820740,TankNutrientPoorPlant,Tank1,1,1,3
2820760,TankNutrientPoorPlant,Tank1,1,1,3
2820860,TankNutrientPoorPlant,Tank1,1,1,3
2820960,TankNutrientPoorPlant,Tank1,1,1,3
2821100,TankNutrientPoorPlant,Tank1,1,1,3
2821380,TankNutrientPoorPlant,Tank1,1,1,3
2821560,TankNutrientPoorPlant,Tank1,1,1,3
2821860,TankNutrientPoorPlant,Tank1,1,1,3
2822480,TankNutrientPoorPlant,Tank1,1,1,3
2822640,TankNutrientPoorPlant,Tank1,1,1,3
2822800,TankNutrientPoorPlant,Tank1,1,1,3
2822900,TankNutrientPoorPlant,Tank1,1,1,3
2822960,TankNutrientPoorPlant,Tank1,1,1,3
2823160,TankNutrientPoorPlant,Tank1,1,1,3
2823280,TankNutrientPoorPlant,Tank1,1,1,3
2823500,TankNutrientPoorPlant,Tank1,1,1,3
2823640,TankNutrientPoorPlant,Tank1,1,1,3
2823700,TankNutrientPoorPlant,Tank1,1,1,3
2823960,TankNutrientPoorPlant,Tank1,1,1,3
2824200,TankNutrientPoorPlant,Tank1,1,1,3
2824260,TankNutrientPoorPlant,Tank1,1,1,3
2824380,TankNutrientPoorPlant,Tank1,1,1,3
2824420,TankNutrientPoorPlant,Tank1,1,1,3
2824460,TankNutrientPoorPlant,Tank1,1,1,3
2824760,TankNutrientPoorPlant,Tank1,1,1,3
2824880,TankNutrientPoorPlant,Tank1,1,1,3
2824960,TankNutrientPoorPlant,Tank1,1,1,3
2824980,TankNutrientPoorPlant,Tank1,1,1,3
2825000,TankNutrientPoorPlant,Tank1,1,1,3
2825080,TankNutrientPoorPlant,Tank1,1,1,3
2825100,TankNutrientPoorPlant,Tank1,1,1,3
2825200,TankNutrientPoorPlant,Tank1,1,1,3
2825220,TankNutrientPoorPlant,Tank1,1,1,3
2825400,TankNutrientPoorPlant,Tank1,1,1,3
2825480,TankNutrientPoorPlant,Tank1,1,1,3
2825520,TankNutrientPoorPlant,Tank1,1,1,3
2825560,TankNutrientPoorPlant,Tank1,1,1,3
2825600,TankNutrientPoorPlant,Tank1,1,1,3
2825860,TankNutrientPoorPlant,Tank1,1,1,3
2825880,TankNutrientPoorPlant,Tank1,1,1,3
2826080,TankNutrientPoorPlant,Tank1,1,1,3
2826220,TankNutrientPoorPlant,Tank1,1,1,3
2826440,TankNutrientPoorPlant,Tank1,1,1,3
2826580,TankNutrientPoorPlant,Tank1,1,1,3
2826640,TankNutrientPoorPlant,Tank1,1,1,3
2826880,TankNutrientPoorPlant,Tank1,1,1,3
2827200,TankNutrientPoorPlant,Tank1,1,1,3
2827380,TankNutrientPoorPlant,Tank1,1,1,3
2827440,TankNutrientPoorPlant,Tank1,1,1,3
2827780,TankNutrientPoorPlant,Tank1,1,1,3
2827900,TankNutrientPoorPlant,Tank1,1,1,3
2828000,TankNutrientPoorPlant,Tank1,1,1,3
2828100,TankNutrientPoorPlant,Tank1,1,1,3
2828140,TankNutrientPoorPlant,Tank1,1,1,3
2828360,TankNutrientPoorPlant,Tank1,1,1,3
2828640,TankNutrientPoorPlant,Tank1,1,1,3
2828660,TankNutrientPoorPlant,Tank1,1,1,3
2828680,TankNutrientPoorPlant,Tank1,1,1,3
2828920,TankNutrientPoorPlant,Tank1,1,1,3
2828980,TankNutrientPoorPlant,Tank1,1,1,3
2829100,TankNutrientPoorPlant,Tank1,1,1,3
2829160,TankNutrientPoorPlant,Tank1,1,1,3
2829180,TankNutrientPoorPlant,Tank1,1,1,3
2829220,TankNutrientPoorPlant,Tank1,1,1,3
2829260,TankNutrientPoorPlant,Tank1,1,1,3
2829280,TankNutrientPoorPlant,Tank1,1,1,3
2829320,TankNutrientPoorPlant,Tank1,1,1,3
2829380,TankNutrientPoorPlant,Tank1,1,1,3
2829400,TankNutrientPoorPlant,Tank1,1,1,3
2829500,TankNutrientPoorPlant,Tank1,1,1,3
2829580,TankNutrientPoorPlant,Tank1,1,1,3
2829660,TankNutrientPoorPlant,Tank1,1,1,3
2829700,TankNutrientPoorPlant,Tank1,1,1,3
2829780,TankNutrientPoorPlant,Tank1,1,1,3
2829900,TankNutrientPoorPlant,Tank1,1,1,3
2829920,TankNutrientPoorPlant,Tank1,1,1,3
2830360,TankNutrientPoorPlant,Tank1,1,1,3
2830380,TankNutrientPoorPlant,Tank1,1,1,3
2830560,TankNutrientPoorPlant,Tank1,1,1,3
2830660,TankNutrientPoorPlant,Tank1,1,1,3
2830720,TankNutrientPoorPlant,Tank1,1,1,3
2830740,TankNutrientPoorPlant,Tank1,1,1,3
2830800,TankNutrientPoorPlant,Tank1,1,1,3
2831120,TankNutrientPoorPlant,Tank1,1,1,3
2831180,TankNutrientPoorPlant,Tank1,1,1,3
2831260,TankNutrientPoorPlant,Tank1,1,1,3
2831320,TankNutrientPoorPlant,Tank1,1,1,3
2831340,TankNutrientPoorPlant,Tank1,1,1,3
2831360,TankNutrientPoorPlant,Tank1,1,1,3
2831400,TankNutrientPoorPlant,Tank1,1,1,3
2831480,TankNutrientPoorPlant,Tank1,1,1,3
2831680,TankNutrientPoorPlant,Tank1,1,1,3
2831760,TankNutrientPoorPlant,Tank1,1,1,3
2831840,TankNutrientPoorPlant,Tank1,1,1,3
2831980,TankNutrientPoorPlant,Tank1,1,1,3
2832020,TankNutrientPoorPlant,Tank1,1,1,3
2832020,TankNutrientPoorPlant,Tank1,1,1,3
2832040,TankNutrientPoorPlant,Tank1,1,1,3
2832060,TankNutrientPoorPlant,Tank1,1,1,3
2832120,TankNutrientPoorPlant,Tank1,1,1,3
2832120,TankNutrientPoorPlant,Tank1,1,1,3
2832140,TankNutrientPoorPlant,Tank1,1,1,3
2832220,TankNutrientPoorPlant,Tank1,1,1,3
2832300,TankNutrientPoorPlant,Tank1,1,1,3
2832380,TankNutrientPoorPlant,Tank1,1,1,3
2832380,TankNutrientPoorPlant,Tank1,1,1,3
2832440,TankNutrientPoorPlant,Tank1,1,1,3
2832480,TankNutrientPoorPlant,Tank1,1,1,3
2832660,TankNutrientPoorPlant,Tank1,1,1,3
2832980,TankNutrientPoorPlant,Tank1,1,1,3
2833020,TankNutrientPoorPlant,Tank1,1,1,3
2833100,TankNutrientPoorPlant,Tank1,1,1,3
2833200,TankNutrientPoorPlant,Tank1,1,1,3
2833220,TankNutrientPoorPlant,Tank1,1,1,3
2833300,TankNutrientPoorPlant,Tank1,1,1,3
2833320,TankNutrientPoorPlant,Tank1,1,1,3
2833680,TankNutrientPoorPlant,Tank1,1,1,3
2833780,TankNutrientPoorPlant,Tank1,1,1,3
2833800,TankNutrientPoorPlant,Tank1,1,1,3
2834000,TankNutrientPoorPlant,Tank1,1,1,3
2834200,TankNutrientPoorPlant,Tank1,1,1,3
2834220,TankNutrientPoorPlant,Tank1,1,1,3
2834720,TankNutrientPoorPlant,Tank1,1,1,3
2834880,TankNutrientPoorPlant,Tank1,1,1,3
2834900,TankNutrientPoorPlant,Tank1,1,1,3
2834940,TankNutrientPoorPlant,Tank1,1,1,3
2834980,TankNutrientPoorPlant,Tank1,1,1,3
2835020,TankNutrientPoorPlant,Tank1,1,1,3
2835180,TankNutrientPoorPlant,Tank1,1,1,3
2835320,TankNutrientPoorPlant,Tank1,1,1,3
2835480,TankNutrientPoorPlant,Tank1,1,1,3
2835540,TankNutrientPoorPlant,Tank1,1,1,3
2835660,TankNutrientPoorPlant,Tank1,1,1,3
2835700,TankNutrientPoorPlant,Tank1,1,1,3
2835800,TankNutrientPoorPlant,Tank1,1,1,3
2835820,TankNutrientPoorPlant,Tank1,1,1,3
2835840,TankNutrientPoorPlant,Tank1,1,1,3
2835900,TankNutrientPoorPlant,Tank1,1,1,3
2836020,TankNutrientPoorPlant,Tank1,1,1,3
2836060,TankNutrientPoorPlant,Tank1,1,1,3
2836220,TankNutrientPoorPlant,Tank1,1,1,3
2836240,TankNutrientPoorPlant,Tank1,1,1,3
2836320,TankNutrientPoorPlant,Tank1,1,1,3
2836460,TankNutrientPoorPlant,Tank1,1,1,3
2836740,TankNutrientPoorPlant,Tank1,1,1,3
2836880,TankNutrientPoorPlant,Tank1,1,1,3
2836920,TankNutrientPoorPlant,Tank1,1,1,3
2837060,TankNutrientPoorPlant,Tank1,1,1,3
2837200,TankNutrientPoorPlant,Tank1,1,1,3
2837280,TankNutrientPoorPlant,Tank1,1,1,3
2837320,TankNutrientPoorPlant,Tank1,1,1,3
2837580,TankNutrientPoorPlant,Tank1,1,1,3
2837760,TankNutrientPoorPlant,Tank1,1,1,3
2837800,TankNutrientPoorPlant,Tank1,1,1,3
2837820,TankNutrientPoorPlant,Tank1,1,1,3
2837880,TankNutrientPoorPlant,Tank1,1,1,3
2837980,TankNutrientPoorPlant,Tank1,1,1,3
2838180,TankNutrientPoorPlant,Tank1,1,1,3
2838280,TankNutrientPoorPlant,Tank1,1,1,3
2838340,TankNutrientPoorPlant,Tank1,1,1,3
2838440,TankNutrientPoorPlant,Tank1,1,1,3
2838600,TankNutrientPoorPlant,Tank1,1,1,3
2838880,TankNutrientPoorPlant,Tank1,1,1,3
2839020,TankNutrientPoorPlant,Tank1,1,1,3
2839180,TankNutrientPoorPlant,Tank1,1,1,3
2839300,TankNutrientPoorPlant,Tank1,1,1,3
2839320,TankNutrientPoorPlant,Tank1,1,1,3
2839360,TankNutrientPoorPlant,Tank1,1,1,3
2839480,TankNutrientPoorPlant,Tank1,1,1,3
2839540,TankNutrientPoorPlant,Tank1,1,1,3
2839700,TankNutrientPoorPlant,Tank1,1,1,3
2839840,TankNutrientPoorPlant,Tank1,1,1,3
2839880,TankNutrientPoorPlant,Tank1,1,1,3
2839920,TankNutrientPoorPlant,Tank1,1,1,3
2840100,TankNutrientPoorPlant,Tank1,1,1,3
2840260,TankNutrientPoorPlant,Tank1,1,1,3
2840360,TankNutrientPoorPlant,Tank1,1,1,3
2840540,TankNutrientPoorPlant,Tank1,1,1,3
2840800,TankNutrientPoorPlant,Tank1,1,1,3
2840900,TankNutrientPoorPlant,Tank1,1,1,3
2841440,TankNutrientPoorPlant,Tank1,1,1,3
2841460,TankNutrientPoorPlant,Tank1,1,1,3
2841660,TankNutrientPoorPlant,Tank1,1,1,3
2841880,TankNutrientPoorPlant,Tank1,1,1,3
2841900,TankNutrientPoorPlant,Tank1,1,1,3
2841920,TankNutrientPoorPlant,Tank1,1,1,3
2842240,TankNutrientPoorPlant,Tank1,1,1,3
2842340,TankNutrientPoorPlant,Tank1,1,1,3
2842440,TankNutrientPoorPlant,Tank1,1,1,3
2842480,TankNutrientPoorPlant,Tank1,1,1,3
2842500,TankNutrientPoorPlant,Tank1,1,1,3
2842700,TankNutrientPoorPlant,Tank1,1,1,3
2842820,TankNutrientPoorPlant,Tank1,1,1,3
2842900,TankNutrientPoorPlant,Tank1,1,1,3
2842920,TankNutrientPoorPlant,Tank1,1,1,3
2842940,TankNutrientPoorPlant,Tank1,1,1,3
2843020,TankNutrientPoorPlant,Tank1,1,1,3
2843340,TankNutrientPoorPlant,Tank1,1,1,3
2843360,TankNutrientPoorPlant,Tank1,1,1,3
2843520,TankNutrientPoorPlant,Tank1,1,1,3
2843700,TankNutrientPoorPlant,Tank1,1,1,3
2922020,PickUpBattery,Scout0,1,1,3
2931020,PickUpBattery,Bomber0,1,1,3
2986300,UseFertilizer,Tank1,1,1,3
3071000,PickUpBattery,Bomber0,1,1,3
3074000,PickUpBattery,Scout0,1,1,3
3288160,PickUpBattery,Scout0,1,1,3
3301440,UseFertilizer,Tank0,1,1,3
3301840,PickUpBattery,Bomber0,1,1,3
3423700,PickUpBattery,Tank2,1,1,3
3440140,PickUpBattery,Scout0,1,1,3
3641680,PickUpBattery,Bomber0,1,1,3
3654300,PickUpBattery,Scout0,1,1,3
3736540,PickUpBattery,Tank0,1,1,3
3806280,PickUpBattery,Scout0,1,1,3
3857000,PickUpBattery,Bomber0,1,1,3
4020440,PickUpBattery,Scout0,1,1,3
4158780,PickUpBattery,Tank2,1,1,3
4172420,PickUpBattery,Scout0,1,1,3
4216260,PickUpBattery,Bomber0,1,1,3
4276780,TankNutrientPoorPlant,Tank1,1,1,3
4276800,TankNutrientPoorPlant,Tank1,1,1,3
4276900,TankNutrientPoorPlant,Tank1,1,1,3
4277100,TankNutrientPoorPlant,Tank1,1,1,3
4277160,TankNutrientPoorPlant,Tank1,1,1,3
4277280,TankNutrientPoorPlant,Tank1,1,1,3
4277480,TankNutrientPoorPlant,Tank1,1,1,3
4277620,TankNutrientPoorPlant,Tank1,1,1,3
4277660,TankNutrientPoorPlant,Tank1,1,1,3
4277720,TankNutrientPoorPlant,Tank1,1,1,3
4277780,TankNutrientPoorPlant,Tank1,1,1,3
4277880,TankNutrientPoorPlant,Tank1,1,1,3
4278000,TankNutrientPoorPlant,Tank1,1,1,3
4278360,TankNutrientPoorPlant,Tank1,1,1,3
4278440,TankNutrientPoorPlant,Tank1,1,1,3
4278580,TankNutrientPoorPlant,Tank1,1,1,3
4278680,TankNutrientPoorPlant,Tank1,1,1,3
4278700,TankNutrientPoorPlant,Tank1,1,1,3
4279280,TankNutrientPoorPlant,Tank1,1,1,3
4279380,TankNutrientPoorPlant,Tank1,1,1,3
4279440,TankNutrientPoorPlant,Tank1,1,1,3
4375360,UseFertilizer,Tank1,1,1,3
4386580,PickUpBattery,Scout0,1,1,3
4460580,PickUpBattery,Bomber0,1,1,3
4538560,PickUpBattery,Scout0,1,1,3
4634860,PickUpBattery,Tank0,1,1,3
4646960,TankNutrientPoorPlant,Tank2,1,1,3
4646980,TankNutrientPoorPlant,Tank2,1,1,3
4647300,TankNutrientPoorPlant,Tank2,1,1,3
4647640,TankNutrientPoorPlant,Tank2,1,1,3
4647740,TankNutrientPoorPlant,Tank2,1,1,3
4647780,TankNutrientPoorPlant,Tank2,1,1,3
4647840,TankNutrientPoorPlant,Tank2,1,1,3
4647880,TankNutrientPoorPlant,Tank2,1,1,3
4647920,TankNutrientPoorPlant,Tank2,1,1,3
4648000,TankNutrientPoorPlant,Tank2,1,1,3
4648200,TankNutrientPoorPlant,Tank2,1,1,3
4648260,TankNutrientPoorPlant,Tank2,1,1,3
4648780,TankNutrientPoorPlant,Tank2,1,1,3
4648860,TankNutrientPoorPlant,Tank2,1,1,3
4649180,TankNutrientPoorPlant,Tank2,1,1,3
4649240,TankNutrientPoorPlant,Tank2,1,1,3
4649340,TankNutrientPoorPlant,Tank2,1,1,3
4649420,TankNutrientPoorPlant,Tank2,1,1,3
4649520,TankNutrientPoorPlant,Tank2,1,1,3
4649600,TankNutrientPoorPlant,Tank2,1,1,3
4649740,TankNutrientPoorPlant,Tank2,1,1,3
4649940,TankNutrientPoorPlant,Tank2,1,1,3
4650100,TankNutrientPoorPlant,Tank2,1,1,3
4650380,TankNutrientPoorPlant,Tank2,1,1,3
4650780,TankNutrientPoorPlant,Tank2,1,1,3
4650900,TankNutrientPoorPlant,Tank2,1,1,3
4651020,TankNutrientPoorPlant,Tank2,1,1,3
4651200,TankNutrientPoorPlant,Tank2,1,1,3
4651360,TankNutrientPoorPlant,Tank2,1,1,3
4651480,TankNutrientPoorPlant,Tank2,1,1,3
4651740,TankNutrientPoorPlant,Tank2,1,1,3
4651800,TankNutrientPoorPlant,Tank2,1,1,3
4652060,TankNutrientPoorPlant,Tank2,1,1,3
4652300,TankNutrientPoorPlant,Tank2,1,1,3
4652340,TankNutrientPoorPlant,Tank2,1,1,3
4652540,TankNutrientPoorPlant,Tank2,1,1,3
4652560,TankNutrientPoorPlant,Tank2,1,1,3
4652620,TankNutrientPoorPlant,Tank2,1,1,3
4652640,TankNutrientPoorPlant,Tank2,1,1,3
4652740,TankNutrientPoorPlant,Tank2,1,1,3
4652780,TankNutrientPoorPlant,Tank2,1,1,3
4652860,TankNutrientPoorPlant,Tank2,1,1,3
4652900,TankNutrientPoorPlant,Tank2,1,1,3
4653000,TankNutrientPoorPlant,Tank2,1,1,3
4653060,TankNutrientPoorPlant,Tank2,1,1,3
4653400,TankNutrientPoorPlant,Tank2,1,1,3
4653540,TankNutrientPoorPlant,Tank2,1,1,3
4653680,TankNutrientPoorPlant,Tank2,1,1,3
4653760,TankNutrientPoorPlant,Tank2,1,1,3
4653820,TankNutrientPoorPlant,Tank2,1,1,3
4653900,TankNutrientPoorPlant,Tank2,1,1,3
4654020,TankNutrientPoorPlant,Tank2,1,1,3
4654380,TankNutrientPoorPlant,Tank2,1,1,3
4654760,TankNutrientPoorPlant,Tank2,1,1,3
4654860,TankNutrientPoorPlant,Tank2,1,1,3
4654920,TankNutrientPoorPlant,Tank2,1,1,3
4655040,TankNutrientPoorPlant,Tank2,1,1,3
4655680,TankNutrientPoorPlant,Tank2,1,1,3
4655800,TankNutrientPoorPlant,Tank2,1,1,3
4656000,TankNutrientPoorPlant,Tank2,1,1,3
4656100,TankNutrientPoorPlant,Tank2,1,1,3
4656140,TankNutrientPoorPlant,Tank2,1,1,3
4656200,TankNutrientPoorPlant,Tank2,1,1,3
4656400,TankNutrientPoorPlant,Tank2,1,1,3
4656600,TankNutrientPoorPlant,Tank2,1,1,3
4656620,TankNutrientPoorPlant,Tank2,1,1,3
4656680,TankNutrientPoorPlant,Tank2,1,1,3
4656740,TankNutrientPoorPlant,Tank2,1,1,3
4656880,TankNutrientPoorPlant,Tank2,1,1,3
4657060,TankNutrientPoorPlant,Tank2,1,1,3
4657180,TankNutrientPoorPlant,Tank2,1,1,3
4657420,TankNutrientPoorPlant,Tank2,1,1,3
4657500,TankNutrientPoorPlant,Tank2,1,1,3
4657720,TankNutrientPoorPlant,Tank2,1,1,3
4657800,TankNutrientPoorPlant,Tank2,1,1,3
4657920,TankNutrientPoorPlant,Tank2,1,1,3
4657980,TankNutrientPoorPlant,Tank2,1,1,3
4658060,TankNutrientPoorPlant,Tank2,1,1,3
4658200,TankNutrientPoorPlant,Tank2,1,1,3
4658460,TankNutrientPoorPlant,Tank2,1,1,3
4658580,TankNutrientPoorPlant,Tank2,1,1,3
4658620,TankNutrientPoorPlant,Tank2,1,1,3
4658660,TankNutrientPoorPlant,Tank2,1,1,3
4658740,TankNutrientPoorPlant,Tank2,1,1,3
4658840,TankNutrientPoorPlant,Tank2,1,1,3
4658940,TankNutrientPoorPlant,Tank2,1,1,3
4659100,TankNutrientPoorPlant,Tank2,1,1,3
4659180,TankNutrientPoorPlant,Tank2,1,1,3
4659260,TankNutrientPoorPlant,Tank2,1,1,3
4659320,TankNutrientPoorPlant,Tank2,1,1,3
4659480,TankNutrientPoorPlant,Tank2,1,1,3
4659780,TankNutrientPoorPlant,Tank2,1,1,3
4659900,TankNutrientPoorPlant,Tank2,1,1,3
4660000,TankNutrientPoorPlant,Tank2,1,1,3
4660060,TankNutrientPoorPlant,Tank2,1,1,3
4724440,UseFertilizer,Tank2,1,1,3
4730400,PickUpBattery,Bomber0,1,1,3
4752720,PickUpBattery,Scout0,1,1,3
4904700,PickUpBattery,Scout0,1,1,3
