time,event,agent,scouts,bombers,tanks
71860,BomberInfestedPlant,Bomber1,1,5,1
71920,BomberInfestedPlant,Bomber1,1,5,1
72160,BomberInfestedPlant,Bomber1,1,5,1
72240,BomberInfestedPlant,Bomber0,1,5,1
72280,BomberInfestedPlant,Bomber0,1,5,1
72320,BomberInfestedPlant,Bomber0,1,5,1
72440,BomberInfestedPlant,Bomber1,1,5,1
72560,BomberInfestedPlant,Bomber0,1,5,1
72600,BomberInfestedPlant,Bomber0,1,5,1
72640,BomberInfestedPlant,Bomber1,1,5,1
73020,BomberInfestedPlant,Bomber1,1,5,1
73120,BomberInfestedPlant,Bomber1,1,5,1
73160,BomberInfestedPlant,Bomber1,1,5,1
73180,BomberInfestedPlant,Bomber1,1,5,1
73540,BomberInfestedPlant,Bomber0,1,5,1
73540,BomberInfestedPlant,Bomber1,1,5,1
73560,BomberInfestedPlant,Bomber1,1,5,1
73680,BomberInfestedPlant,Bomber0,1,5,1
73840,BomberInfestedPlant,Bomber1,1,5,1
73860,BomberInfestedPlant,Bomber1,1,5,1
73940,BomberInfestedPlant,Bomber1,1,5,1
73960,BomberInfestedPlant,Bomber0,1,5,1
74120,BomberInfestedPlant,Bomber1,1,5,1
74160,BomberInfestedPlant,Bomber0,1,5,1
74340,BomberInfestedPlant,Bomber1,1,5,1
74420,BomberInfestedPlant,Bomber0,1,5,1
74640,BomberInfestedPlant,Bomber1,1,5,1
74680,BomberInfestedPlant,Bomber1,1,5,1
74740,BomberInfestedPlant,Bomber1,1,5,1
74880,BomberInfestedPlant,Bomber0,1,5,1
75360,BomberInfestedPlant,Bomber1,1,5,1
75460,BomberInfestedPlant,Bomber0,1,5,1
75580,BomberInfestedPlant,Bomber1,1,5,1
75820,BomberInfestedPlant,Bomber1,1,5,1
75900,BomberInfestedPlant,Bomber1,1,5,1
76020,BomberInfestedPlant,Bomber0,1,5,1
76240,BomberInfestedPlant,Bomber0,1,5,1
76500,BomberInfestedPlant,Bomber1,1,5,1
76820,BomberInfestedPlant,Bomber1,1,5,1
76880,BomberInfestedPlant,Bomber0,1,5,1
77180,BomberInfestedPlant,Bomber0,1,5,1
77220,BomberInfestedPlant,Bomber0,1,5,1
78180,BomberInfestedPlant,Bomber0,1,5,1
78220,BomberInfestedPlant,Bomber0,1,5,1
78320,BomberInfestedPlant,Bomber1,1,5,1
78840,BomberInfestedPlant,Bomber0,1,5,1
79260,BomberInfestedPlant,Bomber1,1,5,1
79480,BomberInfestedPlant,Bomber0,1,5,1
79860,BomberInfestedPlant,Bomber0,1,5,1
79940,BomberInfestedPlant,Bomber0,1,5,1
80120,BomberInfestedPlant,Bomber1,1,5,1
80240,BomberInfestedPlant,Bomber1,1,5,1
80260,BomberInfestedPlant,Bomber0,1,5,1
80400,BomberInfestedPlant,Bomber0,1,5,1
80440,BomberInfestedPlant,Bomber0,1,5,1
80540,BomberInfestedPlant,Bomber0,1,5,1
80600,BomberInfestedPlant,Bomber1,1,5,1
80680,BomberInfestedPlant,Bomber1,1,5,1
80760,BomberInfestedPlant,Bomber0,1,5,1
80820,BomberInfestedPlant,Bomber0,1,5,1
81100,BomberInfestedPlant,Bomber0,1,5,1
81200,BomberInfestedPlant,Bomber0,1,5,1
81220,BomberInfestedPlant,Bomber0,1,5,1
81320,BomberInfestedPlant,Bomber1,1,5,1
81560,BomberInfestedPlant,Bomber1,1,5,1
81660,BomberInfestedPlant,Bomber0,1,5,1
81760,BomberInfestedPlant,Bomber1,1,5,1
81860,BomberInfestedPlant,Bomber1,1,5,1
82020,BomberInfestedPlant,Bomber1,1,5,1
82160,BomberInfestedPlant,Bomber1,1,5,1
82340,BomberInfestedPlant,Bomber1,1,5,1
82660,BomberInfestedPlant,Bomber1,1,5,1
82740,BomberInfestedPlant,Bomber0,1,5,1
82800,BomberInfestedPlant,Bomber0,1,5,1
82800,BomberInfestedPlant,Bomber1,1,5,1
82860,BomberInfestedPlant,Bomber0,1,5,1
82880,BomberInfestedPlant,Bomber1,1,5,1
83100,BomberInfestedPlant,Bomber0,1,5,1
83120,BomberInfestedPlant,Bomber1,1,5,1
83160,BomberInfestedPlant,Bomber1,1,5,1
83300,BomberInfestedPlant,Bomber1,1,5,1
83360,BomberInfestedPlant,Bomber0,1,5,1
83440,BomberInfestedPlant,Bomber1,1,5,1
83520,BomberInfestedPlant,Bomber1,1,5,1
83740,BomberInfestedPlant,Bomber0,1,5,1
84000,BomberInfestedPlant,Bomber1,1,5,1
84120,BomberInfestedPlant,Bomber0,1,5,1
84140,BomberInfestedPlant,Bomber1,1,5,1
84160,BomberInfestedPlant,Bomber0,1,5,1
84220,BomberInfestedPlant,Bomber0,1,5,1
84280,PickUpBattery,Bomber4,1,5,1
84320,BomberInfestedPlant,Bomber0,1,5,1
84380,BomberInfestedPlant,Bomber1,1,5,1
84620,BomberInfestedPlant,Bomber1,1,5,1
84840,BomberInfestedPlant,Bomber1,1,5,1
85300,BomberInfestedPlant,Bomber1,1,5,1
85320,BomberInfestedPlant,Bomber0,1,5,1
85460,BomberInfestedPlant,Bomber0,1,5,1
85500,BomberInfestedPlant,Bomber0,1,5,1
85840,BomberInfestedPlant,Bomber0,1,5,1
85900,BomberInfestedPlant,Bomber1,1,5,1
85980,BomberInfestedPlant,Bomber1,1,5,1
86120,BomberInfestedPlant,Bomber1,1,5,1
86380,BomberInfestedPlant,Bomber1,1,5,1
86420,BomberInfestedPlant,Bomber1,1,5,1
86660,BomberInfestedPlant,Bomber0,1,5,1
86740,BomberInfestedPlant,Bomber0,1,5,1
86740,BomberInfestedPlant,Bomber1,1,5,1
86860,BomberInfestedPlant,Bomber1,1,5,1
87060,BomberInfestedPlant,Bomber0,1,5,1
87120,BomberInfestedPlant,Bomber0,1,5,1
87180,BomberInfestedPlant,Bomber0,1,5,1
87340,BomberInfestedPlant,Bomber1,1,5,1
87580,BomberInfestedPlant,Bomber1,1,5,1
87600,BomberInfestedPlant,Bomber0,1,5,1
87700,BomberInfestedPlant,Bomber1,1,5,1
87740,BomberInfestedPlant,Bomber0,1,5,1
87840,BomberInfestedPlant,Bomber1,1,5,1
89940,BomberInfestedPlant,Bomber0,1,5,1
89940,BomberInfestedPlant,Bomber3,1,5,1
90040,BomberInfestedPlant,Bomber0,1,5,1
90040,BomberInfestedPlant,Bomber1,1,5,1
90060,BomberInfestedPlant,Bomber3,1,5,1
90120,BomberInfestedPlant,Bomber1,1,5,1
90140,BomberInfestedPlant,Bomber1,1,5,1
90220,BomberInfestedPlant,Bomber3,1,5,1
90280,BomberInfestedPlant,Bomber3,1,5,1
90340,BomberInfestedPlant,Bomber3,1,5,1
90800,BomberInfestedPlant,Bomber3,1,5,1
90980,BomberInfestedPlant,Bomber3,1,5,1
91200,BomberInfestedPlant,Bomber1,1,5,1
91380,BomberInfestedPlant,Bomber3,1,5,1
91480,BomberInfestedPlant,Bomber1,1,5,1
91540,BomberInfestedPlant,Bomber3,1,5,1
91620,BomberInfestedPlant,Bomber3,1,5,1
91640,BomberInfestedPlant,Bomber1,1,5,1
91920,BomberInfestedPlant,Bomber3,1,5,1
91980,BomberInfestedPlant,Bomber1,1,5,1
92240,BomberInfestedPlant,Bomber1,1,5,1
92320,BomberInfestedPlant,Bomber1,1,5,1
92580,UsePesticide,Bomber1,1,5,1
92700,BomberInfestedPlant,Bomber3,1,5,1
92800,BomberInfestedPlant,Bomber1,1,5,1
92860,BomberInfestedPlant,Bomber1,1,5,1
92980,BomberInfestedPlant,Bomber1,1,5,1
93000,BomberInfestedPlant,Bomber1,1,5,1
93180,BomberInfestedPlant,Bomber1,1,5,1
93360,BomberInfestedPlant,Bomber1,1,5,1
93420,BomberInfestedPlant,Bomber1,1,5,1
93780,BomberInfestedPlant,Bomber3,1,5,1
93880,BomberInfestedPlant,Bomber3,1,5,1
94100,BomberInfestedPlant,Bomber1,1,5,1
94200,BomberInfestedPlant,Bomber1,1,5,1
94460,BomberInfestedPlant,Bomber1,1,5,1
94580,BomberInfestedPlant,Bomber1,1,5,1
94820,BomberInfestedPlant,Bomber1,1,5,1
95020,BomberInfestedPlant,Bomber1,1,5,1
95100,BomberInfestedPlant,Bomber1,1,5,1
95200,BomberInfestedPlant,Bomber1,1,5,1
95240,BomberInfestedPlant,Bomber1,1,5,1
95280,BomberInfestedPlant,Bomber1,1,5,1
95320,BomberInfestedPlant,Bomber1,1,5,1
95420,BomberInfestedPlant,Bomber3,1,5,1
95500,BomberInfestedPlant,Bomber3,1,5,1
95520,BomberInfestedPlant,Bomber1,1,5,1
95640,BomberInfestedPlant,Bomber3,1,5,1
95780,BomberInfestedPlant,Bomber1,1,5,1
96040,BomberInfestedPlant,Bomber1,1,5,1
96380,BomberInfestedPlant,Bomber1,1,5,1
96440,BomberInfestedPlant,Bomber3,1,5,1
96540,BomberInfestedPlant,Bomber1,1,5,1
96560,BomberInfestedPlant,Bomber3,1,5,1
96700,BomberInfestedPlant,Bomber1,1,5,1
96740,BomberInfestedPlant,Bomber1,1,5,1
96800,BomberInfestedPlant,Bomber1,1,5,1
96800,BomberInfestedPlant,Bomber3,1,5,1
96820,BomberInfestedPlant,Bomber3,1,5,1
96920,BomberInfestedPlant,Bomber1,1,5,1
96940,BomberInfestedPlant,Bomber3,1,5,1
97040,BomberInfestedPlant,Bomber1,1,5,1
97360,BomberInfestedPlant,Bomber3,1,5,1
97520,BomberInfestedPlant,Bomber1,1,5,1
97600,BomberInfestedPlant,Bomber3,1,5,1
97800,BomberInfestedPlant,Bomber3,1,5,1
97940,BomberInfestedPlant,Bomber1,1,5,1
97960,BomberInfestedPlant,Bomber1,1,5,1
98040,BomberInfestedPlant,Bomber3,1,5,1
98560,BomberInfestedPlant,Bomber3,1,5,1
98660,BomberInfestedPlant,Bomber1,1,5,1
99500,BomberInfestedPlant,Bomber1,1,5,1
99500,BomberInfestedPlant,Bomber3,1,5,1
99920,BomberInfestedPlant,Bomber3,1,5,1
99960,BomberInfestedPlant,Bomber1,1,5,1
100360,BomberInfestedPlant,Bomber3,1,5,1
100540,BomberInfestedPlant,Bomber1,1,5,1
100660,BomberInfestedPlant,Bomber1,1,5,1
100700,BomberInfestedPlant,Bomber3,1,5,1
100980,BomberInfestedPlant,Bomber1,1,5,1
101020,BomberInfestedPlant,Bomber3,1,5,1
101200,BomberInfestedPlant,Bomber3,1,5,1
101220,BomberInfestedPlant,Bomber1,1,5,1
101760,BomberInfestedPlant,Bomber3,1,5,1
101800,BomberInfestedPlant,Bomber1,1,5,1
101820,BomberInfestedPlant,Bomber3,1,5,1
101860,BomberInfestedPlant,Bomber1,1,5,1
101940,BomberInfestedPlant,Bomber3,1,5,1
101960,BomberInfestedPlant,Bomber3,1,5,1
102060,BomberInfestedPlant,Bomber3,1,5,1
102140,BomberInfestedPlant,Bomber1,1,5,1
102160,BomberInfestedPlant,Bomber1,1,5,1
102560,BomberInfestedPlant,Bomber1,1,5,1
102740,BomberInfestedPlant,Bomber1,1,5,1
102780,BomberInfestedPlant,Bomber1,1,5,1
102960,BomberInfestedPlant,Bomber3,1,5,1
103020,BomberInfestedPlant,Bomber3,1,5,1
103120,BomberInfestedPlant,Bomber3,1,5,1
103160,BomberInfestedPlant,Bomber1,1,5,1
103400,BomberInfestedPlant,Bomber1,1,5,1
103400,BomberInfestedPlant,Bomber3,1,5,1
103480,BomberInfestedPlant,Bomber1,1,5,1
103680,BomberInfestedPlant,Bomber1,1,5,1
103740,BomberInfestedPlant,Bomber3,1,5,1
103900,BomberInfestedPlant,Bomber4,1,5,1
103920,BomberInfestedPlant,Bomber4,1,5,1
103960,BomberInfestedPlant,Bomber4,1,5,1
104040,BomberInfestedPlant,Bomber3,1,5,1
104220,BomberInfestedPlant,Bomber3,1,5,1
104320,BomberInfestedPlant,Bomber4,1,5,1
104520,BomberInfestedPlant,Bomber3,1,5,1
104680,BomberInfestedPlant,Bomber4,1,5,1
104940,BomberInfestedPlant,Bomber3,1,5,1
104980,BomberInfestedPlant,Bomber4,1,5,1
105020,BomberInfestedPlant,Bomber3,1,5,1
105160,BomberInfestedPlant,Bomber4,1,5,1
105380,BomberInfestedPlant,Bomber4,1,5,1
105420,BomberInfestedPlant,Bomber1,1,5,1
105420,BomberInfestedPlant,Bomber4,1,5,1
105500,BomberInfestedPlant,Bomber1,1,5,1
105540,BomberInfestedPlant,Bomber1,1,5,1
105600,BomberInfestedPlant,Bomber1,1,5,1
105620,BomberInfestedPlant,Bomber3,1,5,1
105660,UsePesticide,Bomber3,1,5,1
105680,BomberInfestedPlant,Bomber4,1,5,1
105700,BomberInfestedPlant,Bomber1,1,5,1
105980,PickUpBattery,Bomber2,1,5,1
144880,PickUpBattery,Scout0,1,5,1
166080,UsePesticide,Bomber1,1,5,1
193660,PickUpBattery,Bomber0,1,5,1
199400,PickUpBattery,Bomber1,1,5,1
253200,BomberInfestedPlant,Bomber3,1,5,1
253880,BomberInfestedPlant,Bomber3,1,5,1
253980,BomberInfestedPlant,Bomber3,1,5,1
254180,BomberInfestedPlant,Bomber3,1,5,1
254220,BomberInfestedPlant,Bomber3,1,5,1
254520,BomberInfestedPlant,Bomber3,1,5,1
254780,BomberInfestedPlant,Bomber3,1,5,1
254800,BomberInfestedPlant,Bomber3,1,5,1
255320,BomberInfestedPlant,Bomber3,1,5,1
255360,BomberInfestedPlant,Bomber3,1,5,1
255420,BomberInfestedPlant,Bomber3,1,5,1
255820,BomberInfestedPlant,Bomber3,1,5,1
255880,BomberInfestedPlant,Bomber3,1,5,1
256600,BomberInfestedPlant,Bomber3,1,5,1
256620,BomberInfestedPlant,Bomber3,1,5,1
256740,BomberInfestedPlant,Bomber3,1,5,1
256780,BomberInfestedPlant,Bomber3,1,5,1
257200,BomberInfestedPlant,Bomber3,1,5,1
257460,BomberInfestedPlant,Bomber3,1,5,1
257720,BomberInfestedPlant,Bomber3,1,5,1
258060,BomberInfestedPlant,Bomber3,1,5,1
258820,BomberInfestedPlant,Bomber3,1,5,1
258980,BomberInfestedPlant,Bomber3,1,5,1
259680,BomberInfestedPlant,Bomber3,1,5,1
259760,BomberInfestedPlant,Bomber3,1,5,1
260240,BomberInfestedPlant,Bomber3,1,5,1
260340,BomberInfestedPlant,Bomber3,1,5,1
260500,BomberInfestedPlant,Bomber3,1,5,1
260860,BomberInfestedPlant,Bomber3,1,5,1
261080,BomberInfestedPlant,Bomber3,1,5,1
261140,BomberInfestedPlant,Bomber3,1,5,1
261240,BomberInfestedPlant,Bomber3,1,5,1
261260,BomberInfestedPlant,Bomber3,1,5,1
261480,BomberInfestedPlant,Bomber3,1,5,1
261780,BomberInfestedPlant,Bomber3,1,5,1
261820,BomberInfestedPlant,Bomber3,1,5,1
261860,BomberInfestedPlant,Bomber3,1,5,1
261880,BomberInfestedPlant,Bomber3,1,5,1
262060,BomberInfestedPlant,Bomber3,1,5,1
262400,BomberInfestedPlant,Bomber3,1,5,1
262500,BomberInfestedPlant,Bomber3,1,5,1
262520,BomberInfestedPlant,Bomber3,1,5,1
263620,BomberInfestedPlant,Bomber3,1,5,1
263760,BomberInfestedPlant,Bomber3,1,5,1
263800,BomberInfestedPlant,Bomber3,1,5,1
263880,BomberInfestedPlant,Bomber3,1,5,1
263960,BomberInfestedPlant,Bomber3,1,5,1
264060,BomberInfestedPlant,Bomber3,1,5,1
264140,BomberInfestedPlant,Bomber3,1,5,1
264360,BomberInfestedPlant,Bomber3,1,5,1
264600,BomberInfestedPlant,Bomber3,1,5,1
264640,BomberInfestedPlant,Bomber3,1,5,1
264660,BomberInfestedPlant,Bomber3,1,5,1
264720,BomberInfestedPlant,Bomber3,1,5,1
265280,BomberInfestedPlant,Bomber3,1,5,1
265380,BomberInfestedPlant,Bomber3,1,5,1
265460,BomberInfestedPlant,Bomber3,1,5,1
265560,BomberInfestedPlant,Bomber3,1,5,1
266080,BomberInfestedPlant,Bomber3,1,5,1
266120,BomberInfestedPlant,Bomber3,1,5,1
266580,BomberInfestedPlant,Bomber3,1,5,1
266740,BomberInfestedPlant,Bomber3,1,5,1
266980,BomberInfestedPlant,Bomber3,1,5,1
267060,BomberInfestedPlant,Bomber3,1,5,1
267180,BomberInfestedPlant,Bomber2,1,5,1
267220,BomberInfestedPlant,Bomber2,1,5,1
267260,BomberInfestedPlant,Bomber2,1,5,1
267340,BomberInfestedPlant,Bomber2,1,5,1
267380,BomberInfestedPlant,Bomber3,1,5,1
267480,BomberInfestedPlant,Bomber3,1,5,1
267820,BomberInfestedPlant,Bomber2,1,5,1
267920,BomberInfestedPlant,Bomber2,1,5,1
268020,BomberInfestedPlant,Bomber3,1,5,1
268040,BomberInfestedPlant,Bomber3,1,5,1
268080,BomberInfestedPlant,Bomber2,1,5,1
268080,BomberInfestedPlant,Bomber3,1,5,1
268260,BomberInfestedPlant,Bomber3,1,5,1
268520,BomberInfestedPlant,Bomber3,1,5,1
268580,BomberInfestedPlant,Bomber3,1,5,1
268600,BomberInfestedPlant,Bomber3,1,5,1
268800,BomberInfestedPlant,Bomber3,1,5,1
269060,BomberInfestedPlant,Bomber2,1,5,1
269180,BomberInfestedPlant,Bomber2,1,5,1
269200,BomberInfestedPlant,Bomber3,1,5,1
269240,BomberInfestedPlant,Bomber2,1,5,1
284680,BomberInfestedPlant,Bomber0,1,5,1
284740,BomberInfestedPlant,Bomber2,1,5,1
284800,BomberInfestedPlant,Bomber2,1,5,1
284820,BomberInfestedPlant,Bomber0,1,5,1
284960,BomberInfestedPlant,Bomber0,1,5,1
285020,BomberInfestedPlant,Bomber2,1,5,1
285400,BomberInfestedPlant,Bomber2,1,5,1
285440,BomberInfestedPlant,Bomber0,1,5,1
285700,BomberInfestedPlant,Bomber0,1,5,1
286000,BomberInfestedPlant,Bomber2,1,5,1
286040,BomberInfestedPlant,Bomber2,1,5,1
286320,BomberInfestedPlant,Bomber0,1,5,1
286360,BomberInfestedPlant,Bomber0,1,5,1
286400,BomberInfestedPlant,Bomber0,1,5,1
286460,BomberInfestedPlant,Bomber0,1,5,1
286480,BomberInfestedPlant,Bomber2,1,5,1
286520,BomberInfestedPlant,Bomber0,1,5,1
286600,BomberInfestedPlant,Bomber2,1,5,1
286700,BomberInfestedPlant,Bomber0,1,5,1
286800,BomberInfestedPlant,Bomber0,1,5,1
286860,BomberInfestedPlant,Bomber2,1,5,1
287000,BomberInfestedPlant,Bomber2,1,5,1
287180,BomberInfestedPlant,Bomber2,1,5,1
287540,BomberInfestedPlant,Bomber0,1,5,1
287860,BomberInfestedPlant,Bomber0,1,5,1
288220,BomberInfestedPlant,Bomber2,1,5,1
288440,BomberInfestedPlant,Bomber0,1,5,1
289000,BomberInfestedPlant,Bomber2,1,5,1
289020,BomberInfestedPlant,Bomber0,1,5,1
289120,BomberInfestedPlant,Bomber0,1,5,1
289480,BomberInfestedPlant,Bomber0,1,5,1
289540,BomberInfestedPlant,Bomber2,1,5,1
289620,BomberInfestedPlant,Bomber2,1,5,1
289880,BomberInfestedPlant,Bomber0,1,5,1
290280,BomberInfestedPlant,Bomber0,1,5,1
290480,BomberInfestedPlant,Bomber0,1,5,1
290820,BomberInfestedPlant,Bomber2,1,5,1
290920,BomberInfestedPlant,Bomber2,1,5,1
291160,BomberInfestedPlant,Bomber2,1,5,1
291280,BomberInfestedPlant,Bomber0,1,5,1
291380,BomberInfestedPlant,Bomber0,1,5,1
291540,BomberInfestedPlant,Bomber0,1,5,1
291820,BomberInfestedPlant,Bomber2,1,5,1
292080,BomberInfestedPlant,Bomber2,1,5,1
292140,BomberInfestedPlant,Bomber0,1,5,1
292340,BomberInfestedPlant,Bomber2,1,5,1
292360,BomberInfestedPlant,Bomber0,1,5,1
292380,BomberInfestedPlant,Bomber2,1,5,1
292400,BomberInfestedPlant,Bomber2,1,5,1
292780,BomberInfestedPlant,Bomber0,1,5,1
293160,BomberInfestedPlant,Bomber0,1,5,1
293440,BomberInfestedPlant,Bomber2,1,5,1
293520,BomberInfestedPlant,Bomber2,1,5,1
293660,BomberInfestedPlant,Bomber0,1,5,1
293760,BomberInfestedPlant,Bomber0,1,5,1
293960,BomberInfestedPlant,Bomber0,1,5,1
294640,BomberInfestedPlant,Bomber0,1,5,1
295240,BomberInfestedPlant,Bomber0,1,5,1
295340,BomberInfestedPlant,Bomber0,1,5,1
295420,BomberInfestedPlant,Bomber0,1,5,1
295940,BomberInfestedPlant,Bomber0,1,5,1
295980,BomberInfestedPlant,Bomber0,1,5,1
296040,BomberInfestedPlant,Bomber0,1,5,1
296080,BomberInfestedPlant,Bomber0,1,5,1
296260,BomberInfestedPlant,Bomber0,1,5,1
297040,BomberInfestedPlant,Bomber0,1,5,1
297200,BomberInfestedPlant,Bomber0,1,5,1
297660,BomberInfestedPlant,Bomber0,1,5,1
297740,BomberInfestedPlant,Bomber0,1,5,1
297840,BomberInfestedPlant,Bomber0,1,5,1
297980,BomberInfestedPlant,Bomber0,1,5,1
298780,BomberInfestedPlant,Bomber0,1,5,1
298800,BomberInfestedPlant,Bomber0,1,5,1
298820,BomberInfestedPlant,Bomber0,1,5,1
300200,BomberInfestedPlant,Bomber0,1,5,1
300220,BomberInfestedPlant,Bomber0,1,5,1
300580,BomberInfestedPlant,Bomber0,1,5,1
304900,UsePesticide,Bomber0,1,5,1
317180,UsePesticide,Bomber2,1,5,1
357820,PickUpBattery,Bomber3,1,5,1
359040,PickUpBattery,Scout0,1,5,1
360880,PickUpBattery,Bomber4,1,5,1
474280,PickUpBattery,Bomber0,1,5,1
500580,PickUpBattery,Bomber2,1,5,1
500600,PickUpBattery,Scout0,1,5,1
558840,UsePesticide,Bomber4,1,5,1
585640,PickUpBattery,Bomber1,1,5,1
589580,BomberInfestedPlant,Bomber2,1,5,1
589620,BomberInfestedPlant,Bomber2,1,5,1
589800,BomberInfestedPlant,Bomber0,1,5,1
589840,BomberInfestedPlant,Bomber4,1,5,1
590000,BomberInfestedPlant,Bomber0,1,5,1
590220,BomberInfestedPlant,Bomber4,1,5,1
590300,BomberInfestedPlant,Bomber0,1,5,1
590320,BomberInfestedPlant,Bomber2,1,5,1
590360,BomberInfestedPlant,Bomber3,1,5,1
590380,BomberInfestedPlant,Bomber3,1,5,1
590540,BomberInfestedPlant,Bomber0,1,5,1
590640,BomberInfestedPlant,Bomber0,1,5,1
590640,BomberInfestedPlant,Bomber2,1,5,1
590700,BomberInfestedPlant,Bomber4,1,5,1
590740,BomberInfestedPlant,Bomber3,1,5,1
590820,BomberInfestedPlant,Bomber3,1,5,1
590920,BomberInfestedPlant,Bomber3,1,5,1
590920,BomberInfestedPlant,Bomber4,1,5,1
591000,BomberInfestedPlant,Bomber2,1,5,1
591020,BomberInfestedPlant,Bomber4,1,5,1
669460,PickUpBattery,Bomber0,1,5,1
682940,PickUpBattery,Scout0,1,5,1
684800,PickUpBattery,Bomber3,1,5,1
751720,UsePesticide,Bomber2,1,5,1
802480,PickUpBattery,Bomber1,1,5,1
830140,PickUpBattery,Bomber3,1,5,1
834920,PickUpBattery,Scout0,1,5,1
850560,PickUpBattery,Bomber2,1,5,1
899080,PickUpBattery,Bomber4,1,5,1
984440,PickUpBattery,Bomber0,1,5,1
1049080,PickUpBattery,Scout0,1,5,1
1067460,PickUpBattery,Bomber3,1,5,1
1081780,PickUpBattery,Bomber2,1,5,1
1151700,PickUpBattery,Bomber4,1,5,1
1180720,PickUpBattery,Bomber0,1,5,1
1201060,PickUpBattery,Scout0,1,5,1
1265300,PickUpBattery,Bomber0,1,5,1
1314820,PickUpBattery,Bomber4,1,5,1
1379600,PickUpBattery,Bomber2,1,5,1
1402080,PickUpBattery,Bomber0,1,5,1
1412740,PickUpBattery,Bomber2,1,5,1
1415220,PickUpBattery,Scout0,1,5,1
1476640,PickUpBattery,Bomber2,1,5,1
1567200,PickUpBattery,Scout0,1,5,1
1591540,PickUpBattery,Bomber2,1,5,1
1593820,PickUpBattery,Bomber0,1,5,1
1634280,PickUpBattery,Bomber4,1,5,1
1694780,PickUpBattery,Bomber1,1,5,1
1736760,PickUpBattery,Bomber1,1,5,1
1771620,PickUpBattery,Bomber0,1,5,1
1781360,PickUpBattery,Scout0,1,5,1
1899220,PickUpBattery,Bomber2,1,5,1
1933340,PickUpBattery,Scout0,1,5,1
1956280,PickUpBattery,Bomber1,1,5,1
1956860,PickUpBattery,Bomber4,1,5,1
2000800,TankNutrientPoorPlant,Tank0,1,5,1
2000900,TankNutrientPoorPlant,Tank0,1,5,1
2001000,TankNutrientPoorPlant,Tank0,1,5,1
2001160,TankNutrientPoorPlant,Tank0,1,5,1
2001220,TankNutrientPoorPlant,Tank0,1,5,1
2001460,TankNutrientPoorPlant,Tank0,1,5,1
2001480,TankNutrientPoorPlant,Tank0,1,5,1
2001500,TankNutrientPoorPlant,Tank0,1,5,1
2001540,TankNutrientPoorPlant,Tank0,1,5,1
2001760,TankNutrientPoorPlant,Tank0,1,5,1
2001840,TankNutrientPoorPlant,Tank0,1,5,1
2001900,TankNutrientPoorPlant,Tank0,1,5,1
2002160,TankNutrientPoorPlant,Tank0,1,5,1
2002220,TankNutrientPoorPlant,Tank0,1,5,1
2002240,TankNutrientPoorPlant,Tank0,1,5,1
2002380,TankNutrientPoorPlant,Tank0,1,5,1
2002980,TankNutrientPoorPlant,Tank0,1,5,1
2003060,TankNutrientPoorPlant,Tank0,1,5,1
2003220,TankNutrientPoorPlant,Tank0,1,5,1
2003280,TankNutrientPoorPlant,Tank0,1,5,1
2003360,TankNutrientPoorPlant,Tank0,1,5,1
2003380,TankNutrientPoorPlant,Tank0,1,5,1
2003720,TankNutrientPoorPlant,Tank0,1,5,1
2003780,TankNutrientPoorPlant,Tank0,1,5,1
2003880,TankNutrientPoorPlant,Tank0,1,5,1
2004080,TankNutrientPoorPlant,Tank0,1,5,1
2004280,TankNutrientPoorPlant,Tank0,1,5,1
2004400,TankNutrientPoorPlant,Tank0,1,5,1
2004600,TankNutrientPoorPlant,Tank0,1,5,1
2004700,TankNutrientPoorPlant,Tank0,1,5,1
2004740,TankNutrientPoorPlant,Tank0,1,5,1
2004780,TankNutrientPoorPlant,Tank0,1,5,1
2004820,TankNutrientPoorPlant,Tank0,1,5,1
2004900,TankNutrientPoorPlant,Tank0,1,5,1
2005060,TankNutrientPoorPlant,Tank0,1,5,1
2005500,TankNutrientPoorPlant,Tank0,1,5,1
2005540,TankNutrientPoorPlant,Tank0,1,5,1
2005620,TankNutrientPoorPlant,Tank0,1,5,1
2005900,TankNutrientPoorPlant,Tank0,1,5,1
2006100,TankNutrientPoorPlant,Tank0,1,5,1
2006140,TankNutrientPoorPlant,Tank0,1,5,1
2006280,TankNutrientPoorPlant,Tank0,1,5,1
2006680,TankNutrientPoorPlant,Tank0,1,5,1
2006860,TankNutrientPoorPlant,Tank0,1,5,1
2007060,TankNutrientPoorPlant,Tank0,1,5,1
2007100,TankNutrientPoorPlant,Tank0,1,5,1
2007220,TankNutrientPoorPlant,Tank0,1,5,1
2007260,TankNutrientPoorPlant,Tank0,1,5,1
2007360,TankNutrientPoorPlant,Tank0,1,5,1
2007380,TankNutrientPoorPlant,Tank0,1,5,1
2007580,TankNutrientPoorPlant,Tank0,1,5,1
2007600,TankNutrientPoorPlant,Tank0,1,5,1
2007940,TankNutrientPoorPlant,Tank0,1,5,1
2007960,TankNutrientPoorPlant,Tank0,1,5,1
2008100,TankNutrientPoorPlant,Tank0,1,5,1
2008180,TankNutrientPoorPlant,Tank0,1,5,1
2008320,TankNutrientPoorPlant,Tank0,1,5,1
2008500,TankNutrientPoorPlant,Tank0,1,5,1
2008720,TankNutrientPoorPlant,Tank0,1,5,1
2008940,TankNutrientPoorPlant,Tank0,1,5,1
2009080,TankNutrientPoorPlant,Tank0,1,5,1
2009140,TankNutrientPoorPlant,Tank0,1,5,1
2009200,TankNutrientPoorPlant,Tank0,1,5,1
2009200,TankNutrientPoorPlant,Tank0,1,5,1
2009280,TankNutrientPoorPlant,Tank0,1,5,1
2009340,TankNutrientPoorPlant,Tank0,1,5,1
2009340,TankNutrientPoorPlant,Tank0,1,5,1
2009440,TankNutrientPoorPlant,Tank0,1,5,1
2009480,TankNutrientPoorPlant,Tank0,1,5,1
2009480,TankNutrientPoorPlant,Tank0,1,5,1
2009520,TankNutrientPoorPlant,Tank0,1,5,1
2009540,TankNutrientPoorPlant,Tank0,1,5,1
2009620,TankNutrientPoorPlant,Tank0,1,5,1
2009620,TankNutrientPoorPlant,Tank0,1,5,1
2009740,TankNutrientPoorPlant,Tank0,1,5,1
2009740,TankNutrientPoorPlant,Tank0,1,5,1
2009800,TankNutrientPoorPlant,Tank0,1,5,1
2009820,TankNutrientPoorPlant,Tank0,1,5,1
2009860,TankNutrientPoorPlant,Tank0,1,5,1
2009860,TankNutrientPoorPlant,Tank0,1,5,1
2009900,TankNutrientPoorPlant,Tank0,1,5,1
2009900,TankNutrientPoorPlant,Tank0,1,5,1
2009920,TankNutrientPoorPlant,Tank0,1,5,1
2010040,TankNutrientPoorPlant,Tank0,1,5,1
2010040,TankNutrientPoorPlant,Tank0,1,5,1
2010080,TankNutrientPoorPlant,Tank0,1,5,1
2010160,TankNutrientPoorPlant,Tank0,1,5,1
2010200,TankNutrientPoorPlant,Tank0,1,5,1
2010340,TankNutrientPoorPlant,Tank0,1,5,1
2010340,TankNutrientPoorPlant,Tank0,1,5,1
2010360,TankNutrientPoorPlant,Tank0,1,5,1
2010420,TankNutrientPoorPlant,Tank0,1,5,1
2023180,PickUpBattery,Bomber2,1,5,1
2112880,PickUpBattery,Bomber3,1,5,1
2147500,PickUpBattery,Scout0,1,5,1
2170640,PickUpBattery,Bomber0,1,5,1
2214440,PickUpBattery,Bomber4,1,5,1
2299480,PickUpBattery,Scout0,1,5,1
2315120,PickUpBattery,Tank0,1,5,1
2326620,PickUpBattery,Bomber1,1,5,1
2343120,PickUpBattery,Bomber2,1,5,1
2352620,PickUpBattery,Bomber0,1,5,1
2456480,PickUpBattery,Bomber4,1,5,1
2513640,PickUpBattery,Scout0,1,5,1
2521820,PickUpBattery,Bomber2,1,5,1
2548320,PickUpBattery,Bomber3,1,5,1
2647820,PickUpBattery,Bomber4,1,5,1
2663120,PickUpBattery,Bomber2,1,5,1
2665620,PickUpBattery,Scout0,1,5,1
2706800,PickUpBattery,Bomber1,1,5,1
2750120,PickUpBattery,Bomber0,1,5,1
2818100,PickUpBattery,Bomber3,1,5,1
2836560,PickUpBattery,Bomber2,1,5,1
2879780,PickUpBattery,Scout0,1,5,1
2881820,PickUpBattery,Bomber0,1,5,1
2930660,PickUpBattery,Bomber4,1,5,1
2990320,PickUpBattery,Bomber1,1,5,1
3031760,PickUpBattery,Scout0,1,5,1
3085100,PickUpBattery,Bomber0,1,5,1
3085820,PickUpBattery,Bomber2,1,5,1
3156800,PickUpBattery,Bomber3,1,5,1
3245920,PickUpBattery,Scout0,1,5,1
3265620,PickUpBattery,Bomber1,1,5,1
3271400,PickUpBattery,Bomber0,1,5,1
3311000,UseFertilizer,Tank0,1,5,1
3382080,PickUpBattery,Bomber3,1,5,1
3397900,PickUpBattery,Scout0,1,5,1
3429220,PickUpBattery,Bomber4,1,5,1
3470800,PickUpBattery,Bomber1,1,5,1
3489680,PickUpBattery,Bomber2,1,5,1
3560720,PickUpBattery,Scout0,1,5,1
3609640,PickUpBattery,Bomber4,1,5,1
3654020,PickUpBattery,Bomber1,1,5,1
3675780,PickUpBattery,Bomber2,1,5,1
3701260,PickUpBattery,Bomber0,1,5,1
3744200,PickUpBattery,Scout0,1,5,1
3791920,PickUpBattery,Bomber1,1,5,1
3848460,TankNutrientPoorPlant,Tank0,1,5,1
3848560,TankNutrientPoorPlant,Tank0,1,5,1
3848620,TankNutrientPoorPlant,Tank0,1,5,1
3848720,TankNutrientPoorPlant,Tank0,1,5,1
3848740,TankNutrientPoorPlant,Tank0,1,5,1
3848980,TankNutrientPoorPlant,Tank0,1,5,1
3849260,TankNutrientPoorPlant,Tank0,1,5,1
3849520,TankNutrientPoorPlant,Tank0,1,5,1
3849620,TankNutrientPoorPlant,Tank0,1,5,1
3849680,TankNutrientPoorPlant,Tank0,1,5,1
3849760,TankNutrientPoorPlant,Tank0,1,5,1
3849800,TankNutrientPoorPlant,Tank0,1,5,1
3849860,TankNutrientPoorPlant,Tank0,1,5,1
3849940,TankNutrientPoorPlant,Tank0,1,5,1
3850200,TankNutrientPoorPlant,Tank0,1,5,1
3850300,TankNutrientPoorPlant,Tank0,1,5,1
3850480,TankNutrientPoorPlant,Tank0,1,5,1
3850540,TankNutrientPoorPlant,Tank0,1,5,1
3850740,TankNutrientPoorPlant,Tank0,1,5,1
3850760,TankNutrientPoorPlant,Tank0,1,5,1
3850980,TankNutrientPoorPlant,Tank0,1,5,1
3851000,TankNutrientPoorPlant,Tank0,1,5,1
3851080,TankNutrientPoorPlant,Tank0,1,5,1
3851180,TankNutrientPoorPlant,Tank0,1,5,1
3851320,TankNutrientPoorPlant,Tank0,1,5,1
3851340,TankNutrientPoorPlant,Tank0,1,5,1
3851440,TankNutrientPoorPlant,Tank0,1,5,1
3851560,TankNutrientPoorPlant,Tank0,1,5,1
3851600,TankNutrientPoorPlant,Tank0,1,5,1
3851700,TankNutrientPoorPlant,Tank0,1,5,1
3851820,TankNutrientPoorPlant,Tank0,1,5,1
3851980,TankNutrientPoorPlant,Tank0,1,5,1
3852180,TankNutrientPoorPlant,Tank0,1,5,1
3852360,TankNutrientPoorPlant,Tank0,1,5,1
3852560,TankNutrientPoorPlant,Tank0,1,5,1
3852800,TankNutrientPoorPlant,Tank0,1,5,1
3852840,TankNutrientPoorPlant,Tank0,1,5,1
3852840,TankNutrientPoorPlant,Tank0,1,5,1
3852880,TankNutrientPoorPlant,Tank0,1,5,1
3852980,TankNutrientPoorPlant,Tank0,1,5,1
3853020,TankNutrientPoorPlant,Tank0,1,5,1
3853140,TankNutrientPoorPlant,Tank0,1,5,1
3853140,TankNutrientPoorPlant,Tank0,1,5,1
3853180,TankNutrientPoorPlant,Tank0,1,5,1
3853180,TankNutrientPoorPlant,Tank0,1,5,1
3853220,TankNutrientPoorPlant,Tank0,1,5,1
3853260,TankNutrientPoorPlant,Tank0,1,5,1
3853420,TankNutrientPoorPlant,Tank0,1,5,1
3853420,PickUpBattery,Bomber4,1,5,1
3853440,TankNutrientPoorPlant,Tank0,1,5,1
3853560,TankNutrientPoorPlant,Tank0,1,5,1
3853560,TankNutrientPoorPlant,Tank0,1,5,1
3853580,TankNutrientPoorPlant,Tank0,1,5,1
3853640,TankNutrientPoorPlant,Tank0,1,5,1
3853660,TankNutrientPoorPlant,Tank0,1,5,1
3853680,TankNutrientPoorPlant,Tank0,1,5,1
3853680,TankNutrientPoorPlant,Tank0,1,5,1
3853700,TankNutrientPoorPlant,Tank0,1,5,1
3853740,TankNutrientPoorPlant,Tank0,1,5,1
3853740,TankNutrientPoorPlant,Tank0,1,5,1
3853760,TankNutrientPoorPlant,Tank0,1,5,1
3853780,TankNutrientPoorPlant,Tank0,1,5,1
3853820,TankNutrientPoorPlant,Tank0,1,5,1
3853820,TankNutrientPoorPlant,Tank0,1,5,1
3853840,TankNutrientPoorPlant,Tank0,1,5,1
3853940,TankNutrientPoorPlant,Tank0,1,5,1
3853980,TankNutrientPoorPlant,Tank0,1,5,1
3853980,TankNutrientPoorPlant,Tank0,1,5,1
3854000,TankNutrientPoorPlant,Tank0,1,5,1
3854040,TankNutrientPoorPlant,Tank0,1,5,1
3854040,TankNutrientPoorPlant,Tank0,1,5,1
3854060,TankNutrientPoorPlant,Tank0,1,5,1
3854220,TankNutrientPoorPlant,Tank0,1,5,1
3854260,TankNutrientPoorPlant,Tank0,1,5,1
3854260,TankNutrientPoorPlant,Tank0,1,5,1
3854340,TankNutrientPoorPlant,Tank0,1,5,1
3854360,TankNutrientPoorPlant,Tank0,1,5,1
3854500,TankNutrientPoorPlant,Tank0,1,5,1
3854600,TankNutrientPoorPlant,Tank0,1,5,1
3854720,TankNutrientPoorPlant,Tank0,1,5,1
3854820,TankNutrientPoorPlant,Tank0,1,5,1
3854840,TankNutrientPoorPlant,Tank0,1,5,1
3854860,TankNutrientPoorPlant,Tank0,1,5,1
3855100,TankNutrientPoorPlant,Tank0,1,5,1
3855480,TankNutrientPoorPlant,Tank0,1,5,1
3855520,TankNutrientPoorPlant,Tank0,1,5,1
3855620,TankNutrientPoorPlant,Tank0,1,5,1
3855640,TankNutrientPoorPlant,Tank0,1,5,1
3855700,TankNutrientPoorPlant,Tank0,1,5,1
3855740,TankNutrientPoorPlant,Tank0,1,5,1
3855900,TankNutrientPoorPlant,Tank0,1,5,1
3855940,TankNutrientPoorPlant,Tank0,1,5,1
3856100,TankNutrientPoorPlant,Tank0,1,5,1
3856120,TankNutrientPoorPlant,Tank0,1,5,1
3856140,TankNutrientPoorPlant,Tank0,1,5,1
3856180,TankNutrientPoorPlant,Tank0,1,5,1
3856300,TankNutrientPoorPlant,Tank0,1,5,1
3856540,TankNutrientPoorPlant,Tank0,1,5,1
3856660,TankNutrientPoorPlant,Tank0,1,5,1
3856720,TankNutrientPoorPlant,Tank0,1,5,1
3856740,TankNutrientPoorPlant,Tank0,1,5,1
3856800,TankNutrientPoorPlant,Tank0,1,5,1
3857020,TankNutrientPoorPlant,Tank0,1,5,1
3857100,TankNutrientPoorPlant,Tank0,1,5,1
3857220,TankNutrientPoorPlant,Tank0,1,5,1
3857260,TankNutrientPoorPlant,Tank0,1,5,1
3857360,TankNutrientPoorPlant,Tank0,1,5,1
3857660,TankNutrientPoorPlant,Tank0,1,5,1
3857760,TankNutrientPoorPlant,Tank0,1,5,1
3858120,TankNutrientPoorPlant,Tank0,1,5,1
3858560,TankNutrientPoorPlant,Tank0,1,5,1
3858780,TankNutrientPoorPlant,Tank0,1,5,1
3858980,TankNutrientPoorPlant,Tank0,1,5,1
3859340,TankNutrientPoorPlant,Tank0,1,5,1
3859380,TankNutrientPoorPlant,Tank0,1,5,1
3859780,TankNutrientPoorPlant,Tank0,1,5,1
3859800,TankNutrientPoorPlant,Tank0,1,5,1
3859900,TankNutrientPoorPlant,Tank0,1,5,1
3859960,TankNutrientPoorPlant,Tank0,1,5,1
3860140,TankNutrientPoorPlant,Tank0,1,5,1
3860340,TankNutrientPoorPlant,Tank0,1,5,1
3860400,TankNutrientPoorPlant,Tank0,1,5,1
3860620,TankNutrientPoorPlant,Tank0,1,5,1
3860840,TankNutrientPoorPlant,Tank0,1,5,1
3860880,TankNutrientPoorPlant,Tank0,1,5,1
3861280,TankNutrientPoorPlant,Tank0,1,5,1
3861300,TankNutrientPoorPlant,Tank0,1,5,1
3861540,TankNutrientPoorPlant,Tank0,1,5,1
3861660,TankNutrientPoorPlant,Tank0,1,5,1
3861760,TankNutrientPoorPlant,Tank0,1,5,1
3861820,TankNutrientPoorPlant,Tank0,1,5,1
3862260,TankNutrientPoorPlant,Tank0,1,5,1
3862400,TankNutrientPoorPlant,Tank0,1,5,1
3862500,TankNutrientPoorPlant,Tank0,1,5,1
3862620,TankNutrientPoorPlant,Tank0,1,5,1
3862800,TankNutrientPoorPlant,Tank0,1,5,1
3862900,TankNutrientPoorPlant,Tank0,1,5,1
3863100,TankNutrientPoorPlant,Tank0,1,5,1
3863160,TankNutrientPoorPlant,Tank0,1,5,1
3863320,TankNutrientPoorPlant,Tank0,1,5,1
3863420,TankNutrientPoorPlant,Tank0,1,5,1
3863520,TankNutrientPoorPlant,Tank0,1,5,1
3863700,TankNutrientPoorPlant,Tank0,1,5,1
3863720,TankNutrientPoorPlant,Tank0,1,5,1
3863940,TankNutrientPoorPlant,Tank0,1,5,1
3864000,TankNutrientPoorPlant,Tank0,1,5,1
3864040,TankNutrientPoorPlant,Tank0,1,5,1
3864060,TankNutrientPoorPlant,Tank0,1,5,1
3864080,TankNutrientPoorPlant,Tank0,1,5,1
3864280,TankNutrientPoorPlant,Tank0,1,5,1
3864520,TankNutrientPoorPlant,Tank0,1,5,1
3864920,TankNutrientPoorPlant,Tank0,1,5,1
3865060,TankNutrientPoorPlant,Tank0,1,5,1
3940660,PickUpBattery,Bomber1,1,5,1
3953800,PickUpBattery,Bomber3,1,5,1
3958360,PickUpBattery,Scout0,1,5,1
4086200,PickUpBattery,Bomber4,1,5,1
4110340,PickUpBattery,Scout0,1,5,1
4117860,PickUpBattery,Bomber3,1,5,1
4159640,PickUpBattery,Bomber2,1,5,1
4222380,PickUpBattery,Bomber0,1,5,1
4276700,PickUpBattery,Bomber2,1,5,1
4305480,PickUpBattery,Bomber3,1,5,1
4324500,PickUpBattery,Scout0,1,5,1
4361680,PickUpBattery,Bomber0,1,5,1
4435680,PickUpBattery,Tank0,1,5,1
4450840,PickUpBattery,Bomber2,1,5,1
4476480,PickUpBattery,Scout0,1,5,1
4498680,PickUpBattery,Bomber1,1,5,1
4538540,PickUpBattery,Bomber4,1,5,1
4595780,PickUpBattery,Bomber0,1,5,1
4622380,PickUpBattery,Bomber2,1,5,1
4669720,PickUpBattery,Bomber1,1,5,1
4690640,PickUpBattery,Scout0,1,5,1
4743220,PickUpBattery,Bomber0,1,5,1
4786280,PickUpBattery,Bomber3,1,5,1
4842620,PickUpBattery,Scout0,1,5,1
4844320,PickUpBattery,Bomber4,1,5,1
4915260,UseFertilizer,Tank0,1,5,1
4931980,PickUpBattery,Bomber4,1,5,1
4946900,TankNutrientPoorPlant,Tank0,1,5,1
4946920,TankNutrientPoorPlant,Tank0,1,5,1
4947020,TankNutrientPoorPlant,Tank0,1,5,1
4947240,TankNutrientPoorPlant,Tank0,1,5,1
4947260,TankNutrientPoorPlant,Tank0,1,5,1
4947300,TankNutrientPoorPlant,Tank0,1,5,1
4947800,TankNutrientPoorPlant,Tank0,1,5,1
4947820,TankNutrientPoorPlant,Tank0,1,5,1
4947880,TankNutrientPoorPlant,Tank0,1,5,1
4948060,TankNutrientPoorPlant,Tank0,1,5,1
4948080,TankNutrientPoorPlant,Tank0,1,5,1
4948160,TankNutrientPoorPlant,Tank0,1,5,1
4948180,TankNutrientPoorPlant,Tank0,1,5,1
4948200,TankNutrientPoorPlant,Tank0,1,5,1
4948260,TankNutrientPoorPlant,Tank0,1,5,1
4948360,TankNutrientPoorPlant,Tank0,1,5,1
4948380,TankNutrientPoorPlant,Tank0,1,5,1
4948580,TankNutrientPoorPlant,Tank0,1,5,1
4948600,TankNutrientPoorPlant,Tank0,1,5,1
4948640,TankNutrientPoorPlant,Tank0,1,5,1
4948800,TankNutrientPoorPlant,Tank0,1,5,1
4948820,TankNutrientPoorPlant,Tank0,1,5,1
4949060,TankNutrientPoorPlant,Tank0,1,5,1
4949080,TankNutrientPoorPlant,Tank0,1,5,1
4949140,TankNutrientPoorPlant,Tank0,1,5,1
4949180,TankNutrientPoorPlant,Tank0,1,5,1
4949240,TankNutrientPoorPlant,Tank0,1,5,1
4949460,TankNutrientPoorPlant,Tank0,1,5,1
4949580,TankNutrientPoorPlant,Tank0,1,5,1
4949820,TankNutrientPoorPlant,Tank0,1,5,1
4949840,TankNutrientPoorPlant,Tank0,1,5,1
4949880,TankNutrientPoorPlant,Tank0,1,5,1
4949960,TankNutrientPoorPlant,Tank0,1,5,1
4950000,TankNutrientPoorPlant,Tank0,1,5,1
4950020,TankNutrientPoorPlant,Tank0,1,5,1
4950180,TankNutrientPoorPlant,Tank0,1,5,1
4950400,TankNutrientPoorPlant,Tank0,1,5,1
4950640,TankNutrientPoorPlant,Tank0,1,5,1
4950940,TankNutrientPoorPlant,Tank0,1,5,1
4950960,TankNutrientPoorPlant,Tank0,1,5,1
4951140,TankNutrientPoorPlant,Tank0,1,5,1
4951220,TankNutrientPoorPlant,Tank0,1,5,1
4951260,TankNutrientPoorPlant,Tank0,1,5,1
4951300,TankNutrientPoorPlant,Tank0,1,5,1
4951620,TankNutrientPoorPlant,Tank0,1,5,1
4951740,TankNutrientPoorPlant,Tank0,1,5,1
4951800,TankNutrientPoorPlant,Tank0,1,5,1
4952440,TankNutrientPoorPlant,Tank0,1,5,1
4952480,TankNutrientPoorPlant,Tank0,1,5,1
4952500,TankNutrientPoorPlant,Tank0,1,5,1
4953440,PickUpBattery,Bomber0,1,5,1
5013080,PickUpBattery,Bomber3,1,5,1
5056780,PickUpBattery,Scout0,1,5,1
5077020,PickUpBattery,Bomber0,1,5,1
5107640,PickUpBattery,Bomber2,1,5,1
5160700,UseFertilizer,Tank0,1,5,1
5164840,PickUpBattery,Bomber3,1,5,1
5201280,PickUpBattery,Bomber0,1,5,1
5208760,PickUpBattery,Scout0,1,5,1
5252980,PickUpBattery,Bomber2,1,5,1
5284900,TankNutrientPoorPlant,Tank0,1,5,1
5285040,TankNutrientPoorPlant,Tank0,1,5,1
5285280,TankNutrientPoorPlant,Tank0,1,5,1
5285300,TankNutrientPoorPlant,Tank0,1,5,1
5285400,TankNutrientPoorPlant,Tank0,1,5,1
5285820,TankNutrientPoorPlant,Tank0,1,5,1
5285840,TankNutrientPoorPlant,Tank0,1,5,1
5285940,TankNutrientPoorPlant,Tank0,1,5,1
5286060,TankNutrientPoorPlant,Tank0,1,5,1
5286140,TankNutrientPoorPlant,Tank0,1,5,1
5286640,TankNutrientPoorPlant,Tank0,1,5,1
5286800,TankNutrientPoorPlant,Tank0,1,5,1
5286860,TankNutrientPoorPlant,Tank0,1,5,1
5286960,TankNutrientPoorPlant,Tank0,1,5,1
5287040,TankNutrientPoorPlant,Tank0,1,5,1
5287120,TankNutrientPoorPlant,Tank0,1,5,1
5287160,TankNutrientPoorPlant,Tank0,1,5,1
5287420,TankNutrientPoorPlant,Tank0,1,5,1
5287500,TankNutrientPoorPlant,Tank0,1,5,1
5287520,TankNutrientPoorPlant,Tank0,1,5,1
5287540,TankNutrientPoorPlant,Tank0,1,5,1
5287600,TankNutrientPoorPlant,Tank0,1,5,1
5287620,TankNutrientPoorPlant,Tank0,1,5,1
5287720,TankNutrientPoorPlant,Tank0,1,5,1
5287960,TankNutrientPoorPlant,Tank0,1,5,1
5288060,TankNutrientPoorPlant,Tank0,1,5,1
5288220,TankNutrientPoorPlant,Tank0,1,5,1
5288300,TankNutrientPoorPlant,Tank0,1,5,1
5288480,TankNutrientPoorPlant,Tank0,1,5,1
5288560,TankNutrientPoorPlant,Tank0,1,5,1
5288620,TankNutrientPoorPlant,Tank0,1,5,1
5288640,TankNutrientPoorPlant,Tank0,1,5,1
5288660,TankNutrientPoorPlant,Tank0,1,5,1
5288680,TankNutrientPoorPlant,Tank0,1,5,1
5288960,TankNutrientPoorPlant,Tank0,1,5,1
5289060,TankNutrientPoorPlant,Tank0,1,5,1
5289200,TankNutrientPoorPlant,Tank0,1,5,1
5289260,TankNutrientPoorPlant,Tank0,1,5,1
5289440,TankNutrientPoorPlant,Tank0,1,5,1
5289460,TankNutrientPoorPlant,Tank0,1,5,1
5289800,TankNutrientPoorPlant,Tank0,1,5,1
5289860,TankNutrientPoorPlant,Tank0,1,5,1
5289960,TankNutrientPoorPlant,Tank0,1,5,1
5290140,TankNutrientPoorPlant,Tank0,1,5,1
5290160,TankNutrientPoorPlant,Tank0,1,5,1
5290280,TankNutrientPoorPlant,Tank0,1,5,1
5290440,TankNutrientPoorPlant,Tank0,1,5,1
5290480,TankNutrientPoorPlant,Tank0,1,5,1
5290660,TankNutrientPoorPlant,Tank0,1,5,1
5290720,TankNutrientPoorPlant,Tank0,1,5,1
5290800,TankNutrientPoorPlant,Tank0,1,5,1
5291140,TankNutrientPoorPlant,Tank0,1,5,1
5291300,TankNutrientPoorPlant,Tank0,1,5,1
5291500,TankNutrientPoorPlant,Tank0,1,5,1
5291700,TankNutrientPoorPlant,Tank0,1,5,1
5292140,TankNutrientPoorPlant,Tank0,1,5,1
5292180,TankNutrientPoorPlant,Tank0,1,5,1
5292360,TankNutrientPoorPlant,Tank0,1,5,1
5339980,PickUpBattery,Bomber4,1,5,1
5360780,PickUpBattery,Bomber3,1,5,1
5422920,PickUpBattery,Scout0,1,5,1
5452780,PickUpBattery,Bomber1,1,5,1
5466600,PickUpBattery,Bomber2,1,5,1
5490680,PickUpBattery,Bomber4,1,5,1
5574900,PickUpBattery,Scout0,1,5,1
5588220,PickUpBattery,Bomber1,1,5,1
5635100,PickUpBattery,Bomber4,1,5,1
5655860,PickUpBattery,Bomber2,1,5,1
5753880,PickUpBattery,Bomber4,1,5,1
5789060,PickUpBattery,Scout0,1,5,1
5820420,UseFertilizer,Tank0,1,5,1
5853000,PickUpBattery,Bomber2,1,5,1
5869220,PickUpBattery,Bomber1,1,5,1
5905580,PickUpBattery,Bomber4,1,5,1
5941040,PickUpBattery,Scout0,1,5,1
6020760,PickUpBattery,Bomber0,1,5,1
6021200,PickUpBattery,Bomber2,1,5,1
6042540,PickUpBattery,Bomber3,1,5,1
6045120,PickUpBattery,Bomber3,1,5,1
6155200,PickUpBattery,Scout0,1,5,1
6175140,PickUpBattery,Bomber3,1,5,1
6206140,PickUpBattery,Tank0,1,5,1
6236540,PickUpBattery,Bomber2,1,5,1
6238160,PickUpBattery,Bomber4,1,5,1
6307180,PickUpBattery,Scout0,1,5,1
6366040,PickUpBattery,Bomber3,1,5,1
6370920,PickUpBattery,Bomber2,1,5,1
6442620,PickUpBattery,Bomber4,1,5,1
6465460,PickUpBattery,Bomber3,1,5,1
6488180,PickUpBattery,Bomber0,1,5,1
6521340,PickUpBattery,Scout0,1,5,1
6613120,PickUpBattery,Bomber4,1,5,1
6625220,PickUpBattery,Bomber2,1,5,1
6678920,PickUpBattery,Bomber3,1,5,1
6679160,PickUpBattery,Scout0,1,5,1
6745340,PickUpBattery,Bomber0,1,5,1
6763980,PickUpBattery,Bomber4,1,5,1
6854280,PickUpBattery,Bomber2,1,5,1
6880980,PickUpBattery,Bomber3,1,5,1
6893240,PickUpBattery,Scout0,1,5,1
6929520,PickUpBattery,Bomber4,1,5,1
6989940,PickUpBattery,Bomber2,1,5,1
7045220,PickUpBattery,Scout0,1,5,1
7052100,PickUpBattery,Bomber1,1,5,1
7097920,PickUpBattery,Bomber0,1,5,1
7154220,PickUpBattery,Bomber2,1,5,1
7184740,PickUpBattery,Bomber3,1,5,1
7245340,PickUpBattery,Bomber0,1,5,1
7259380,PickUpBattery,Scout0,1,5,1
7272200,PickUpBattery,Bomber2,1,5,1
7285080,PickUpBattery,Bomber4,1,5,1
7411360,PickUpBattery,Scout0,1,5,1
7462620,PickUpBattery,Bomber1,1,5,1
7490840,PickUpBattery,Bomber0,1,5,1
7541900,PickUpBattery,Bomber3,1,5,1
7558400,PickUpBattery,Bomber4,1,5,1
7625520,PickUpBattery,Scout0,1,5,1
7631720,PickUpBattery,Bomber0,1,5,1
7643420,PickUpBattery,Bomber4,1,5,1
7725160,PickUpBattery,Bomber2,1,5,1
7756520,PickUpBattery,Bomber1,1,5,1
7777500,PickUpBattery,Scout0,1,5,1
7802720,PickUpBattery,Bomber4,1,5,1
7910160,PickUpBattery,Bomber0,1,5,1
7941040,PickUpBattery,Bomber3,1,5,1
7982220,PickUpBattery,Bomber4,1,5,1
7991660,PickUpBattery,Scout0,1,5,1
8041340,PickUpBattery,Bomber0,1,5,1
8134380,PickUpBattery,Tank0,1,5,1
8136540,PickUpBattery,Bomber3,1,5,1
8138560,PickUpBattery,Bomber1,1,5,1
8143640,PickUpBattery,Scout0,1,5,1
8168440,PickUpBattery,Bomber4,1,5,1
8222140,PickUpBattery,Bomber4,1,5,1
8357800,PickUpBattery,Scout0,1,5,1
8362660,PickUpBattery,Bomber1,1,5,1
8417040,PickUpBattery,Bomber0,1,5,1
8436800,PickUpBattery,Bomber2,1,5,1
8509780,PickUpBattery,Scout0,1,5,1
8517800,PickUpBattery,Bomber1,1,5,1
8611500,PickUpBattery,Bomber1,1,5,1
8617160,PickUpBattery,Bomber4,1,5,1
8622620,PickUpBattery,Bomber1,1,5,1
8670200,PickUpBattery,Bomber3,1,5,1
8723940,PickUpBattery,Scout0,1,5,1
8776420,PickUpBattery,Bomber2,1,5,1
8796540,PickUpBattery,Bomber3,1,5,1
8841760,PickUpBattery,Bomber1,1,5,1
8875920,PickUpBattery,Scout0,1,5,1
8923260,PickUpBattery,Bomber4,1,5,1
8967060,PickUpBattery,Bomber3,1,5,1
9034180,PickUpBattery,Bomber0,1,5,1
9090080,PickUpBattery,Scout0,1,5,1
9130520,PickUpBattery,Bomber4,1,5,1
9192280,PickUpBattery,Bomber2,1,5,1
9242060,PickUpBattery,Scout0,1,5,1
9269180,PickUpBattery,Bomber1,1,5,1
9333260,PickUpBattery,Bomber3,1,5,1
9400660,PickUpBattery,Bomber2,1,5,1
9433060,PickUpBattery,Scout0,1,5,1
9465120,PickUpBattery,Bomber2,1,5,1
9477460,PickUpBattery,Bomber0,1,5,1
9536940,PickUpBattery,Bomber3,1,5,1
9589340,PickUpBattery,Scout0,1,5,1
9684820,PickUpBattery,Bomber3,1,5,1
9694080,PickUpBattery,Bomber0,1,5,1
9699280,PickUpBattery,Bomber4,1,5,1
9765960,PickUpBattery,Bomber1,1,5,1
9794820,PickUpBattery,Bomber0,1,5,1
9803500,PickUpBattery,Scout0,1,5,1
9899680,PickUpBattery,Bomber3,1,5,1
9906260,PickUpBattery,Bomber2,1,5,1
9955480,PickUpBattery,Scout0,1,5,1
9965400,PickUpBattery,Bomber0,1,5,1
10029620,PickUpBattery,Tank0,1,5,1
10041360,PickUpBattery,Bomber1,1,5,1
10067980,PickUpBattery,Bomber4,1,5,1
10069260,PickUpBattery,Bomber2,1,5,1
10169640,PickUpBattery,Scout0,1,5,1
10213900,PickUpBattery,Bomber3,1,5,1
10214660,PickUpBattery,Bomber4,1,5,1
10225040,PickUpBattery,Bomber2,1,5,1
10321620,PickUpBattery,Scout0,1,5,1
10325220,PickUpBattery,Bomber0,1,5,1
10349680,PickUpBattery,Bomber4,1,5,1
10392440,PickUpBattery,Bomber2,1,5,1
10437280,PickUpBattery,Bomber3,1,5,1
10467000,PickUpBattery,Bomber2,1,5,1
10496760,PickUpBattery,Bomber1,1,5,1
10535780,PickUpBattery,Scout0,1,5,1
10536180,PickUpBattery,Bomber4,1,5,1
10589180,PickUpBattery,Bomber3,1,5,1
10600360,PickUpBattery,Bomber4,1,5,1
10667360,PickUpBattery,Bomber0,1,5,1
10686080,PickUpBattery,Scout0,1,5,1
10728180,PickUpBattery,Bomber4,1,5,1
10780900,PickUpBattery,Bomber0,1,5,1
10826860,PickUpBattery,Bomber3,1,5,1
10887260,PickUpBattery,Bomber2,1,5,1
10900240,PickUpBattery,Scout0,1,5,1
10952860,PickUpBattery,Bomber4,1,5,1
10958080,PickUpBattery,Bomber0,1,5,1
11042460,PickUpBattery,Bomber1,1,5,1
11052280,PickUpBattery,Scout0,1,5,1
11081740,PickUpBattery,Bomber2,1,5,1
11137680,PickUpBattery,Bomber0,1,5,1
11179660,PickUpBattery,Bomber0,1,5,1
11203760,PickUpBattery,Bomber1,1,5,1
11226300,PickUpBattery,Bomber1,1,5,1
11266440,PickUpBattery,Scout0,1,5,1
11338800,PickUpBattery,Bomber2,1,5,1
11403000,PickUpBattery,Bomber1,1,5,1
11418420,PickUpBattery,Scout0,1,5,1
11454280,PickUpBattery,Bomber2,1,5,1
11487060,PickUpBattery,Bomber4,1,5,1
11581640,PickUpBattery,Bomber0,1,5,1
11613140,PickUpBattery,Tank0,1,5,1
11628320,PickUpBattery,Scout0,1,5,1
11631480,PickUpBattery,Bomber3,1,5,1
11639120,PickUpBattery,Bomber4,1,5,1
11744600,PickUpBattery,Bomber0,1,5,1
11766460,PickUpBattery,Bomber1,1,5,1
11780300,PickUpBattery,Scout0,1,5,1
11840820,PickUpBattery,Bomber2,1,5,1
11847080,PickUpBattery,Bomber1,1,5,1
11847960,PickUpBattery,Bomber0,1,5,1
11964600,PickUpBattery,Bomber3,1,5,1
11994460,PickUpBattery,Scout0,1,5,1
12005040,PickUpBattery,Bomber2,1,5,1
12028860,PickUpBattery,Bomber4,1,5,1
12124760,PickUpBattery,Bomber0,1,5,1
12146440,PickUpBattery,Scout0,1,5,1
12183600,PickUpBattery,Bomber4,1,5,1
12203460,PickUpBattery,Bomber1,1,5,1
12323940,PickUpBattery,Bomber2,1,5,1
12360600,PickUpBattery,Scout0,1,5,1
12369360,PickUpBattery,Bomber1,1,5,1
12407820,PickUpBattery,Bomber0,1,5,1
12424480,PickUpBattery,Bomber4,1,5,1
12512580,PickUpBattery,Scout0,1,5,1
12515380,PickUpBattery,Bomber4,1,5,1
12606360,PickUpBattery,Bomber0,1,5,1
12633740,PickUpBattery,Bomber3,1,5,1
12639120,PickUpBattery,Bomber2,1,5,1
12726740,PickUpBattery,Scout0,1,5,1
12731120,PickUpBattery,Bomber0,1,5,1
12786240,PickUpBattery,Bomber4,1,5,1
12823580,PickUpBattery,Bomber0,1,5,1
12878720,PickUpBattery,Scout0,1,5,1
12893860,PickUpBattery,Bomber2,1,5,1
12948920,PickUpBattery,Bomber1,1,5,1
12979640,PickUpBattery,Bomber3,1,5,1
13012620,PickUpBattery,Bomber0,1,5,1
13088000,PickUpBattery,Bomber4,1,5,1
13092880,PickUpBattery,Scout0,1,5,1
13110340,PickUpBattery,Bomber1,1,5,1
13188740,PickUpBattery,Tank0,1,5,1
13198900,PickUpBattery,Bomber4,1,5,1
13225700,PickUpBattery,Scout0,1,5,1
13246560,PickUpBattery,Bomber1,1,5,1
13291760,PickUpBattery,Bomber3,1,5,1
13375580,PickUpBattery,Bomber0,1,5,1
13420740,PickUpBattery,Scout0,1,5,1
13425160,PickUpBattery,Bomber2,1,5,1
13462800,PickUpBattery,Bomber4,1,5,1
13536980,PickUpBattery,Bomber1,1,5,1
13540700,PickUpBattery,Bomber3,1,5,1
13560060,PickUpBattery,Bomber0,1,5,1
13572720,PickUpBattery,Scout0,1,5,1
13698560,PickUpBattery,Bomber1,1,5,1
13699560,PickUpBattery,Bomber3,1,5,1
13750480,PickUpBattery,Bomber4,1,5,1
13758200,PickUpBattery,Bomber1,1,5,1
13786880,PickUpBattery,Scout0,1,5,1
13805340,PickUpBattery,Bomber1,1,5,1
13938860,PickUpBattery,Scout0,1,5,1
13952360,PickUpBattery,Bomber0,1,5,1
13962240,PickUpBattery,Bomber2,1,5,1
13975480,PickUpBattery,Bomber3,1,5,1
14086960,PickUpBattery,Bomber1,1,5,1
14103380,PickUpBattery,Bomber2,1,5,1
14153020,PickUpBattery,Scout0,1,5,1
14217220,PickUpBattery,Bomber4,1,5,1
14226680,PickUpBattery,Bomber0,1,5,1
14280720,PickUpBattery,Bomber3,1,5,1
14300680,PickUpBattery,Bomber4,1,5,1
14305000,PickUpBattery,Scout0,1,5,1
14323580,PickUpBattery,Bomber2,1,5,1
14478840,PickUpBattery,Bomber1,1,5,1
14505300,PickUpBattery,Scout0,1,5,1
14551980,PickUpBattery,Bomber0,1,5,1
14615340,PickUpBattery,Bomber2,1,5,1
14652180,PickUpBattery,Bomber1,1,5,1
14657280,PickUpBattery,Scout0,1,5,1
14713140,PickUpBattery,Bomber0,1,5,1
14788040,PickUpBattery,Bomber4,1,5,1
14841320,PickUpBattery,Bomber2,1,5,1
14871440,PickUpBattery,Scout0,1,5,1
14902920,PickUpBattery,Bomber1,1,5,1
14923100,PickUpBattery,Bomber2,1,5,1
15011160,PickUpBattery,Bomber0,1,5,1
15023420,PickUpBattery,Scout0,1,5,1
15053940,PickUpBattery,Bomber3,1,5,1
15105140,PickUpBattery,Bomber4,1,5,1
15210420,PickUpBattery,Bomber2,1,5,1
15219620,PickUpBattery,Bomber0,1,5,1
15237580,PickUpBattery,Scout0,1,5,1
15245220,PickUpBattery,Bomber1,1,5,1
15292960,PickUpBattery,Bomber3,1,5,1
15372880,PickUpBattery,Bomber0,1,5,1
15389560,PickUpBattery,Scout0,1,5,1
15427300,PickUpBattery,Bomber4,1,5,1
15470880,PickUpBattery,Bomber3,1,5,1
15484820,PickUpBattery,Tank0,1,5,1
15491080,PickUpBattery,Bomber2,1,5,1
15575820,PickUpBattery,Bomber1,1,5,1
15603720,PickUpBattery,Scout0,1,5,1
15656260,PickUpBattery,Bomber4,1,5,1
15726020,PickUpBattery,Bomber3,1,5,1
15738980,PickUpBattery,Bomber0,1,5,1
15755700,PickUpBattery,Scout0,1,5,1
15796400,PickUpBattery,Bomber4,1,5,1
15878240,PickUpBattery,Bomber3,1,5,1
15903580,PickUpBattery,Bomber2,1,5,1
15935880,PickUpBattery,Bomber0,1,5,1
15969860,PickUpBattery,Scout0,1,5,1
16059740,PickUpBattery,Bomber1,1,5,1
16082040,PickUpBattery,Bomber1,1,5,1
16105500,PickUpBattery,Bomber0,1,5,1
16121840,PickUpBattery,Scout0,1,5,1
16137060,PickUpBattery,Bomber1,1,5,1
16225700,PickUpBattery,Bomber3,1,5,1
16234080,PickUpBattery,Bomber1,1,5,1
16306700,PickUpBattery,Bomber2,1,5,1
16336000,PickUpBattery,Scout0,1,5,1
16363540,PickUpBattery,Bomber0,1,5,1
16389340,PickUpBattery,Bomber4,1,5,1
16463260,PickUpBattery,Bomber1,1,5,1
16466580,PickUpBattery,Bomber2,1,5,1
16487980,PickUpBattery,Scout0,1,5,1
16538320,PickUpBattery,Bomber0,1,5,1
16645280,PickUpBattery,Bomber1,1,5,1
16686480,PickUpBattery,Bomber4,1,5,1
16702140,PickUpBattery,Scout0,1,5,1
16706700,PickUpBattery,Bomber0,1,5,1
16778360,PickUpBattery,Bomber3,1,5,1
16809340,PickUpBattery,Bomber0,1,5,1
16854120,PickUpBattery,Scout0,1,5,1
16916800,PickUpBattery,Bomber4,1,5,1
16946340,PickUpBattery,Bomber3,1,5,1
16984540,PickUpBattery,Bomber1,1,5,1
17043840,PickUpBattery,Bomber0,1,5,1
17068280,PickUpBattery,Scout0,1,5,1
17163440,PickUpBattery,Bomber1,1,5,1
17192600,PickUpBattery,Bomber4,1,5,1
17220260,PickUpBattery,Scout0,1,5,1
17254640,PickUpBattery,Bomber3,1,5,1
17279460,PickUpBattery,Bomber3,1,5,1
17297260,PickUpBattery,Bomber2,1,5,1
17369960,PickUpBattery,Bomber1,1,5,1
17434420,PickUpBattery,Scout0,1,5,1
17454460,PickUpBattery,Bomber3,1,5,1
17455940,PickUpBattery,Tank0,1,5,1
17457220,PickUpBattery,Bomber3,1,5,1
17517180,PickUpBattery,Bomber2,1,5,1
17556260,PickUpBattery,Bomber4,1,5,1
17586400,PickUpBattery,Scout0,1,5,1
17598880,PickUpBattery,Bomber4,1,5,1
17667020,PickUpBattery,Bomber0,1,5,1
17684320,PickUpBattery,Bomber1,1,5,1
17794940,PickUpBattery,Bomber4,1,5,1
17800560,PickUpBattery,Scout0,1,5,1
17816220,PickUpBattery,Bomber2,1,5,1
17891460,PickUpBattery,Bomber1,1,5,1
17924520,PickUpBattery,Bomber3,1,5,1
17950680,PickUpBattery,Bomber1,1,5,1
18094520,PickUpBattery,Bomber3,1,5,1
18100820,PickUpBattery,Bomber4,1,5,1
18273720,PickUpBattery,Bomber4,1,5,1
18281540,PickUpBattery,Bomber0,1,5,1
18373320,PickUpBattery,Bomber0,1,5,1
18499120,PickUpBattery,Bomber2,1,5,1
18542520,PickUpBattery,Scout0,1,5,1
18542520,PickUpBattery,Bomber3,1,5,1
18674580,PickUpBattery,Bomber0,1,5,1
18675040,PickUpBattery,Bomber2,1,5,1
18675260,PickUpBattery,Bomber0,1,5,1
18755880,PickUpBattery,Scout0,1,5,1
18784840,PickUpBattery,Bomber1,1,5,1
18870400,PickUpBattery,Bomber2,1,5,1
18907860,PickUpBattery,Scout0,1,5,1
18929240,PickUpBattery,Bomber4,1,5,1
18973160,PickUpBattery,Bomber1,1,5,1
19069720,PickUpBattery,Bomber0,1,5,1
19072440,PickUpBattery,Bomber3,1,5,1
19122020,PickUpBattery,Scout0,1,5,1
19127940,PickUpBattery,Bomber4,1,5,1
19172200,PickUpBattery,Bomber2,1,5,1
19180080,PickUpBattery,Bomber1,1,5,1
19214660,PickUpBattery,Tank0,1,5,1
19274000,PickUpBattery,Scout0,1,5,1
19289600,PickUpBattery,Bomber4,1,5,1
19341100,PickUpBattery,Bomber1,1,5,1
19374060,PickUpBattery,Bomber2,1,5,1
19409260,PickUpBattery,Bomber3,1,5,1
19488160,PickUpBattery,Scout0,1,5,1
19494720,PickUpBattery,Bomber4,1,5,1
19556800,PickUpBattery,Bomber0,1,5,1
19588460,PickUpBattery,Bomber3,1,5,1
19604140,PickUpBattery,Bomber4,1,5,1
19640140,PickUpBattery,Scout0,1,5,1
19677480,PickUpBattery,Bomber3,1,5,1
19780120,PickUpBattery,Bomber3,1,5,1
19797660,PickUpBattery,Bomber0,1,5,1
19829860,PickUpBattery,Bomber2,1,5,1
19835380,PickUpBattery,Bomber4,1,5,1
19854300,PickUpBattery,Scout0,1,5,1
19956200,PickUpBattery,Bomber1,1,5,1
20006280,PickUpBattery,Scout0,1,5,1
20045280,PickUpBattery,Bomber4,1,5,1
20061580,PickUpBattery,Bomber1,1,5,1
20087200,PickUpBattery,Bomber0,1,5,1
20108160,PickUpBattery,Bomber2,1,5,1
20216720,PickUpBattery,Bomber0,1,5,1
20220440,PickUpBattery,Scout0,1,5,1
20301840,PickUpBattery,Bomber3,1,5,1
20336640,PickUpBattery,Bomber1,1,5,1
20372420,PickUpBattery,Scout0,1,5,1
20392100,PickUpBattery,Bomber0,1,5,1
20407240,PickUpBattery,Bomber2,1,5,1
20478740,PickUpBattery,Bomber3,1,5,1
20586580,PickUpBattery,Scout0,1,5,1
20589180,PickUpBattery,Bomber2,1,5,1
20618780,PickUpBattery,Bomber4,1,5,1
20697980,PickUpBattery,Bomber1,1,5,1
20713360,PickUpBattery,Bomber2,1,5,1
20735020,PickUpBattery,Bomber4,1,5,1
20738560,PickUpBattery,Scout0,1,5,1
20831980,PickUpBattery,Bomber0,1,5,1
20879960,PickUpBattery,Bomber0,1,5,1
20896720,PickUpBattery,Bomber4,1,5,1
20945540,PickUpBattery,Bomber2,1,5,1
20952720,PickUpBattery,Scout0,1,5,1
20991640,PickUpBattery,Tank0,1,5,1
21013500,PickUpBattery,Bomber1,1,5,1
21083540,PickUpBattery,Bomber0,1,5,1
21104700,PickUpBattery,Scout0,1,5,1
21152420,PickUpBattery,Bomber4,1,5,1
21172000,PickUpBattery,Bomber1,1,5,1
21244100,PickUpBattery,Bomber2,1,5,1
21286520,PickUpBattery,Bomber4,1,5,1
21318860,PickUpBattery,Scout0,1,5,1
21349140,PickUpBattery,Bomber3,1,5,1
21429800,PickUpBattery,Bomber1,1,5,1
21459060,PickUpBattery,Bomber0,1,5,1
21470840,PickUpBattery,Scout0,1,5,1
21590380,PickUpBattery,Bomber3,1,5,1
21614980,PickUpBattery,Bomber0,1,5,1
21633100,PickUpBattery,Bomber1,1,5,1
21685000,PickUpBattery,Scout0,1,5,1
21703520,PickUpBattery,Bomber2,1,5,1
21749380,PickUpBattery,Bomber1,1,5,1
21824580,PickUpBattery,Scout0,1,5,1
21838120,PickUpBattery,Bomber4,1,5,1
21872360,PickUpBattery,Bomber1,1,5,1
21947440,PickUpBattery,Bomber3,1,5,1
22004800,PickUpBattery,Bomber4,1,5,1
22023060,PickUpBattery,Bomber0,1,5,1
22038740,PickUpBattery,Scout0,1,5,1
22115180,PickUpBattery,Bomber4,1,5,1
22190720,PickUpBattery,Scout0,1,5,1
22191480,PickUpBattery,Bomber2,1,5,1
22200380,PickUpBattery,Bomber1,1,5,1
22282100,PickUpBattery,Bomber4,1,5,1
22305460,PickUpBattery,Bomber3,1,5,1
22380220,PickUpBattery,Bomber2,1,5,1
22405260,PickUpBattery,Scout0,1,5,1
22474640,PickUpBattery,Bomber1,1,5,1
22490360,PickUpBattery,Bomber3,1,5,1
22520640,PickUpBattery,Bomber0,1,5,1
22557240,PickUpBattery,Scout0,1,5,1
22629660,PickUpBattery,Bomber4,1,5,1
22632680,PickUpBattery,Bomber1,1,5,1
22757160,PickUpBattery,Bomber0,1,5,1
22771400,PickUpBattery,Scout0,1,5,1
22789440,PickUpBattery,Bomber1,1,5,1
22873320,PickUpBattery,Tank0,1,5,1
22873560,PickUpBattery,Bomber2,1,5,1
22893860,PickUpBattery,Bomber4,1,5,1
22923380,PickUpBattery,Scout0,1,5,1
22960100,PickUpBattery,Bomber0,1,5,1
23005500,PickUpBattery,Bomber3,1,5,1
23032240,PickUpBattery,Bomber2,1,5,1
23104040,PickUpBattery,Bomber4,1,5,1
23137540,PickUpBattery,Scout0,1,5,1
23206060,PickUpBattery,Bomber1,1,5,1
23213080,PickUpBattery,Bomber4,1,5,1
23286480,PickUpBattery,Bomber2,1,5,1
23289520,PickUpBattery,Scout0,1,5,1
23339680,PickUpBattery,Bomber1,1,5,1
23433940,PickUpBattery,Bomber0,1,5,1
23444020,PickUpBattery,Bomber3,1,5,1
23503680,PickUpBattery,Scout0,1,5,1
23547760,PickUpBattery,Bomber2,1,5,1
23557060,PickUpBattery,Bomber1,1,5,1
23646300,PickUpBattery,Bomber0,1,5,1
23655660,PickUpBattery,Scout0,1,5,1
23703140,PickUpBattery,Bomber3,1,5,1
23744800,PickUpBattery,Bomber4,1,5,1
23826400,PickUpBattery,Bomber2,1,5,1
23869820,PickUpBattery,Scout0,1,5,1
23898860,PickUpBattery,Bomber4,1,5,1
23944140,PickUpBattery,Bomber1,1,5,1
24021800,PickUpBattery,Scout0,1,5,1
24028800,PickUpBattery,Bomber0,1,5,1
24064140,PickUpBattery,Bomber3,1,5,1
24065320,PickUpBattery,Bomber4,1,5,1
24153420,PickUpBattery,Bomber2,1,5,1
24210160,PickUpBattery,Bomber1,1,5,1
24235960,PickUpBattery,Scout0,1,5,1
24273420,PickUpBattery,Bomber4,1,5,1
24301740,PickUpBattery,Bomber0,1,5,1
24387940,PickUpBattery,Scout0,1,5,1
24393820,PickUpBattery,Bomber2,1,5,1
24469800,PickUpBattery,Bomber0,1,5,1
24498320,PickUpBattery,Bomber2,1,5,1
24546040,PickUpBattery,Bomber1,1,5,1
24602100,PickUpBattery,Scout0,1,5,1
24622260,PickUpBattery,Bomber2,1,5,1
24701220,PickUpBattery,Bomber0,1,5,1
24754080,PickUpBattery,Scout0,1,5,1
24765240,PickUpBattery,Bomber1,1,5,1
24774320,PickUpBattery,Bomber0,1,5,1
24778180,PickUpBattery,Bomber3,1,5,1
24835460,PickUpBattery,Tank0,1,5,1
24879900,PickUpBattery,Bomber1,1,5,1
24896740,PickUpBattery,Bomber2,1,5,1
24968240,PickUpBattery,Scout0,1,5,1
25025880,PickUpBattery,Bomber3,1,5,1
25046240,PickUpBattery,Bomber1,1,5,1
25060220,PickUpBattery,Bomber2,1,5,1
25120220,PickUpBattery,Scout0,1,5,1
25161460,PickUpBattery,Bomber1,1,5,1
25267220,PickUpBattery,Bomber3,1,5,1
25296980,PickUpBattery,Bomber0,1,5,1
25328300,PickUpBattery,Bomber4,1,5,1
25334380,PickUpBattery,Scout0,1,5,1
25351240,PickUpBattery,Bomber3,1,5,1
25449480,PickUpBattery,Bomber0,1,5,1
25470040,PickUpBattery,Bomber1,1,5,1
25486360,PickUpBattery,Scout0,1,5,1
25492700,PickUpBattery,Bomber4,1,5,1
25575900,PickUpBattery,Bomber1,1,5,1
25610480,TankNutrientPoorPlant,Tank0,1,5,1
25610540,TankNutrientPoorPlant,Tank0,1,5,1
25610660,TankNutrientPoorPlant,Tank0,1,5,1
25610780,TankNutrientPoorPlant,Tank0,1,5,1
25610980,TankNutrientPoorPlant,Tank0,1,5,1
25611060,TankNutrientPoorPlant,Tank0,1,5,1
25611080,TankNutrientPoorPlant,Tank0,1,5,1
25611220,TankNutrientPoorPlant,Tank0,1,5,1
25611320,TankNutrientPoorPlant,Tank0,1,5,1
25611460,TankNutrientPoorPlant,Tank0,1,5,1
25611500,TankNutrientPoorPlant,Tank0,1,5,1
25611580,TankNutrientPoorPlant,Tank0,1,5,1
25611720,TankNutrientPoorPlant,Tank0,1,5,1
25611760,TankNutrientPoorPlant,Tank0,1,5,1
25611780,TankNutrientPoorPlant,Tank0,1,5,1
25611920,TankNutrientPoorPlant,Tank0,1,5,1
25612000,TankNutrientPoorPlant,Tank0,1,5,1
25612100,TankNutrientPoorPlant,Tank0,1,5,1
25612240,TankNutrientPoorPlant,Tank0,1,5,1
25612320,TankNutrientPoorPlant,Tank0,1,5,1
25612600,TankNutrientPoorPlant,Tank0,1,5,1
25612860,TankNutrientPoorPlant,Tank0,1,5,1
25612980,TankNutrientPoorPlant,Tank0,1,5,1
25613400,TankNutrientPoorPlant,Tank0,1,5,1
25613440,TankNutrientPoorPlant,Tank0,1,5,1
25613500,TankNutrientPoorPlant,Tank0,1,5,1
25662360,PickUpBattery,Bomber4,1,5,1
25700520,PickUpBattery,Scout0,1,5,1
25736260,PickUpBattery,Bomber3,1,5,1
25782320,PickUpBattery,Bomber1,1,5,1
25845660,PickUpBattery,Bomber4,1,5,1
25852500,PickUpBattery,Scout0,1,5,1
25925540,PickUpBattery,Bomber2,1,5,1
25934680,PickUpBattery,Bomber3,1,5,1
26051860,PickUpBattery,Bomber4,1,5,1
26066660,PickUpBattery,Scout0,1,5,1
26092540,PickUpBattery,Bomber0,1,5,1
26107300,PickUpBattery,Bomber2,1,5,1
26140240,PickUpBattery,Bomber0,1,5,1
26185220,UseFertilizer,Tank0,1,5,1
26185240,PickUpBattery,Bomber1,1,5,1
26218640,PickUpBattery,Scout0,1,5,1
26294020,PickUpBattery,Bomber3,1,5,1
26300900,PickUpBattery,Bomber4,1,5,1
26340480,PickUpBattery,Bomber1,1,5,1
26358540,PickUpBattery,Tank0,1,5,1
26432800,PickUpBattery,Scout0,1,5,1
26447220,PickUpBattery,Bomber2,1,5,1
26513240,PickUpBattery,Bomber4,1,5,1
26542240,PickUpBattery,Bomber3,1,5,1
26584780,PickUpBattery,Scout0,1,5,1
26594080,PickUpBattery,Bomber1,1,5,1
26684740,PickUpBattery,Bomber4,1,5,1
26726840,PickUpBattery,Bomber0,1,5,1
26743760,PickUpBattery,Bomber2,1,5,1
26791040,PickUpBattery,Bomber2,1,5,1
26798940,PickUpBattery,Scout0,1,5,1
26878180,PickUpBattery,Bomber1,1,5,1
26948740,PickUpBattery,Bomber3,1,5,1
26950920,PickUpBattery,Scout0,1,5,1
26953300,PickUpBattery,Bomber0,1,5,1
27046460,PickUpBattery,Bomber4,1,5,1
27080320,PickUpBattery,Bomber1,1,5,1
27102480,PickUpBattery,Bomber0,1,5,1
27165080,PickUpBattery,Scout0,1,5,1
27198840,PickUpBattery,Bomber4,1,5,1
27217780,PickUpBattery,Bomber0,1,5,1
27279760,PickUpBattery,Bomber1,1,5,1
27300880,PickUpBattery,Bomber2,1,5,1
27317060,PickUpBattery,Scout0,1,5,1
27389120,PickUpBattery,Bomber4,1,5,1
27393120,PickUpBattery,Bomber1,1,5,1
27475200,PickUpBattery,Bomber0,1,5,1
27524600,PickUpBattery,Bomber2,1,5,1
27531220,PickUpBattery,Scout0,1,5,1
27586100,PickUpBattery,Bomber3,1,5,1
27623880,PickUpBattery,Bomber0,1,5,1
27683200,PickUpBattery,Scout0,1,5,1
27715780,PickUpBattery,Bomber1,1,5,1
27789960,PickUpBattery,Bomber2,1,5,1
27815780,PickUpBattery,Bomber0,1,5,1
27857520,PickUpBattery,Bomber4,1,5,1
27891980,PickUpBattery,Bomber3,1,5,1
27897360,PickUpBattery,Scout0,1,5,1
27995980,PickUpBattery,Tank0,1,5,1
28015000,PickUpBattery,Bomber1,1,5,1
28033860,PickUpBattery,Bomber4,1,5,1
28049340,PickUpBattery,Scout0,1,5,1
28086960,PickUpBattery,Bomber2,1,5,1
28112740,PickUpBattery,Bomber0,1,5,1
28225400,PickUpBattery,Bomber4,1,5,1
28236620,PickUpBattery,Bomber2,1,5,1
28263500,PickUpBattery,Scout0,1,5,1
28293560,PickUpBattery,Bomber1,1,5,1
28294020,PickUpBattery,Bomber0,1,5,1
28319880,PickUpBattery,Bomber2,1,5,1
28415480,PickUpBattery,Scout0,1,5,1
28417540,PickUpBattery,Bomber0,1,5,1
28532220,PickUpBattery,Bomber4,1,5,1
28537020,PickUpBattery,Bomber1,1,5,1
28612860,PickUpBattery,Bomber2,1,5,1
28629640,PickUpBattery,Scout0,1,5,1
28696520,PickUpBattery,Bomber1,1,5,1
28758280,PickUpBattery,Bomber3,1,5,1
28763860,PickUpBattery,Bomber4,1,5,1
28781620,PickUpBattery,Scout0,1,5,1
28793600,PickUpBattery,Bomber2,1,5,1
28844440,PickUpBattery,Bomber0,1,5,1
28922440,PickUpBattery,Bomber1,1,5,1
28978880,PickUpBattery,Bomber4,1,5,1
28995780,PickUpBattery,Scout0,1,5,1
29032400,PickUpBattery,Bomber3,1,5,1
29039580,PickUpBattery,Bomber2,1,5,1
29147760,PickUpBattery,Scout0,1,5,1
29152100,PickUpBattery,Bomber4,1,5,1
29216320,PickUpBattery,Bomber2,1,5,1
29217060,PickUpBattery,Tank0,1,5,1
29218340,PickUpBattery,Bomber0,1,5,1
29256220,PickUpBattery,Bomber1,1,5,1
29298480,PickUpBattery,Bomber0,1,5,1
29361920,PickUpBattery,Scout0,1,5,1
29438880,PickUpBattery,Bomber2,1,5,1
29474020,PickUpBattery,Bomber4,1,5,1
29513900,PickUpBattery,Scout0,1,5,1
29516000,PickUpBattery,Bomber0,1,5,1
29550820,PickUpBattery,Bomber1,1,5,1
29652120,PickUpBattery,Bomber4,1,5,1
29702540,PickUpBattery,Bomber1,1,5,1
29716820,PickUpBattery,Bomber0,1,5,1
29727040,PickUpBattery,Scout0,1,5,1
