time,event,agent,scouts,bombers,tanks
71780,BomberInfestedPlant,Bomber1,1,3,3
71800,BomberInfestedPlant,Bomber1,1,3,3
71920,BomberInfestedPlant,Bomber1,1,3,3
72080,BomberInfestedPlant,Bomber1,1,3,3
72160,BomberInfestedPlant,Bomber1,1,3,3
72280,BomberInfestedPlant,Bomber1,1,3,3
72340,BomberInfestedPlant,Bomber1,1,3,3
72600,BomberInfestedPlant,Bomber1,1,3,3
72660,BomberInfestedPlant,Bomber1,1,3,3
72680,BomberInfestedPlant,Bomber1,1,3,3
72780,BomberInfestedPlant,Bomber0,1,3,3
72800,BomberInfestedPlant,Bomber1,1,3,3
72880,BomberInfestedPlant,Bomber0,1,3,3
73220,BomberInfestedPlant,Bomber0,1,3,3
73280,BomberInfestedPlant,Bomber1,1,3,3
73300,BomberInfestedPlant,Bomber1,1,3,3
73420,BomberInfestedPlant,Bomber0,1,3,3
73440,BomberInfestedPlant,Bomber1,1,3,3
73980,BomberInfestedPlant,Bomber1,1,3,3
74000,BomberInfestedPlant,Bomber1,1,3,3
74100,BomberInfestedPlant,Bomber0,1,3,3
74260,BomberInfestedPlant,Bomber0,1,3,3
74280,BomberInfestedPlant,Bomber1,1,3,3
74420,BomberInfestedPlant,Bomber1,1,3,3
74540,BomberInfestedPlant,Bomber0,1,3,3
74600,BomberInfestedPlant,Bomber0,1,3,3
74680,BomberInfestedPlant,Bomber0,1,3,3
74740,BomberInfestedPlant,Bomber0,1,3,3
74800,BomberInfestedPlant,Bomber1,1,3,3
74820,BomberInfestedPlant,Bomber0,1,3,3
74840,BomberInfestedPlant,Bomber1,1,3,3
74880,BomberInfestedPlant,Bomber1,1,3,3
75140,BomberInfestedPlant,Bomber0,1,3,3
75300,BomberInfestedPlant,Bomber1,1,3,3
75420,BomberInfestedPlant,Bomber0,1,3,3
75440,BomberInfestedPlant,Bomber1,1,3,3
75500,BomberInfestedPlant,Bomber1,1,3,3
75780,BomberInfestedPlant,Bomber1,1,3,3
75920,BomberInfestedPlant,Bomber1,1,3,3
75940,BomberInfestedPlant,Bomber1,1,3,3
75960,BomberInfestedPlant,Bomber0,1,3,3
76380,BomberInfestedPlant,Bomber0,1,3,3
76480,BomberInfestedPlant,Bomber1,1,3,3
76540,BomberInfestedPlant,Bomber0,1,3,3
76800,BomberInfestedPlant,Bomber1,1,3,3
77020,BomberInfestedPlant,Bomber0,1,3,3
77140,BomberInfestedPlant,Bomber0,1,3,3
77200,BomberInfestedPlant,Bomber1,1,3,3
77260,BomberInfestedPlant,Bomber1,1,3,3
77380,BomberInfestedPlant,Bomber0,1,3,3
77440,BomberInfestedPlant,Bomber1,1,3,3
77640,BomberInfestedPlant,Bomber1,1,3,3
77860,BomberInfestedPlant,Bomber1,1,3,3
77900,BomberInfestedPlant,Bomber0,1,3,3
78040,BomberInfestedPlant,Bomber0,1,3,3
78040,BomberInfestedPlant,Bomber1,1,3,3
78060,BomberInfestedPlant,Bomber1,1,3,3
78200,BomberInfestedPlant,Bomber0,1,3,3
78280,BomberInfestedPlant,Bomber1,1,3,3
78460,BomberInfestedPlant,Bomber0,1,3,3
78560,BomberInfestedPlant,Bomber1,1,3,3
78740,BomberInfestedPlant,Bomber0,1,3,3
78840,BomberInfestedPlant,Bomber0,1,3,3
78920,BomberInfestedPlant,Bomber1,1,3,3
79360,BomberInfestedPlant,Bomber0,1,3,3
79360,BomberInfestedPlant,Bomber1,1,3,3
79520,BomberInfestedPlant,Bomber1,1,3,3
79680,BomberInfestedPlant,Bomber1,1,3,3
79960,BomberInfestedPlant,Bomber1,1,3,3
79980,BomberInfestedPlant,Bomber1,1,3,3
80380,BomberInfestedPlant,Bomber0,1,3,3
80720,BomberInfestedPlant,Bomber0,1,3,3
80800,BomberInfestedPlant,Bomber1,1,3,3
80880,BomberInfestedPlant,Bomber1,1,3,3
80940,BomberInfestedPlant,Bomber0,1,3,3
80960,BomberInfestedPlant,Bomber0,1,3,3
80980,BomberInfestedPlant,Bomber1,1,3,3
81040,BomberInfestedPlant,Bomber1,1,3,3
81080,BomberInfestedPlant,Bomber0,1,3,3
81200,BomberInfestedPlant,Bomber1,1,3,3
81220,BomberInfestedPlant,Bomber0,1,3,3
81220,BomberInfestedPlant,Bomber1,1,3,3
81280,BomberInfestedPlant,Bomber0,1,3,3
81320,BomberInfestedPlant,Bomber0,1,3,3
81400,BomberInfestedPlant,Bomber0,1,3,3
81480,BomberInfestedPlant,Bomber1,1,3,3
81540,BomberInfestedPlant,Bomber0,1,3,3
81600,BomberInfestedPlant,Bomber1,1,3,3
81620,BomberInfestedPlant,Bomber0,1,3,3
81660,BomberInfestedPlant,Bomber1,1,3,3
81960,BomberInfestedPlant,Bomber1,1,3,3
82080,BomberInfestedPlant,Bomber0,1,3,3
82130,BomberInfestedPlant,Bomber1,1,3,3
82160,BomberInfestedPlant,Bomber0,1,3,3
82260,BomberInfestedPlant,Bomber1,1,3,3
82280,BomberInfestedPlant,Bomber1,1,3,3
82320,BomberInfestedPlant,Bomber1,1,3,3
82420,BomberInfestedPlant,Bomber0,1,3,3
82540,BomberInfestedPlant,Bomber0,1,3,3
82660,BomberInfestedPlant,Bomber1,1,3,3
82760,BomberInfestedPlant,Bomber0,1,3,3
82760,BomberInfestedPlant,Bomber1,1,3,3
82780,BomberInfestedPlant,Bomber0,1,3,3
83120,BomberInfestedPlant,Bomber1,1,3,3
83380,BomberInfestedPlant,Bomber0,1,3,3
83420,BomberInfestedPlant,Bomber0,1,3,3
83580,BomberInfestedPlant,Bomber1,1,3,3
83920,BomberInfestedPlant,Bomber1,1,3,3
84040,BomberInfestedPlant,Bomber0,1,3,3
84080,BomberInfestedPlant,Bomber0,1,3,3
84400,BomberInfestedPlant,Bomber0,1,3,3
84560,BomberInfestedPlant,Bomber0,1,3,3
84780,BomberInfestedPlant,Bomber0,1,3,3
84900,BomberInfestedPlant,Bomber0,1,3,3
84980,BomberInfestedPlant,Bomber1,1,3,3
85120,BomberInfestedPlant,Bomber0,1,3,3
85140,BomberInfestedPlant,Bomber0,1,3,3
85280,BomberInfestedPlant,Bomber1,1,3,3
85460,BomberInfestedPlant,Bomber1,1,3,3
85580,BomberInfestedPlant,Bomber1,1,3,3
85600,BomberInfestedPlant,Bomber0,1,3,3
85600,BomberInfestedPlant,Bomber1,1,3,3
86180,BomberInfestedPlant,Bomber0,1,3,3
86180,BomberInfestedPlant,Bomber1,1,3,3
86200,BomberInfestedPlant,Bomber1,1,3,3
86220,BomberInfestedPlant,Bomber0,1,3,3
86320,BomberInfestedPlant,Bomber1,1,3,3
86460,BomberInfestedPlant,Bomber0,1,3,3
86580,BomberInfestedPlant,Bomber1,1,3,3
86640,BomberInfestedPlant,Bomber1,1,3,3
86680,BomberInfestedPlant,Bomber0,1,3,3
86720,BomberInfestedPlant,Bomber1,1,3,3
87120,BomberInfestedPlant,Bomber0,1,3,3
87140,BomberInfestedPlant,Bomber1,1,3,3
87640,BomberInfestedPlant,Bomber1,1,3,3
87720,BomberInfestedPlant,Bomber1,1,3,3
87820,BomberInfestedPlant,Bomber1,1,3,3
87860,BomberInfestedPlant,Bomber0,1,3,3
89980,BomberInfestedPlant,Bomber1,1,3,3
90080,BomberInfestedPlant,Bomber0,1,3,3
90320,BomberInfestedPlant,Bomber0,1,3,3
90420,BomberInfestedPlant,Bomber0,1,3,3
90900,BomberInfestedPlant,Bomber1,1,3,3
91020,BomberInfestedPlant,Bomber1,1,3,3
91440,BomberInfestedPlant,Bomber1,1,3,3
91500,BomberInfestedPlant,Bomber1,1,3,3
92220,BomberInfestedPlant,Bomber1,1,3,3
92560,UsePesticide,Bomber1,1,3,3
92860,BomberInfestedPlant,Bomber1,1,3,3
92980,BomberInfestedPlant,Bomber1,1,3,3
93020,BomberInfestedPlant,Bomber1,1,3,3
93300,BomberInfestedPlant,Bomber1,1,3,3
93320,BomberInfestedPlant,Bomber1,1,3,3
94060,BomberInfestedPlant,Bomber1,1,3,3
94400,BomberInfestedPlant,Bomber1,1,3,3
94440,BomberInfestedPlant,Bomber1,1,3,3
95080,BomberInfestedPlant,Bomber1,1,3,3
95260,BomberInfestedPlant,Bomber1,1,3,3
95340,BomberInfestedPlant,Bomber1,1,3,3
95600,BomberInfestedPlant,Bomber1,1,3,3
96960,BomberInfestedPlant,Bomber1,1,3,3
97160,BomberInfestedPlant,Bomber1,1,3,3
97260,BomberInfestedPlant,Bomber1,1,3,3
97480,BomberInfestedPlant,Bomber2,1,3,3
97500,BomberInfestedPlant,Bomber1,1,3,3
97700,BomberInfestedPlant,Bomber1,1,3,3
97780,BomberInfestedPlant,Bomber1,1,3,3
97820,BomberInfestedPlant,Bomber1,1,3,3
97880,BomberInfestedPlant,Bomber1,1,3,3
97920,BomberInfestedPlant,Bomber1,1,3,3
98040,BomberInfestedPlant,Bomber1,1,3,3
98040,BomberInfestedPlant,Bomber2,1,3,3
98120,BomberInfestedPlant,Bomber1,1,3,3
98620,BomberInfestedPlant,Bomber1,1,3,3
98660,BomberInfestedPlant,Bomber1,1,3,3
98820,BomberInfestedPlant,Bomber2,1,3,3
98840,BomberInfestedPlant,Bomber2,1,3,3
98900,BomberInfestedPlant,Bomber2,1,3,3
98920,BomberInfestedPlant,Bomber1,1,3,3
99160,BomberInfestedPlant,Bomber2,1,3,3
99400,BomberInfestedPlant,Bomber2,1,3,3
99500,BomberInfestedPlant,Bomber1,1,3,3
99540,BomberInfestedPlant,Bomber1,1,3,3
99600,BomberInfestedPlant,Bomber1,1,3,3
99700,BomberInfestedPlant,Bomber2,1,3,3
100040,BomberInfestedPlant,Bomber1,1,3,3
100040,BomberInfestedPlant,Bomber2,1,3,3
100220,BomberInfestedPlant,Bomber1,1,3,3
100240,BomberInfestedPlant,Bomber2,1,3,3
100500,BomberInfestedPlant,Bomber1,1,3,3
100800,BomberInfestedPlant,Bomber1,1,3,3
101140,BomberInfestedPlant,Bomber2,1,3,3
101180,BomberInfestedPlant,Bomber1,1,3,3
101360,BomberInfestedPlant,Bomber2,1,3,3
101420,BomberInfestedPlant,Bomber2,1,3,3
102340,BomberInfestedPlant,Bomber1,1,3,3
102360,BomberInfestedPlant,Bomber1,1,3,3
102360,BomberInfestedPlant,Bomber2,1,3,3
102500,BomberInfestedPlant,Bomber1,1,3,3
102760,BomberInfestedPlant,Bomber1,1,3,3
102940,BomberInfestedPlant,Bomber1,1,3,3
103080,BomberInfestedPlant,Bomber1,1,3,3
103180,BomberInfestedPlant,Bomber2,1,3,3
103880,BomberInfestedPlant,Bomber1,1,3,3
104100,BomberInfestedPlant,Bomber2,1,3,3
104200,BomberInfestedPlant,Bomber1,1,3,3
104220,BomberInfestedPlant,Bomber1,1,3,3
104240,BomberInfestedPlant,Bomber1,1,3,3
104340,BomberInfestedPlant,Bomber2,1,3,3
104460,BomberInfestedPlant,Bomber1,1,3,3
104840,BomberInfestedPlant,Bomber1,1,3,3
104860,BomberInfestedPlant,Bomber2,1,3,3
105080,BomberInfestedPlant,Bomber2,1,3,3
105200,BomberInfestedPlant,Bomber1,1,3,3
105260,BomberInfestedPlant,Bomber1,1,3,3
105380,BomberInfestedPlant,Bomber1,1,3,3
105520,BomberInfestedPlant,Bomber2,1,3,3
105580,BomberInfestedPlant,Bomber2,1,3,3
105800,BomberInfestedPlant,Bomber1,1,3,3
105820,BomberInfestedPlant,Bomber1,1,3,3
105920,BomberInfestedPlant,Bomber1,1,3,3
106060,BomberInfestedPlant,Bomber2,1,3,3
106160,BomberInfestedPlant,Bomber1,1,3,3
106200,BomberInfestedPlant,Bomber1,1,3,3
122720,UsePesticide,Bomber2,1,3,3
144880,PickUpBattery,Scout0,1,3,3
176620,PickUpBattery,Bomber2,1,3,3
193660,PickUpBattery,Bomber0,1,3,3
193960,PickUpBattery,Bomber1,1,3,3
212380,TankNutrientPoorPlant,Tank1,1,3,3
212440,TankNutrientPoorPlant,Tank1,1,3,3
212640,TankNutrientPoorPlant,Tank1,1,3,3
212660,TankNutrientPoorPlant,Tank1,1,3,3
212900,TankNutrientPoorPlant,Tank1,1,3,3
213100,TankNutrientPoorPlant,Tank1,1,3,3
213160,TankNutrientPoorPlant,Tank1,1,3,3
213240,TankNutrientPoorPlant,Tank1,1,3,3
213380,TankNutrientPoorPlant,Tank1,1,3,3
213520,TankNutrientPoorPlant,Tank1,1,3,3
213560,TankNutrientPoorPlant,Tank1,1,3,3
213800,TankNutrientPoorPlant,Tank1,1,3,3
213920,TankNutrientPoorPlant,Tank1,1,3,3
213940,TankNutrientPoorPlant,Tank1,1,3,3
214040,TankNutrientPoorPlant,Tank1,1,3,3
214140,TankNutrientPoorPlant,Tank1,1,3,3
214300,TankNutrientPoorPlant,Tank1,1,3,3
214380,TankNutrientPoorPlant,Tank1,1,3,3
214420,TankNutrientPoorPlant,Tank1,1,3,3
214540,TankNutrientPoorPlant,Tank1,1,3,3
214560,TankNutrientPoorPlant,Tank1,1,3,3
214600,TankNutrientPoorPlant,Tank1,1,3,3
214680,TankNutrientPoorPlant,Tank1,1,3,3
214780,TankNutrientPoorPlant,Tank1,1,3,3
214860,TankNutrientPoorPlant,Tank1,1,3,3
214880,TankNutrientPoorPlant,Tank1,1,3,3
214960,TankNutrientPoorPlant,Tank1,1,3,3
215060,TankNutrientPoorPlant,Tank1,1,3,3
215120,TankNutrientPoorPlant,Tank1,1,3,3
215160,TankNutrientPoorPlant,Tank1,1,3,3
215300,TankNutrientPoorPlant,Tank1,1,3,3
215540,TankNutrientPoorPlant,Tank1,1,3,3
215560,TankNutrientPoorPlant,Tank1,1,3,3
215840,TankNutrientPoorPlant,Tank1,1,3,3
215900,TankNutrientPoorPlant,Tank1,1,3,3
215920,TankNutrientPoorPlant,Tank1,1,3,3
215940,TankNutrientPoorPlant,Tank1,1,3,3
216320,TankNutrientPoorPlant,Tank1,1,3,3
216440,TankNutrientPoorPlant,Tank1,1,3,3
216460,TankNutrientPoorPlant,Tank1,1,3,3
216560,TankNutrientPoorPlant,Tank1,1,3,3
216740,TankNutrientPoorPlant,Tank1,1,3,3
216860,TankNutrientPoorPlant,Tank1,1,3,3
216880,TankNutrientPoorPlant,Tank1,1,3,3
217980,TankNutrientPoorPlant,Tank1,1,3,3
218080,TankNutrientPoorPlant,Tank1,1,3,3
218120,TankNutrientPoorPlant,Tank1,1,3,3
218200,TankNutrientPoorPlant,Tank1,1,3,3
218360,TankNutrientPoorPlant,Tank1,1,3,3
218380,TankNutrientPoorPlant,Tank1,1,3,3
218560,TankNutrientPoorPlant,Tank1,1,3,3
218580,TankNutrientPoorPlant,Tank1,1,3,3
218640,TankNutrientPoorPlant,Tank1,1,3,3
218700,TankNutrientPoorPlant,Tank1,1,3,3
218820,TankNutrientPoorPlant,Tank1,1,3,3
219120,TankNutrientPoorPlant,Tank1,1,3,3
219140,TankNutrientPoorPlant,Tank1,1,3,3
219180,TankNutrientPoorPlant,Tank1,1,3,3
219200,TankNutrientPoorPlant,Tank1,1,3,3
219220,TankNutrientPoorPlant,Tank1,1,3,3
219580,TankNutrientPoorPlant,Tank1,1,3,3
219640,TankNutrientPoorPlant,Tank1,1,3,3
219760,TankNutrientPoorPlant,Tank1,1,3,3
219780,TankNutrientPoorPlant,Tank1,1,3,3
219840,TankNutrientPoorPlant,Tank1,1,3,3
219860,TankNutrientPoorPlant,Tank1,1,3,3
220000,TankNutrientPoorPlant,Tank1,1,3,3
220020,TankNutrientPoorPlant,Tank1,1,3,3
220220,TankNutrientPoorPlant,Tank1,1,3,3
220320,TankNutrientPoorPlant,Tank1,1,3,3
220440,TankNutrientPoorPlant,Tank1,1,3,3
220460,TankNutrientPoorPlant,Tank1,1,3,3
220500,TankNutrientPoorPlant,Tank1,1,3,3
220700,TankNutrientPoorPlant,Tank1,1,3,3
220720,TankNutrientPoorPlant,Tank1,1,3,3
220720,TankNutrientPoorPlant,Tank1,1,3,3
220740,TankNutrientPoorPlant,Tank1,1,3,3
220800,TankNutrientPoorPlant,Tank1,1,3,3
221060,TankNutrientPoorPlant,Tank1,1,3,3
221060,TankNutrientPoorPlant,Tank1,1,3,3
221100,TankNutrientPoorPlant,Tank1,1,3,3
221100,TankNutrientPoorPlant,Tank1,1,3,3
221140,TankNutrientPoorPlant,Tank1,1,3,3
221160,TankNutrientPoorPlant,Tank1,1,3,3
221200,TankNutrientPoorPlant,Tank1,1,3,3
221200,TankNutrientPoorPlant,Tank1,1,3,3
221260,TankNutrientPoorPlant,Tank1,1,3,3
221360,TankNutrientPoorPlant,Tank1,1,3,3
221380,TankNutrientPoorPlant,Tank1,1,3,3
221420,TankNutrientPoorPlant,Tank1,1,3,3
221420,TankNutrientPoorPlant,Tank1,1,3,3
227120,UsePesticide,Bomber1,1,3,3
227360,UsePesticide,Bomber0,1,3,3
260500,TankNutrientPoorPlant,Tank1,1,3,3
260660,TankNutrientPoorPlant,Tank1,1,3,3
261040,TankNutrientPoorPlant,Tank1,1,3,3
261120,TankNutrientPoorPlant,Tank1,1,3,3
261240,TankNutrientPoorPlant,Tank1,1,3,3
261380,TankNutrientPoorPlant,Tank1,1,3,3
261500,TankNutrientPoorPlant,Tank1,1,3,3
261560,TankNutrientPoorPlant,Tank1,1,3,3
261580,TankNutrientPoorPlant,Tank1,1,3,3
261780,TankNutrientPoorPlant,Tank1,1,3,3
261920,TankNutrientPoorPlant,Tank1,1,3,3
262020,TankNutrientPoorPlant,Tank1,1,3,3
262100,TankNutrientPoorPlant,Tank1,1,3,3
262260,TankNutrientPoorPlant,Tank1,1,3,3
262340,TankNutrientPoorPlant,Tank1,1,3,3
262380,TankNutrientPoorPlant,Tank1,1,3,3
262420,TankNutrientPoorPlant,Tank1,1,3,3
262520,TankNutrientPoorPlant,Tank1,1,3,3
262560,TankNutrientPoorPlant,Tank1,1,3,3
262720,TankNutrientPoorPlant,Tank1,1,3,3
262760,TankNutrientPoorPlant,Tank1,1,3,3
262820,TankNutrientPoorPlant,Tank1,1,3,3
262860,TankNutrientPoorPlant,Tank1,1,3,3
263140,TankNutrientPoorPlant,Tank1,1,3,3
263180,TankNutrientPoorPlant,Tank1,1,3,3
263460,TankNutrientPoorPlant,Tank1,1,3,3
263760,TankNutrientPoorPlant,Tank1,1,3,3
263780,TankNutrientPoorPlant,Tank1,1,3,3
263900,TankNutrientPoorPlant,Tank1,1,3,3
264060,TankNutrientPoorPlant,Tank1,1,3,3
264240,TankNutrientPoorPlant,Tank1,1,3,3
264320,TankNutrientPoorPlant,Tank1,1,3,3
264700,TankNutrientPoorPlant,Tank1,1,3,3
264780,TankNutrientPoorPlant,Tank1,1,3,3
264860,TankNutrientPoorPlant,Tank1,1,3,3
264960,TankNutrientPoorPlant,Tank1,1,3,3
265000,TankNutrientPoorPlant,Tank1,1,3,3
265020,TankNutrientPoorPlant,Tank1,1,3,3
265060,TankNutrientPoorPlant,Tank1,1,3,3
265160,TankNutrientPoorPlant,Tank1,1,3,3
265240,TankNutrientPoorPlant,Tank1,1,3,3
265280,TankNutrientPoorPlant,Tank1,1,3,3
265360,TankNutrientPoorPlant,Tank1,1,3,3
265380,TankNutrientPoorPlant,Tank1,1,3,3
265500,TankNutrientPoorPlant,Tank1,1,3,3
265560,TankNutrientPoorPlant,Tank1,1,3,3
265700,TankNutrientPoorPlant,Tank1,1,3,3
265740,TankNutrientPoorPlant,Tank1,1,3,3
266180,TankNutrientPoorPlant,Tank1,1,3,3
266200,TankNutrientPoorPlant,Tank1,1,3,3
266420,TankNutrientPoorPlant,Tank1,1,3,3
266900,TankNutrientPoorPlant,Tank1,1,3,3
267160,TankNutrientPoorPlant,Tank1,1,3,3
267600,TankNutrientPoorPlant,Tank1,1,3,3
267620,TankNutrientPoorPlant,Tank1,1,3,3
267860,TankNutrientPoorPlant,Tank1,1,3,3
268020,TankNutrientPoorPlant,Tank1,1,3,3
268220,TankNutrientPoorPlant,Tank1,1,3,3
268300,TankNutrientPoorPlant,Tank1,1,3,3
268420,TankNutrientPoorPlant,Tank1,1,3,3
268800,TankNutrientPoorPlant,Tank1,1,3,3
268860,TankNutrientPoorPlant,Tank1,1,3,3
269040,TankNutrientPoorPlant,Tank1,1,3,3
269040,TankNutrientPoorPlant,Tank1,1,3,3
269160,TankNutrientPoorPlant,Tank1,1,3,3
269180,TankNutrientPoorPlant,Tank1,1,3,3
269220,TankNutrientPoorPlant,Tank1,1,3,3
269260,TankNutrientPoorPlant,Tank1,1,3,3
269260,TankNutrientPoorPlant,Tank1,1,3,3
269340,TankNutrientPoorPlant,Tank1,1,3,3
269360,TankNutrientPoorPlant,Tank1,1,3,3
269360,TankNutrientPoorPlant,Tank1,1,3,3
269400,TankNutrientPoorPlant,Tank1,1,3,3
269440,TankNutrientPoorPlant,Tank1,1,3,3
269440,TankNutrientPoorPlant,Tank1,1,3,3
269500,TankNutrientPoorPlant,Tank1,1,3,3
269660,TankNutrientPoorPlant,Tank1,1,3,3
269680,TankNutrientPoorPlant,Tank1,1,3,3
269720,TankNutrientPoorPlant,Tank1,1,3,3
269740,TankNutrientPoorPlant,Tank1,1,3,3
269780,TankNutrientPoorPlant,Tank1,1,3,3
270040,TankNutrientPoorPlant,Tank1,1,3,3
270180,TankNutrientPoorPlant,Tank1,1,3,3
270200,TankNutrientPoorPlant,Tank1,1,3,3
270220,TankNutrientPoorPlant,Tank1,1,3,3
270340,TankNutrientPoorPlant,Tank1,1,3,3
270500,TankNutrientPoorPlant,Tank1,1,3,3
270540,TankNutrientPoorPlant,Tank1,1,3,3
270780,TankNutrientPoorPlant,Tank1,1,3,3
270820,TankNutrientPoorPlant,Tank1,1,3,3
270860,TankNutrientPoorPlant,Tank1,1,3,3
270920,TankNutrientPoorPlant,Tank1,1,3,3
271420,TankNutrientPoorPlant,Tank1,1,3,3
271860,TankNutrientPoorPlant,Tank1,1,3,3
271920,TankNutrientPoorPlant,Tank1,1,3,3
272000,TankNutrientPoorPlant,Tank1,1,3,3
272140,TankNutrientPoorPlant,Tank1,1,3,3
272220,TankNutrientPoorPlant,Tank1,1,3,3
272320,TankNutrientPoorPlant,Tank1,1,3,3
272520,TankNutrientPoorPlant,Tank1,1,3,3
272620,TankNutrientPoorPlant,Tank1,1,3,3
272640,TankNutrientPoorPlant,Tank1,1,3,3
272720,TankNutrientPoorPlant,Tank1,1,3,3
272820,TankNutrientPoorPlant,Tank1,1,3,3
272880,TankNutrientPoorPlant,Tank1,1,3,3
338760,PickUpBattery,Bomber2,1,3,3
359040,PickUpBattery,Scout0,1,3,3
417060,PickUpBattery,Bomber1,1,3,3
456460,UseFertilizer,Tank1,1,3,3
511020,PickUpBattery,Scout0,1,3,3
559420,PickUpBattery,Bomber2,1,3,3
576200,UsePesticide,Bomber0,1,3,3
578360,TankNutrientPoorPlant,Tank1,1,3,3
578500,TankNutrientPoorPlant,Tank1,1,3,3
578520,TankNutrientPoorPlant,Tank1,1,3,3
578620,TankNutrientPoorPlant,Tank1,1,3,3
578800,TankNutrientPoorPlant,Tank1,1,3,3
578880,TankNutrientPoorPlant,Tank1,1,3,3
578920,TankNutrientPoorPlant,Tank1,1,3,3
578960,TankNutrientPoorPlant,Tank1,1,3,3
579040,TankNutrientPoorPlant,Tank1,1,3,3
579080,TankNutrientPoorPlant,Tank1,1,3,3
579100,TankNutrientPoorPlant,Tank1,1,3,3
579420,TankNutrientPoorPlant,Tank1,1,3,3
579720,TankNutrientPoorPlant,Tank1,1,3,3
579760,TankNutrientPoorPlant,Tank1,1,3,3
579780,TankNutrientPoorPlant,Tank1,1,3,3
580020,TankNutrientPoorPlant,Tank1,1,3,3
580100,TankNutrientPoorPlant,Tank1,1,3,3
580180,TankNutrientPoorPlant,Tank1,1,3,3
580760,TankNutrientPoorPlant,Tank1,1,3,3
580840,TankNutrientPoorPlant,Tank1,1,3,3
580960,TankNutrientPoorPlant,Tank1,1,3,3
581560,TankNutrientPoorPlant,Tank1,1,3,3
581920,TankNutrientPoorPlant,Tank1,1,3,3
581960,TankNutrientPoorPlant,Tank1,1,3,3
582000,TankNutrientPoorPlant,Tank1,1,3,3
582080,TankNutrientPoorPlant,Tank1,1,3,3
582140,TankNutrientPoorPlant,Tank1,1,3,3
582160,TankNutrientPoorPlant,Tank1,1,3,3
582200,TankNutrientPoorPlant,Tank1,1,3,3
582420,TankNutrientPoorPlant,Tank1,1,3,3
582540,TankNutrientPoorPlant,Tank1,1,3,3
582580,TankNutrientPoorPlant,Tank1,1,3,3
582640,TankNutrientPoorPlant,Tank1,1,3,3
582700,TankNutrientPoorPlant,Tank1,1,3,3
582720,TankNutrientPoorPlant,Tank1,1,3,3
582960,TankNutrientPoorPlant,Tank1,1,3,3
583000,TankNutrientPoorPlant,Tank1,1,3,3
583060,TankNutrientPoorPlant,Tank1,1,3,3
583140,TankNutrientPoorPlant,Tank1,1,3,3
583180,TankNutrientPoorPlant,Tank1,1,3,3
583280,TankNutrientPoorPlant,Tank1,1,3,3
583300,TankNutrientPoorPlant,Tank1,1,3,3
583380,TankNutrientPoorPlant,Tank1,1,3,3
583560,TankNutrientPoorPlant,Tank1,1,3,3
583600,TankNutrientPoorPlant,Tank1,1,3,3
583680,TankNutrientPoorPlant,Tank1,1,3,3
583760,TankNutrientPoorPlant,Tank1,1,3,3
583780,TankNutrientPoorPlant,Tank1,1,3,3
583860,TankNutrientPoorPlant,Tank1,1,3,3
583880,TankNutrientPoorPlant,Tank1,1,3,3
584020,TankNutrientPoorPlant,Tank1,1,3,3
584060,TankNutrientPoorPlant,Tank1,1,3,3
584220,TankNutrientPoorPlant,Tank1,1,3,3
584280,TankNutrientPoorPlant,Tank1,1,3,3
584320,TankNutrientPoorPlant,Tank1,1,3,3
584400,TankNutrientPoorPlant,Tank1,1,3,3
584520,TankNutrientPoorPlant,Tank1,1,3,3
584540,TankNutrientPoorPlant,Tank1,1,3,3
585220,TankNutrientPoorPlant,Tank1,1,3,3
585400,TankNutrientPoorPlant,Tank1,1,3,3
585440,TankNutrientPoorPlant,Tank1,1,3,3
585560,TankNutrientPoorPlant,Tank1,1,3,3
585600,TankNutrientPoorPlant,Tank1,1,3,3
585640,TankNutrientPoorPlant,Tank1,1,3,3
585660,TankNutrientPoorPlant,Tank1,1,3,3
585780,TankNutrientPoorPlant,Tank1,1,3,3
585920,TankNutrientPoorPlant,Tank1,1,3,3
585980,TankNutrientPoorPlant,Tank1,1,3,3
586020,TankNutrientPoorPlant,Tank1,1,3,3
586100,TankNutrientPoorPlant,Tank1,1,3,3
586360,TankNutrientPoorPlant,Tank1,1,3,3
586380,TankNutrientPoorPlant,Tank1,1,3,3
586400,TankNutrientPoorPlant,Tank1,1,3,3
586600,TankNutrientPoorPlant,Tank1,1,3,3
586920,TankNutrientPoorPlant,Tank1,1,3,3
586920,TankNutrientPoorPlant,Tank1,1,3,3
586980,TankNutrientPoorPlant,Tank1,1,3,3
587040,TankNutrientPoorPlant,Tank1,1,3,3
587100,TankNutrientPoorPlant,Tank1,1,3,3
587100,TankNutrientPoorPlant,Tank1,1,3,3
587260,TankNutrientPoorPlant,Tank1,1,3,3
587260,TankNutrientPoorPlant,Tank1,1,3,3
587320,TankNutrientPoorPlant,Tank1,1,3,3
587340,TankNutrientPoorPlant,Tank1,1,3,3
587340,TankNutrientPoorPlant,Tank1,1,3,3
587360,TankNutrientPoorPlant,Tank1,1,3,3
587500,TankNutrientPoorPlant,Tank1,1,3,3
587660,TankNutrientPoorPlant,Tank1,1,3,3
587740,TankNutrientPoorPlant,Tank1,1,3,3
587760,TankNutrientPoorPlant,Tank1,1,3,3
587820,TankNutrientPoorPlant,Tank1,1,3,3
587860,TankNutrientPoorPlant,Tank1,1,3,3
587940,TankNutrientPoorPlant,Tank1,1,3,3
587960,TankNutrientPoorPlant,Tank1,1,3,3
587980,TankNutrientPoorPlant,Tank1,1,3,3
588020,TankNutrientPoorPlant,Tank1,1,3,3
588020,TankNutrientPoorPlant,Tank1,1,3,3
588060,TankNutrientPoorPlant,Tank1,1,3,3
588100,TankNutrientPoorPlant,Tank1,1,3,3
588100,TankNutrientPoorPlant,Tank1,1,3,3
588140,TankNutrientPoorPlant,Tank1,1,3,3
588140,TankNutrientPoorPlant,Tank1,1,3,3
588160,TankNutrientPoorPlant,Tank1,1,3,3
588200,TankNutrientPoorPlant,Tank1,1,3,3
588200,TankNutrientPoorPlant,Tank1,1,3,3
588220,TankNutrientPoorPlant,Tank1,1,3,3
588240,TankNutrientPoorPlant,Tank1,1,3,3
588320,TankNutrientPoorPlant,Tank1,1,3,3
588340,TankNutrientPoorPlant,Tank1,1,3,3
588460,TankNutrientPoorPlant,Tank1,1,3,3
588460,TankNutrientPoorPlant,Tank1,1,3,3
588480,TankNutrientPoorPlant,Tank1,1,3,3
588520,TankNutrientPoorPlant,Tank1,1,3,3
588520,TankNutrientPoorPlant,Tank1,1,3,3
588620,TankNutrientPoorPlant,Tank1,1,3,3
588720,TankNutrientPoorPlant,Tank1,1,3,3
588720,TankNutrientPoorPlant,Tank1,1,3,3
588740,TankNutrientPoorPlant,Tank1,1,3,3
588760,TankNutrientPoorPlant,Tank1,1,3,3
588780,TankNutrientPoorPlant,Tank1,1,3,3
588920,TankNutrientPoorPlant,Tank1,1,3,3
588940,TankNutrientPoorPlant,Tank1,1,3,3
588940,TankNutrientPoorPlant,Tank1,1,3,3
588980,TankNutrientPoorPlant,Tank1,1,3,3
589000,TankNutrientPoorPlant,Tank1,1,3,3
589020,TankNutrientPoorPlant,Tank1,1,3,3
589020,TankNutrientPoorPlant,Tank1,1,3,3
589080,TankNutrientPoorPlant,Tank1,1,3,3
589100,TankNutrientPoorPlant,Tank1,1,3,3
589160,TankNutrientPoorPlant,Tank1,1,3,3
589160,TankNutrientPoorPlant,Tank1,1,3,3
589180,TankNutrientPoorPlant,Tank1,1,3,3
589220,TankNutrientPoorPlant,Tank1,1,3,3
589220,TankNutrientPoorPlant,Tank1,1,3,3
589260,TankNutrientPoorPlant,Tank1,1,3,3
589260,TankNutrientPoorPlant,Tank1,1,3,3
589280,TankNutrientPoorPlant,Tank1,1,3,3
589320,TankNutrientPoorPlant,Tank1,1,3,3
589340,TankNutrientPoorPlant,Tank1,1,3,3
589340,TankNutrientPoorPlant,Tank1,1,3,3
589400,TankNutrientPoorPlant,Tank1,1,3,3
589440,TankNutrientPoorPlant,Tank1,1,3,3
589440,TankNutrientPoorPlant,Tank1,1,3,3
589540,TankNutrientPoorPlant,Tank1,1,3,3
589640,TankNutrientPoorPlant,Tank1,1,3,3
589660,TankNutrientPoorPlant,Tank1,1,3,3
589660,TankNutrientPoorPlant,Tank1,1,3,3
589700,TankNutrientPoorPlant,Tank1,1,3,3
589720,TankNutrientPoorPlant,Tank1,1,3,3
589780,TankNutrientPoorPlant,Tank1,1,3,3
589780,TankNutrientPoorPlant,Tank1,1,3,3
589840,TankNutrientPoorPlant,Tank1,1,3,3
589920,TankNutrientPoorPlant,Tank1,1,3,3
589940,TankNutrientPoorPlant,Tank1,1,3,3
589940,TankNutrientPoorPlant,Tank1,1,3,3
590080,TankNutrientPoorPlant,Tank1,1,3,3
590100,TankNutrientPoorPlant,Tank1,1,3,3
590100,TankNutrientPoorPlant,Tank1,1,3,3
590120,TankNutrientPoorPlant,Tank1,1,3,3
590140,TankNutrientPoorPlant,Tank1,1,3,3
590280,TankNutrientPoorPlant,Tank1,1,3,3
590280,TankNutrientPoorPlant,Tank1,1,3,3
590320,TankNutrientPoorPlant,Tank1,1,3,3
590360,TankNutrientPoorPlant,Tank1,1,3,3
590420,TankNutrientPoorPlant,Tank1,1,3,3
590500,TankNutrientPoorPlant,Tank1,1,3,3
590500,TankNutrientPoorPlant,Tank1,1,3,3
590540,TankNutrientPoorPlant,Tank1,1,3,3
590620,TankNutrientPoorPlant,Tank1,1,3,3
590620,TankNutrientPoorPlant,Tank1,1,3,3
590660,TankNutrientPoorPlant,Tank1,1,3,3
590680,TankNutrientPoorPlant,Tank1,1,3,3
590680,TankNutrientPoorPlant,Tank1,1,3,3
590780,TankNutrientPoorPlant,Tank1,1,3,3
590820,TankNutrientPoorPlant,Tank1,1,3,3
590820,TankNutrientPoorPlant,Tank1,1,3,3
590860,TankNutrientPoorPlant,Tank1,1,3,3
590900,TankNutrientPoorPlant,Tank1,1,3,3
590960,TankNutrientPoorPlant,Tank1,1,3,3
590980,TankNutrientPoorPlant,Tank1,1,3,3
591000,TankNutrientPoorPlant,Tank1,1,3,3
591000,TankNutrientPoorPlant,Tank1,1,3,3
591040,TankNutrientPoorPlant,Tank1,1,3,3
591060,TankNutrientPoorPlant,Tank1,1,3,3
591060,TankNutrientPoorPlant,Tank1,1,3,3
591180,TankNutrientPoorPlant,Tank1,1,3,3
591180,TankNutrientPoorPlant,Tank1,1,3,3
591260,TankNutrientPoorPlant,Tank1,1,3,3
591300,TankNutrientPoorPlant,Tank1,1,3,3
591340,TankNutrientPoorPlant,Tank1,1,3,3
591340,TankNutrientPoorPlant,Tank1,1,3,3
591360,TankNutrientPoorPlant,Tank1,1,3,3
591380,TankNutrientPoorPlant,Tank1,1,3,3
591500,TankNutrientPoorPlant,Tank1,1,3,3
591580,TankNutrientPoorPlant,Tank1,1,3,3
591640,TankNutrientPoorPlant,Tank1,1,3,3
591700,TankNutrientPoorPlant,Tank1,1,3,3
591740,TankNutrientPoorPlant,Tank1,1,3,3
625040,UsePesticide,Bomber1,1,3,3
675040,PickUpBattery,Bomber0,1,3,3
725180,PickUpBattery,Scout0,1,3,3
727300,PickUpBattery,Bomber2,1,3,3
768020,UseFertilizer,Tank0,1,3,3
852340,PickUpBattery,Bomber0,1,3,3
874980,PickUpBattery,Scout0,1,3,3
962160,PickUpBattery,Bomber0,1,3,3
1006540,PickUpBattery,Bomber0,1,3,3
1015040,BomberInfestedPlant,Bomber2,1,3,3
1015120,BomberInfestedPlant,Bomber2,1,3,3
1015180,BomberInfestedPlant,Bomber2,1,3,3
1015740,BomberInfestedPlant,Bomber2,1,3,3
1016360,BomberInfestedPlant,Bomber2,1,3,3
1017620,BomberInfestedPlant,Bomber2,1,3,3
1017680,BomberInfestedPlant,Bomber2,1,3,3
1018200,BomberInfestedPlant,Bomber2,1,3,3
1018460,BomberInfestedPlant,Bomber2,1,3,3
1018540,BomberInfestedPlant,Bomber2,1,3,3
1019120,BomberInfestedPlant,Bomber2,1,3,3
1019280,BomberInfestedPlant,Bomber2,1,3,3
1019380,BomberInfestedPlant,Bomber2,1,3,3
1020240,BomberInfestedPlant,Bomber2,1,3,3
1020360,BomberInfestedPlant,Bomber2,1,3,3
1020520,BomberInfestedPlant,Bomber2,1,3,3
1020660,BomberInfestedPlant,Bomber2,1,3,3
1020920,BomberInfestedPlant,Bomber2,1,3,3
1020940,BomberInfestedPlant,Bomber2,1,3,3
1021200,BomberInfestedPlant,Bomber2,1,3,3
1021520,BomberInfestedPlant,Bomber2,1,3,3
1021800,BomberInfestedPlant,Bomber2,1,3,3
1022900,BomberInfestedPlant,Bomber2,1,3,3
1023060,BomberInfestedPlant,Bomber2,1,3,3
1023440,BomberInfestedPlant,Bomber2,1,3,3
1023880,BomberInfestedPlant,Bomber2,1,3,3
1024060,BomberInfestedPlant,Bomber2,1,3,3
1025240,BomberInfestedPlant,Bomber2,1,3,3
1025260,BomberInfestedPlant,Bomber2,1,3,3
1025480,BomberInfestedPlant,Bomber2,1,3,3
1026400,BomberInfestedPlant,Bomber2,1,3,3
1026460,BomberInfestedPlant,Bomber2,1,3,3
1026680,BomberInfestedPlant,Bomber2,1,3,3
1026740,BomberInfestedPlant,Bomber2,1,3,3
1026880,BomberInfestedPlant,Bomber2,1,3,3
1026900,BomberInfestedPlant,Bomber2,1,3,3
1026960,BomberInfestedPlant,Bomber2,1,3,3
1027020,BomberInfestedPlant,Bomber2,1,3,3
1027660,BomberInfestedPlant,Bomber2,1,3,3
1027740,BomberInfestedPlant,Bomber2,1,3,3
1027880,BomberInfestedPlant,Bomber2,1,3,3
1028320,BomberInfestedPlant,Bomber2,1,3,3
1028420,BomberInfestedPlant,Bomber2,1,3,3
1028620,BomberInfestedPlant,Bomber2,1,3,3
1028940,BomberInfestedPlant,Bomber2,1,3,3
1029120,BomberInfestedPlant,Bomber2,1,3,3
1029260,BomberInfestedPlant,Bomber2,1,3,3
1029340,BomberInfestedPlant,Bomber2,1,3,3
1029700,BomberInfestedPlant,Bomber2,1,3,3
1029860,BomberInfestedPlant,Bomber2,1,3,3
1029980,BomberInfestedPlant,Bomber2,1,3,3
1030080,BomberInfestedPlant,Bomber2,1,3,3
1030120,BomberInfestedPlant,Bomber2,1,3,3
1030940,BomberInfestedPlant,Bomber2,1,3,3
1031140,BomberInfestedPlant,Bomber2,1,3,3
1065400,UseFertilizer,Tank1,1,3,3
1089660,PickUpBattery,Scout0,1,3,3
1098160,UsePesticide,Bomber2,1,3,3
1170780,PickUpBattery,Bomber2,1,3,3
1189020,PickUpBattery,Tank0,1,3,3
1209880,PickUpBattery,Bomber0,1,3,3
1241640,PickUpBattery,Scout0,1,3,3
1297960,PickUpBattery,Bomber0,1,3,3
1404340,PickUpBattery,Bomber1,1,3,3
1434320,PickUpBattery,Scout0,1,3,3
1434740,PickUpBattery,Bomber0,1,3,3
1473080,PickUpBattery,Bomber2,1,3,3
1486400,PickUpBattery,Tank1,1,3,3
1589140,PickUpBattery,Scout0,1,3,3
1626480,PickUpBattery,Bomber0,1,3,3
1693540,TankNutrientPoorPlant,Tank0,1,3,3
1693820,TankNutrientPoorPlant,Tank0,1,3,3
1693940,TankNutrientPoorPlant,Tank0,1,3,3
1694020,TankNutrientPoorPlant,Tank0,1,3,3
1694080,TankNutrientPoorPlant,Tank0,1,3,3
1694180,TankNutrientPoorPlant,Tank0,1,3,3
1694240,TankNutrientPoorPlant,Tank0,1,3,3
1694500,TankNutrientPoorPlant,Tank0,1,3,3
1694760,TankNutrientPoorPlant,Tank0,1,3,3
1694820,TankNutrientPoorPlant,Tank0,1,3,3
1694940,TankNutrientPoorPlant,Tank0,1,3,3
1695360,TankNutrientPoorPlant,Tank0,1,3,3
1695600,TankNutrientPoorPlant,Tank0,1,3,3
1695760,TankNutrientPoorPlant,Tank0,1,3,3
1695880,TankNutrientPoorPlant,Tank0,1,3,3
1695940,TankNutrientPoorPlant,Tank0,1,3,3
1696000,TankNutrientPoorPlant,Tank0,1,3,3
1696080,TankNutrientPoorPlant,Tank0,1,3,3
1696140,TankNutrientPoorPlant,Tank0,1,3,3
1696220,TankNutrientPoorPlant,Tank0,1,3,3
1696400,TankNutrientPoorPlant,Tank0,1,3,3
1696520,TankNutrientPoorPlant,Tank0,1,3,3
1696660,TankNutrientPoorPlant,Tank0,1,3,3
1696720,TankNutrientPoorPlant,Tank0,1,3,3
1696960,TankNutrientPoorPlant,Tank0,1,3,3
1696980,TankNutrientPoorPlant,Tank0,1,3,3
1697160,TankNutrientPoorPlant,Tank0,1,3,3
1697200,TankNutrientPoorPlant,Tank0,1,3,3
1697240,TankNutrientPoorPlant,Tank0,1,3,3
1697380,TankNutrientPoorPlant,Tank0,1,3,3
1697400,TankNutrientPoorPlant,Tank0,1,3,3
1697440,TankNutrientPoorPlant,Tank0,1,3,3
1697440,TankNutrientPoorPlant,Tank0,1,3,3
1697620,TankNutrientPoorPlant,Tank0,1,3,3
1697680,TankNutrientPoorPlant,Tank0,1,3,3
1697680,TankNutrientPoorPlant,Tank0,1,3,3
1697720,TankNutrientPoorPlant,Tank0,1,3,3
1697720,TankNutrientPoorPlant,Tank0,1,3,3
1697740,TankNutrientPoorPlant,Tank0,1,3,3
1697760,TankNutrientPoorPlant,Tank0,1,3,3
1697780,TankNutrientPoorPlant,Tank0,1,3,3
1697800,TankNutrientPoorPlant,Tank0,1,3,3
1697840,TankNutrientPoorPlant,Tank0,1,3,3
1697840,TankNutrientPoorPlant,Tank0,1,3,3
1697860,TankNutrientPoorPlant,Tank0,1,3,3
1697900,TankNutrientPoorPlant,Tank0,1,3,3
1697900,TankNutrientPoorPlant,Tank0,1,3,3
1697940,TankNutrientPoorPlant,Tank0,1,3,3
1698040,TankNutrientPoorPlant,Tank0,1,3,3
1698060,TankNutrientPoorPlant,Tank0,1,3,3
1698060,TankNutrientPoorPlant,Tank0,1,3,3
1698080,TankNutrientPoorPlant,Tank0,1,3,3
1698120,TankNutrientPoorPlant,Tank0,1,3,3
1698120,TankNutrientPoorPlant,Tank0,1,3,3
1698140,TankNutrientPoorPlant,Tank0,1,3,3
1698160,TankNutrientPoorPlant,Tank0,1,3,3
1698200,TankNutrientPoorPlant,Tank0,1,3,3
1698220,TankNutrientPoorPlant,Tank0,1,3,3
1698220,TankNutrientPoorPlant,Tank0,1,3,3
1698240,TankNutrientPoorPlant,Tank0,1,3,3
1698260,TankNutrientPoorPlant,Tank0,1,3,3
1698300,TankNutrientPoorPlant,Tank0,1,3,3
1698420,TankNutrientPoorPlant,Tank0,1,3,3
1698420,TankNutrientPoorPlant,Tank0,1,3,3
1698460,TankNutrientPoorPlant,Tank0,1,3,3
1698500,TankNutrientPoorPlant,Tank0,1,3,3
1698500,TankNutrientPoorPlant,Tank0,1,3,3
1698520,TankNutrientPoorPlant,Tank0,1,3,3
1698540,TankNutrientPoorPlant,Tank0,1,3,3
1698560,TankNutrientPoorPlant,Tank0,1,3,3
1698600,TankNutrientPoorPlant,Tank0,1,3,3
1698660,TankNutrientPoorPlant,Tank0,1,3,3
1698720,TankNutrientPoorPlant,Tank0,1,3,3
1698740,TankNutrientPoorPlant,Tank0,1,3,3
1698800,TankNutrientPoorPlant,Tank0,1,3,3
1698820,TankNutrientPoorPlant,Tank0,1,3,3
1698860,TankNutrientPoorPlant,Tank0,1,3,3
1698880,TankNutrientPoorPlant,Tank0,1,3,3
1698940,TankNutrientPoorPlant,Tank0,1,3,3
1698980,TankNutrientPoorPlant,Tank0,1,3,3
1698980,TankNutrientPoorPlant,Tank0,1,3,3
1699000,TankNutrientPoorPlant,Tank0,1,3,3
1699040,TankNutrientPoorPlant,Tank0,1,3,3
1699040,TankNutrientPoorPlant,Tank0,1,3,3
1699080,TankNutrientPoorPlant,Tank0,1,3,3
1699180,TankNutrientPoorPlant,Tank0,1,3,3
1699180,TankNutrientPoorPlant,Tank0,1,3,3
1699220,TankNutrientPoorPlant,Tank0,1,3,3
1699300,TankNutrientPoorPlant,Tank0,1,3,3
1699360,TankNutrientPoorPlant,Tank0,1,3,3
1699460,TankNutrientPoorPlant,Tank0,1,3,3
1699540,TankNutrientPoorPlant,Tank0,1,3,3
1699720,TankNutrientPoorPlant,Tank0,1,3,3
1699880,TankNutrientPoorPlant,Tank0,1,3,3
1700000,TankNutrientPoorPlant,Tank0,1,3,3
1700060,TankNutrientPoorPlant,Tank0,1,3,3
1700080,TankNutrientPoorPlant,Tank0,1,3,3
1700140,TankNutrientPoorPlant,Tank0,1,3,3
1700420,TankNutrientPoorPlant,Tank0,1,3,3
1700680,TankNutrientPoorPlant,Tank0,1,3,3
1700800,TankNutrientPoorPlant,Tank0,1,3,3
1701120,TankNutrientPoorPlant,Tank0,1,3,3
1701180,TankNutrientPoorPlant,Tank0,1,3,3
1701260,TankNutrientPoorPlant,Tank0,1,3,3
1701340,TankNutrientPoorPlant,Tank0,1,3,3
1701720,TankNutrientPoorPlant,Tank0,1,3,3
1701740,TankNutrientPoorPlant,Tank0,1,3,3
1701920,TankNutrientPoorPlant,Tank0,1,3,3
1702060,TankNutrientPoorPlant,Tank0,1,3,3
1702080,TankNutrientPoorPlant,Tank0,1,3,3
1702300,TankNutrientPoorPlant,Tank0,1,3,3
1702340,TankNutrientPoorPlant,Tank0,1,3,3
1702380,TankNutrientPoorPlant,Tank0,1,3,3
1702420,TankNutrientPoorPlant,Tank0,1,3,3
1702520,TankNutrientPoorPlant,Tank0,1,3,3
1702720,TankNutrientPoorPlant,Tank0,1,3,3
1702800,TankNutrientPoorPlant,Tank0,1,3,3
1702900,TankNutrientPoorPlant,Tank0,1,3,3
1702992,TankNutrientPoorPlant,Tank0,1,3,3
1703200,TankNutrientPoorPlant,Tank0,1,3,3
1703220,TankNutrientPoorPlant,Tank0,1,3,3
1703240,TankNutrientPoorPlant,Tank0,1,3,3
1703360,TankNutrientPoorPlant,Tank0,1,3,3
1703400,TankNutrientPoorPlant,Tank0,1,3,3
1703620,TankNutrientPoorPlant,Tank0,1,3,3
1703800,TankNutrientPoorPlant,Tank0,1,3,3
1703840,TankNutrientPoorPlant,Tank0,1,3,3
1703880,TankNutrientPoorPlant,Tank0,1,3,3
1704280,TankNutrientPoorPlant,Tank0,1,3,3
1704300,TankNutrientPoorPlant,Tank0,1,3,3
1704540,TankNutrientPoorPlant,Tank0,1,3,3
1704840,TankNutrientPoorPlant,Tank0,1,3,3
1704960,TankNutrientPoorPlant,Tank0,1,3,3
1705000,TankNutrientPoorPlant,Tank0,1,3,3
1705440,TankNutrientPoorPlant,Tank0,1,3,3
1705740,TankNutrientPoorPlant,Tank0,1,3,3
1705820,TankNutrientPoorPlant,Tank0,1,3,3
1755920,PickUpBattery,Bomber2,1,3,3
1757060,PickUpBattery,Bomber1,1,3,3
1803300,PickUpBattery,Scout0,1,3,3
1843360,PickUpBattery,Bomber1,1,3,3
1955280,PickUpBattery,Scout0,1,3,3
1997260,PickUpBattery,Bomber2,1,3,3
2028920,TankNutrientPoorPlant,Tank1,1,3,3
2029100,TankNutrientPoorPlant,Tank1,1,3,3
2029280,TankNutrientPoorPlant,Tank1,1,3,3
2029380,TankNutrientPoorPlant,Tank1,1,3,3
2029440,TankNutrientPoorPlant,Tank1,1,3,3
2029680,TankNutrientPoorPlant,Tank1,1,3,3
2029720,TankNutrientPoorPlant,Tank1,1,3,3
2029760,TankNutrientPoorPlant,Tank1,1,3,3
2029780,TankNutrientPoorPlant,Tank1,1,3,3
2029880,TankNutrientPoorPlant,Tank1,1,3,3
2029980,TankNutrientPoorPlant,Tank1,1,3,3
2030280,TankNutrientPoorPlant,Tank1,1,3,3
2030360,TankNutrientPoorPlant,Tank1,1,3,3
2030420,TankNutrientPoorPlant,Tank1,1,3,3
2030520,TankNutrientPoorPlant,Tank1,1,3,3
2030540,TankNutrientPoorPlant,Tank1,1,3,3
2030560,TankNutrientPoorPlant,Tank1,1,3,3
2030580,TankNutrientPoorPlant,Tank1,1,3,3
2030760,TankNutrientPoorPlant,Tank1,1,3,3
2030840,TankNutrientPoorPlant,Tank1,1,3,3
2030860,TankNutrientPoorPlant,Tank1,1,3,3
2030960,TankNutrientPoorPlant,Tank1,1,3,3
2031040,TankNutrientPoorPlant,Tank1,1,3,3
2031220,TankNutrientPoorPlant,Tank1,1,3,3
2031280,TankNutrientPoorPlant,Tank1,1,3,3
2031360,TankNutrientPoorPlant,Tank1,1,3,3
2031400,TankNutrientPoorPlant,Tank1,1,3,3
2031560,TankNutrientPoorPlant,Tank1,1,3,3
2031660,TankNutrientPoorPlant,Tank1,1,3,3
2031820,TankNutrientPoorPlant,Tank1,1,3,3
2031880,TankNutrientPoorPlant,Tank1,1,3,3
2031920,TankNutrientPoorPlant,Tank1,1,3,3
2032040,TankNutrientPoorPlant,Tank1,1,3,3
2032060,TankNutrientPoorPlant,Tank1,1,3,3
2032460,TankNutrientPoorPlant,Tank1,1,3,3
2032520,TankNutrientPoorPlant,Tank1,1,3,3
2032580,TankNutrientPoorPlant,Tank1,1,3,3
2032680,TankNutrientPoorPlant,Tank1,1,3,3
2032800,TankNutrientPoorPlant,Tank1,1,3,3
2033040,TankNutrientPoorPlant,Tank1,1,3,3
2033120,TankNutrientPoorPlant,Tank1,1,3,3
2033500,TankNutrientPoorPlant,Tank1,1,3,3
2033700,TankNutrientPoorPlant,Tank1,1,3,3
2034160,TankNutrientPoorPlant,Tank1,1,3,3
2034180,TankNutrientPoorPlant,Tank1,1,3,3
2034320,TankNutrientPoorPlant,Tank1,1,3,3
2034420,TankNutrientPoorPlant,Tank1,1,3,3
2034480,TankNutrientPoorPlant,Tank1,1,3,3
2034540,TankNutrientPoorPlant,Tank1,1,3,3
2034640,TankNutrientPoorPlant,Tank1,1,3,3
2034680,TankNutrientPoorPlant,Tank1,1,3,3
2034720,TankNutrientPoorPlant,Tank1,1,3,3
2034880,TankNutrientPoorPlant,Tank1,1,3,3
2035080,TankNutrientPoorPlant,Tank1,1,3,3
2035240,TankNutrientPoorPlant,Tank1,1,3,3
2035320,TankNutrientPoorPlant,Tank1,1,3,3
2035500,TankNutrientPoorPlant,Tank1,1,3,3
2035540,TankNutrientPoorPlant,Tank1,1,3,3
2035640,TankNutrientPoorPlant,Tank1,1,3,3
2035660,TankNutrientPoorPlant,Tank1,1,3,3
2035720,TankNutrientPoorPlant,Tank1,1,3,3
2035900,TankNutrientPoorPlant,Tank1,1,3,3
2035980,TankNutrientPoorPlant,Tank1,1,3,3
2036000,TankNutrientPoorPlant,Tank1,1,3,3
2036300,TankNutrientPoorPlant,Tank1,1,3,3
2036400,TankNutrientPoorPlant,Tank1,1,3,3
2036460,TankNutrientPoorPlant,Tank1,1,3,3
2036500,TankNutrientPoorPlant,Tank1,1,3,3
2036600,TankNutrientPoorPlant,Tank1,1,3,3
2036720,TankNutrientPoorPlant,Tank1,1,3,3
2036780,TankNutrientPoorPlant,Tank1,1,3,3
2036840,TankNutrientPoorPlant,Tank1,1,3,3
2037080,TankNutrientPoorPlant,Tank1,1,3,3
2037320,TankNutrientPoorPlant,Tank1,1,3,3
2037400,TankNutrientPoorPlant,Tank1,1,3,3
2037520,TankNutrientPoorPlant,Tank1,1,3,3
2037540,TankNutrientPoorPlant,Tank1,1,3,3
2037600,TankNutrientPoorPlant,Tank1,1,3,3
2037680,TankNutrientPoorPlant,Tank1,1,3,3
2037720,TankNutrientPoorPlant,Tank1,1,3,3
2037760,TankNutrientPoorPlant,Tank1,1,3,3
2037840,TankNutrientPoorPlant,Tank1,1,3,3
2037920,TankNutrientPoorPlant,Tank1,1,3,3
2038080,TankNutrientPoorPlant,Tank1,1,3,3
2038260,TankNutrientPoorPlant,Tank1,1,3,3
2038300,TankNutrientPoorPlant,Tank1,1,3,3
2038320,TankNutrientPoorPlant,Tank1,1,3,3
2038380,TankNutrientPoorPlant,Tank1,1,3,3
2038640,TankNutrientPoorPlant,Tank1,1,3,3
2038760,TankNutrientPoorPlant,Tank1,1,3,3
2038820,TankNutrientPoorPlant,Tank1,1,3,3
2059600,TankNutrientPoorPlant,Tank1,1,3,3
2059700,TankNutrientPoorPlant,Tank1,1,3,3
2059840,TankNutrientPoorPlant,Tank1,1,3,3
2060060,TankNutrientPoorPlant,Tank1,1,3,3
2060080,TankNutrientPoorPlant,Tank1,1,3,3
2060240,TankNutrientPoorPlant,Tank1,1,3,3
2060260,TankNutrientPoorPlant,Tank1,1,3,3
2060560,TankNutrientPoorPlant,Tank1,1,3,3
2060620,TankNutrientPoorPlant,Tank1,1,3,3
2060840,TankNutrientPoorPlant,Tank1,1,3,3
2060860,TankNutrientPoorPlant,Tank1,1,3,3
2060940,TankNutrientPoorPlant,Tank1,1,3,3
2061160,TankNutrientPoorPlant,Tank1,1,3,3
2061260,TankNutrientPoorPlant,Tank1,1,3,3
2061360,TankNutrientPoorPlant,Tank1,1,3,3
2061380,TankNutrientPoorPlant,Tank1,1,3,3
2061540,TankNutrientPoorPlant,Tank1,1,3,3
2061620,TankNutrientPoorPlant,Tank1,1,3,3
2061780,TankNutrientPoorPlant,Tank1,1,3,3
2061800,TankNutrientPoorPlant,Tank1,1,3,3
2061860,TankNutrientPoorPlant,Tank1,1,3,3
2061900,TankNutrientPoorPlant,Tank1,1,3,3
2061920,TankNutrientPoorPlant,Tank1,1,3,3
2061960,TankNutrientPoorPlant,Tank1,1,3,3
2062060,TankNutrientPoorPlant,Tank1,1,3,3
2063120,TankNutrientPoorPlant,Tank1,1,3,3
2063200,TankNutrientPoorPlant,Tank1,1,3,3
2063340,TankNutrientPoorPlant,Tank1,1,3,3
2063380,TankNutrientPoorPlant,Tank1,1,3,3
2063460,TankNutrientPoorPlant,Tank1,1,3,3
2063500,TankNutrientPoorPlant,Tank1,1,3,3
2063500,TankNutrientPoorPlant,Tank1,1,3,3
2063560,TankNutrientPoorPlant,Tank1,1,3,3
2063640,TankNutrientPoorPlant,Tank1,1,3,3
2063640,TankNutrientPoorPlant,Tank1,1,3,3
2063700,TankNutrientPoorPlant,Tank1,1,3,3
2063720,TankNutrientPoorPlant,Tank1,1,3,3
2063740,TankNutrientPoorPlant,Tank1,1,3,3
2063800,TankNutrientPoorPlant,Tank1,1,3,3
2063860,TankNutrientPoorPlant,Tank1,1,3,3
2063860,TankNutrientPoorPlant,Tank1,1,3,3
2063960,TankNutrientPoorPlant,Tank1,1,3,3
2063960,TankNutrientPoorPlant,Tank1,1,3,3
2064060,TankNutrientPoorPlant,Tank1,1,3,3
2064060,TankNutrientPoorPlant,Tank1,1,3,3
2064140,TankNutrientPoorPlant,Tank1,1,3,3
2064260,TankNutrientPoorPlant,Tank1,1,3,3
2064360,TankNutrientPoorPlant,Tank1,1,3,3
2064400,TankNutrientPoorPlant,Tank1,1,3,3
2064500,TankNutrientPoorPlant,Tank1,1,3,3
2064540,TankNutrientPoorPlant,Tank1,1,3,3
2064540,TankNutrientPoorPlant,Tank1,1,3,3
2064580,TankNutrientPoorPlant,Tank1,1,3,3
2064580,TankNutrientPoorPlant,Tank1,1,3,3
2064600,TankNutrientPoorPlant,Tank1,1,3,3
2064760,TankNutrientPoorPlant,Tank1,1,3,3
2064760,TankNutrientPoorPlant,Tank1,1,3,3
2064780,TankNutrientPoorPlant,Tank1,1,3,3
2064980,TankNutrientPoorPlant,Tank1,1,3,3
2064980,TankNutrientPoorPlant,Tank1,1,3,3
2065000,TankNutrientPoorPlant,Tank1,1,3,3
2065060,TankNutrientPoorPlant,Tank1,1,3,3
2065140,TankNutrientPoorPlant,Tank1,1,3,3
2065140,TankNutrientPoorPlant,Tank1,1,3,3
2065160,TankNutrientPoorPlant,Tank1,1,3,3
2065240,TankNutrientPoorPlant,Tank1,1,3,3
2065240,TankNutrientPoorPlant,Tank1,1,3,3
2065340,TankNutrientPoorPlant,Tank1,1,3,3
2065340,TankNutrientPoorPlant,Tank1,1,3,3
2065420,TankNutrientPoorPlant,Tank1,1,3,3
2065840,TankNutrientPoorPlant,Tank1,1,3,3
2065960,TankNutrientPoorPlant,Tank1,1,3,3
2066080,TankNutrientPoorPlant,Tank1,1,3,3
2066200,TankNutrientPoorPlant,Tank1,1,3,3
2066260,TankNutrientPoorPlant,Tank1,1,3,3
2066380,TankNutrientPoorPlant,Tank1,1,3,3
2066500,TankNutrientPoorPlant,Tank1,1,3,3
2066620,TankNutrientPoorPlant,Tank1,1,3,3
2066760,TankNutrientPoorPlant,Tank1,1,3,3
2066820,TankNutrientPoorPlant,Tank1,1,3,3
2066920,TankNutrientPoorPlant,Tank1,1,3,3
2066980,TankNutrientPoorPlant,Tank1,1,3,3
2067060,TankNutrientPoorPlant,Tank1,1,3,3
2067360,TankNutrientPoorPlant,Tank1,1,3,3
2067520,TankNutrientPoorPlant,Tank1,1,3,3
2067600,TankNutrientPoorPlant,Tank1,1,3,3
2068180,TankNutrientPoorPlant,Tank1,1,3,3
2068240,TankNutrientPoorPlant,Tank1,1,3,3
2068320,TankNutrientPoorPlant,Tank1,1,3,3
2068440,TankNutrientPoorPlant,Tank1,1,3,3
2068640,TankNutrientPoorPlant,Tank1,1,3,3
2069100,TankNutrientPoorPlant,Tank1,1,3,3
2069120,TankNutrientPoorPlant,Tank1,1,3,3
2069160,TankNutrientPoorPlant,Tank1,1,3,3
2069220,TankNutrientPoorPlant,Tank1,1,3,3
2069460,TankNutrientPoorPlant,Tank1,1,3,3
2069620,TankNutrientPoorPlant,Tank1,1,3,3
2069640,TankNutrientPoorPlant,Tank1,1,3,3
2069820,TankNutrientPoorPlant,Tank1,1,3,3
2069920,TankNutrientPoorPlant,Tank1,1,3,3
2069960,TankNutrientPoorPlant,Tank1,1,3,3
2070120,TankNutrientPoorPlant,Tank1,1,3,3
2070180,TankNutrientPoorPlant,Tank1,1,3,3
2070540,TankNutrientPoorPlant,Tank1,1,3,3
2070620,TankNutrientPoorPlant,Tank1,1,3,3
2070740,TankNutrientPoorPlant,Tank1,1,3,3
2070760,TankNutrientPoorPlant,Tank1,1,3,3
2070780,TankNutrientPoorPlant,Tank1,1,3,3
2070820,TankNutrientPoorPlant,Tank1,1,3,3
2070840,TankNutrientPoorPlant,Tank1,1,3,3
2071060,TankNutrientPoorPlant,Tank1,1,3,3
2071160,TankNutrientPoorPlant,Tank1,1,3,3
2071180,TankNutrientPoorPlant,Tank1,1,3,3
2071300,TankNutrientPoorPlant,Tank1,1,3,3
2071360,TankNutrientPoorPlant,Tank1,1,3,3
2071580,TankNutrientPoorPlant,Tank1,1,3,3
2071860,TankNutrientPoorPlant,Tank1,1,3,3
2071920,TankNutrientPoorPlant,Tank1,1,3,3
2071980,TankNutrientPoorPlant,Tank1,1,3,3
2072000,TankNutrientPoorPlant,Tank1,1,3,3
2072020,TankNutrientPoorPlant,Tank1,1,3,3
2072120,TankNutrientPoorPlant,Tank1,1,3,3
2072480,TankNutrientPoorPlant,Tank1,1,3,3
2072560,TankNutrientPoorPlant,Tank1,1,3,3
2072800,TankNutrientPoorPlant,Tank1,1,3,3
2072820,TankNutrientPoorPlant,Tank1,1,3,3
2072980,TankNutrientPoorPlant,Tank1,1,3,3
2073000,TankNutrientPoorPlant,Tank1,1,3,3
2073020,TankNutrientPoorPlant,Tank1,1,3,3
2073180,TankNutrientPoorPlant,Tank1,1,3,3
2073280,TankNutrientPoorPlant,Tank1,1,3,3
2073300,TankNutrientPoorPlant,Tank1,1,3,3
2073320,TankNutrientPoorPlant,Tank1,1,3,3
2073760,TankNutrientPoorPlant,Tank1,1,3,3
2073780,TankNutrientPoorPlant,Tank1,1,3,3
2073980,TankNutrientPoorPlant,Tank1,1,3,3
2074160,TankNutrientPoorPlant,Tank1,1,3,3
2074720,TankNutrientPoorPlant,Tank1,1,3,3
2074860,TankNutrientPoorPlant,Tank1,1,3,3
2075080,TankNutrientPoorPlant,Tank1,1,3,3
2075120,TankNutrientPoorPlant,Tank1,1,3,3
2075160,TankNutrientPoorPlant,Tank1,1,3,3
2075360,TankNutrientPoorPlant,Tank1,1,3,3
2075400,TankNutrientPoorPlant,Tank1,1,3,3
2075640,TankNutrientPoorPlant,Tank1,1,3,3
2075740,TankNutrientPoorPlant,Tank1,1,3,3
2075840,TankNutrientPoorPlant,Tank1,1,3,3
2075900,TankNutrientPoorPlant,Tank1,1,3,3
2075960,TankNutrientPoorPlant,Tank1,1,3,3
2076220,TankNutrientPoorPlant,Tank1,1,3,3
2076300,TankNutrientPoorPlant,Tank1,1,3,3
2076340,TankNutrientPoorPlant,Tank1,1,3,3
2076380,TankNutrientPoorPlant,Tank1,1,3,3
2076480,TankNutrientPoorPlant,Tank1,1,3,3
2076740,TankNutrientPoorPlant,Tank1,1,3,3
2077120,TankNutrientPoorPlant,Tank1,1,3,3
2077280,TankNutrientPoorPlant,Tank1,1,3,3
2077360,TankNutrientPoorPlant,Tank1,1,3,3
2077520,TankNutrientPoorPlant,Tank1,1,3,3
2077740,TankNutrientPoorPlant,Tank1,1,3,3
2077760,TankNutrientPoorPlant,Tank1,1,3,3
2077880,TankNutrientPoorPlant,Tank1,1,3,3
2077960,TankNutrientPoorPlant,Tank1,1,3,3
2078100,TankNutrientPoorPlant,Tank1,1,3,3
2078200,TankNutrientPoorPlant,Tank1,1,3,3
2078240,TankNutrientPoorPlant,Tank1,1,3,3
2078320,TankNutrientPoorPlant,Tank1,1,3,3
2078340,TankNutrientPoorPlant,Tank1,1,3,3
2078580,TankNutrientPoorPlant,Tank1,1,3,3
2078640,TankNutrientPoorPlant,Tank1,1,3,3
2078660,TankNutrientPoorPlant,Tank1,1,3,3
2078740,TankNutrientPoorPlant,Tank1,1,3,3
2078900,TankNutrientPoorPlant,Tank1,1,3,3
2079040,TankNutrientPoorPlant,Tank1,1,3,3
2079100,TankNutrientPoorPlant,Tank1,1,3,3
2079260,TankNutrientPoorPlant,Tank1,1,3,3
2079380,TankNutrientPoorPlant,Tank1,1,3,3
2079420,TankNutrientPoorPlant,Tank1,1,3,3
2079540,TankNutrientPoorPlant,Tank1,1,3,3
2079600,TankNutrientPoorPlant,Tank1,1,3,3
2079860,TankNutrientPoorPlant,Tank1,1,3,3
2096520,PickUpBattery,Bomber0,1,3,3
2169440,PickUpBattery,Scout0,1,3,3
2213160,PickUpBattery,Bomber1,1,3,3
2216260,PickUpBattery,Tank0,1,3,3
2288460,PickUpBattery,Bomber0,1,3,3
2321420,PickUpBattery,Scout0,1,3,3
2408020,PickUpBattery,Bomber1,1,3,3
2460720,PickUpBattery,Tank2,1,3,3
2505720,PickUpBattery,Bomber0,1,3,3
2534960,PickUpBattery,Bomber2,1,3,3
2535580,PickUpBattery,Scout0,1,3,3
2616860,PickUpBattery,Bomber0,1,3,3
2662720,PickUpBattery,Bomber1,1,3,3
2685840,PickUpBattery,Tank1,1,3,3
2691400,PickUpBattery,Scout0,1,3,3
2695840,UseFertilizer,Tank0,1,3,3
2762200,PickUpBattery,Bomber0,1,3,3
2864380,PickUpBattery,Bomber2,1,3,3
2905560,PickUpBattery,Scout0,1,3,3
2919400,PickUpBattery,Bomber0,1,3,3
2965840,UseFertilizer,Tank2,1,3,3
3057540,PickUpBattery,Scout0,1,3,3
3066660,PickUpBattery,Bomber1,1,3,3
3154220,PickUpBattery,Bomber2,1,3,3
3161800,TankNutrientPoorPlant,Tank2,1,3,3
3161840,TankNutrientPoorPlant,Tank1,1,3,3
3162040,TankNutrientPoorPlant,Tank1,1,3,3
3162120,TankNutrientPoorPlant,Tank2,1,3,3
3162280,TankNutrientPoorPlant,Tank2,1,3,3
3162300,TankNutrientPoorPlant,Tank2,1,3,3
3162520,TankNutrientPoorPlant,Tank2,1,3,3
3162580,TankNutrientPoorPlant,Tank1,1,3,3
3162640,TankNutrientPoorPlant,Tank1,1,3,3
3162720,TankNutrientPoorPlant,Tank2,1,3,3
3162880,TankNutrientPoorPlant,Tank2,1,3,3
3162920,TankNutrientPoorPlant,Tank2,1,3,3
3163000,TankNutrientPoorPlant,Tank1,1,3,3
3163020,TankNutrientPoorPlant,Tank2,1,3,3
3163080,TankNutrientPoorPlant,Tank1,1,3,3
3163160,TankNutrientPoorPlant,Tank2,1,3,3
3163180,TankNutrientPoorPlant,Tank2,1,3,3
3163220,TankNutrientPoorPlant,Tank1,1,3,3
3163220,TankNutrientPoorPlant,Tank2,1,3,3
3163340,TankNutrientPoorPlant,Tank1,1,3,3
3163380,TankNutrientPoorPlant,Tank2,1,3,3
3163420,TankNutrientPoorPlant,Tank1,1,3,3
3163440,TankNutrientPoorPlant,Tank2,1,3,3
3163520,TankNutrientPoorPlant,Tank2,1,3,3
3163600,TankNutrientPoorPlant,Tank2,1,3,3
3163680,TankNutrientPoorPlant,Tank2,1,3,3
3163720,TankNutrientPoorPlant,Tank2,1,3,3
3163860,TankNutrientPoorPlant,Tank1,1,3,3
3163920,TankNutrientPoorPlant,Tank1,1,3,3
3164020,TankNutrientPoorPlant,Tank2,1,3,3
3164160,TankNutrientPoorPlant,Tank2,1,3,3
3164180,TankNutrientPoorPlant,Tank1,1,3,3
3164240,TankNutrientPoorPlant,Tank2,1,3,3
3164280,TankNutrientPoorPlant,Tank2,1,3,3
3164360,TankNutrientPoorPlant,Tank2,1,3,3
3164500,TankNutrientPoorPlant,Tank2,1,3,3
3164520,TankNutrientPoorPlant,Tank1,1,3,3
3164740,TankNutrientPoorPlant,Tank2,1,3,3
3164820,TankNutrientPoorPlant,Tank1,1,3,3
3164820,TankNutrientPoorPlant,Tank2,1,3,3
3164840,TankNutrientPoorPlant,Tank1,1,3,3
3164860,TankNutrientPoorPlant,Tank1,1,3,3
3164880,TankNutrientPoorPlant,Tank1,1,3,3
3164880,TankNutrientPoorPlant,Tank2,1,3,3
3164920,TankNutrientPoorPlant,Tank1,1,3,3
3165040,TankNutrientPoorPlant,Tank1,1,3,3
3165240,TankNutrientPoorPlant,Tank1,1,3,3
3165240,TankNutrientPoorPlant,Tank2,1,3,3
3165380,TankNutrientPoorPlant,Tank2,1,3,3
3165400,TankNutrientPoorPlant,Tank1,1,3,3
3165420,TankNutrientPoorPlant,Tank1,1,3,3
3165440,TankNutrientPoorPlant,Tank2,1,3,3
3165480,TankNutrientPoorPlant,Tank2,1,3,3
3165600,TankNutrientPoorPlant,Tank2,1,3,3
3165620,TankNutrientPoorPlant,Tank2,1,3,3
3165640,TankNutrientPoorPlant,Tank1,1,3,3
3165680,TankNutrientPoorPlant,Tank1,1,3,3
3165700,TankNutrientPoorPlant,Tank1,1,3,3
3165700,TankNutrientPoorPlant,Tank2,1,3,3
3165720,TankNutrientPoorPlant,Tank1,1,3,3
3165760,TankNutrientPoorPlant,Tank2,1,3,3
3165800,TankNutrientPoorPlant,Tank2,1,3,3
3165840,TankNutrientPoorPlant,Tank2,1,3,3
3165880,TankNutrientPoorPlant,Tank1,1,3,3
3165960,TankNutrientPoorPlant,Tank1,1,3,3
3166040,TankNutrientPoorPlant,Tank1,1,3,3
3166040,TankNutrientPoorPlant,Tank2,1,3,3
3166060,TankNutrientPoorPlant,Tank2,1,3,3
3166120,TankNutrientPoorPlant,Tank2,1,3,3
3166320,TankNutrientPoorPlant,Tank1,1,3,3
3166420,TankNutrientPoorPlant,Tank2,1,3,3
3166480,TankNutrientPoorPlant,Tank2,1,3,3
3166540,TankNutrientPoorPlant,Tank2,1,3,3
3166620,TankNutrientPoorPlant,Tank1,1,3,3
3166700,TankNutrientPoorPlant,Tank2,1,3,3
3166820,TankNutrientPoorPlant,Tank1,1,3,3
3166820,TankNutrientPoorPlant,Tank2,1,3,3
3166920,TankNutrientPoorPlant,Tank1,1,3,3
3166920,TankNutrientPoorPlant,Tank2,1,3,3
3167160,TankNutrientPoorPlant,Tank1,1,3,3
3167180,TankNutrientPoorPlant,Tank1,1,3,3
3167180,TankNutrientPoorPlant,Tank2,1,3,3
3167260,TankNutrientPoorPlant,Tank2,1,3,3
3167280,TankNutrientPoorPlant,Tank2,1,3,3
3167400,TankNutrientPoorPlant,Tank2,1,3,3
3167580,TankNutrientPoorPlant,Tank1,1,3,3
3240320,PickUpBattery,Bomber2,1,3,3
3271700,PickUpBattery,Scout0,1,3,3
3330960,UseFertilizer,Tank2,1,3,3
3348740,PickUpBattery,Bomber1,1,3,3
3423720,PickUpBattery,Scout0,1,3,3
3451560,PickUpBattery,Bomber0,1,3,3
3482840,PickUpBattery,Bomber2,1,3,3
3492020,TankNutrientPoorPlant,Tank2,1,3,3
3492040,TankNutrientPoorPlant,Tank2,1,3,3
3492220,TankNutrientPoorPlant,Tank2,1,3,3
3492400,TankNutrientPoorPlant,Tank2,1,3,3
3492440,TankNutrientPoorPlant,Tank2,1,3,3
3492460,TankNutrientPoorPlant,Tank2,1,3,3
3492920,TankNutrientPoorPlant,Tank2,1,3,3
3492960,TankNutrientPoorPlant,Tank2,1,3,3
3493020,TankNutrientPoorPlant,Tank2,1,3,3
3493080,TankNutrientPoorPlant,Tank2,1,3,3
3493180,TankNutrientPoorPlant,Tank2,1,3,3
3493400,TankNutrientPoorPlant,Tank2,1,3,3
3493520,TankNutrientPoorPlant,Tank2,1,3,3
3493560,TankNutrientPoorPlant,Tank2,1,3,3
3493580,TankNutrientPoorPlant,Tank2,1,3,3
3493700,TankNutrientPoorPlant,Tank2,1,3,3
3493720,TankNutrientPoorPlant,Tank2,1,3,3
3493780,TankNutrientPoorPlant,Tank2,1,3,3
3493900,TankNutrientPoorPlant,Tank2,1,3,3
3493940,TankNutrientPoorPlant,Tank2,1,3,3
3494340,TankNutrientPoorPlant,Tank2,1,3,3
3494560,TankNutrientPoorPlant,Tank2,1,3,3
3494720,TankNutrientPoorPlant,Tank2,1,3,3
3495020,TankNutrientPoorPlant,Tank2,1,3,3
3495160,TankNutrientPoorPlant,Tank2,1,3,3
3495200,TankNutrientPoorPlant,Tank2,1,3,3
3495220,TankNutrientPoorPlant,Tank2,1,3,3
3495240,TankNutrientPoorPlant,Tank2,1,3,3
3495340,TankNutrientPoorPlant,Tank2,1,3,3
3495400,TankNutrientPoorPlant,Tank2,1,3,3
3495460,TankNutrientPoorPlant,Tank2,1,3,3
3495480,TankNutrientPoorPlant,Tank2,1,3,3
3495500,TankNutrientPoorPlant,Tank2,1,3,3
3495760,TankNutrientPoorPlant,Tank2,1,3,3
3495820,TankNutrientPoorPlant,Tank2,1,3,3
3495880,TankNutrientPoorPlant,Tank2,1,3,3
3496000,TankNutrientPoorPlant,Tank2,1,3,3
3496040,TankNutrientPoorPlant,Tank2,1,3,3
3496060,TankNutrientPoorPlant,Tank2,1,3,3
3496340,TankNutrientPoorPlant,Tank2,1,3,3
3496360,TankNutrientPoorPlant,Tank2,1,3,3
3496580,TankNutrientPoorPlant,Tank2,1,3,3
3496700,TankNutrientPoorPlant,Tank2,1,3,3
3496720,TankNutrientPoorPlant,Tank2,1,3,3
3496740,TankNutrientPoorPlant,Tank2,1,3,3
3497000,TankNutrientPoorPlant,Tank2,1,3,3
3497040,TankNutrientPoorPlant,Tank2,1,3,3
3497200,TankNutrientPoorPlant,Tank2,1,3,3
3497240,TankNutrientPoorPlant,Tank2,1,3,3
3497260,TankNutrientPoorPlant,Tank2,1,3,3
3497320,TankNutrientPoorPlant,Tank2,1,3,3
3497440,TankNutrientPoorPlant,Tank2,1,3,3
3497460,TankNutrientPoorPlant,Tank2,1,3,3
3497480,TankNutrientPoorPlant,Tank2,1,3,3
3497560,TankNutrientPoorPlant,Tank2,1,3,3
3497580,TankNutrientPoorPlant,Tank2,1,3,3
3497660,TankNutrientPoorPlant,Tank2,1,3,3
3497800,TankNutrientPoorPlant,Tank2,1,3,3
3497900,TankNutrientPoorPlant,Tank2,1,3,3
3497960,TankNutrientPoorPlant,Tank2,1,3,3
3498260,TankNutrientPoorPlant,Tank2,1,3,3
3498480,TankNutrientPoorPlant,Tank2,1,3,3
3498520,TankNutrientPoorPlant,Tank2,1,3,3
3498540,TankNutrientPoorPlant,Tank2,1,3,3
3498800,TankNutrientPoorPlant,Tank2,1,3,3
3498820,TankNutrientPoorPlant,Tank2,1,3,3
3499360,TankNutrientPoorPlant,Tank2,1,3,3
3499500,TankNutrientPoorPlant,Tank2,1,3,3
3499520,TankNutrientPoorPlant,Tank2,1,3,3
3499560,TankNutrientPoorPlant,Tank2,1,3,3
3499920,TankNutrientPoorPlant,Tank2,1,3,3
3499980,TankNutrientPoorPlant,Tank2,1,3,3
3500120,TankNutrientPoorPlant,Tank2,1,3,3
3500460,TankNutrientPoorPlant,Tank2,1,3,3
3500740,TankNutrientPoorPlant,Tank2,1,3,3
3500800,TankNutrientPoorPlant,Tank2,1,3,3
3500900,TankNutrientPoorPlant,Tank2,1,3,3
3501180,TankNutrientPoorPlant,Tank2,1,3,3
3501200,TankNutrientPoorPlant,Tank2,1,3,3
3501220,TankNutrientPoorPlant,Tank2,1,3,3
3501260,TankNutrientPoorPlant,Tank2,1,3,3
3501400,TankNutrientPoorPlant,Tank2,1,3,3
3501420,TankNutrientPoorPlant,Tank2,1,3,3
3501440,TankNutrientPoorPlant,Tank2,1,3,3
3501480,TankNutrientPoorPlant,Tank2,1,3,3
3501680,TankNutrientPoorPlant,Tank2,1,3,3
3501740,TankNutrientPoorPlant,Tank2,1,3,3
3502040,TankNutrientPoorPlant,Tank2,1,3,3
3502200,TankNutrientPoorPlant,Tank2,1,3,3
3502500,TankNutrientPoorPlant,Tank2,1,3,3
3502520,TankNutrientPoorPlant,Tank2,1,3,3
3502860,TankNutrientPoorPlant,Tank2,1,3,3
3503040,TankNutrientPoorPlant,Tank2,1,3,3
3503060,TankNutrientPoorPlant,Tank2,1,3,3
3503080,TankNutrientPoorPlant,Tank2,1,3,3
3503180,TankNutrientPoorPlant,Tank2,1,3,3
3503280,TankNutrientPoorPlant,Tank2,1,3,3
3503460,TankNutrientPoorPlant,Tank2,1,3,3
3504020,TankNutrientPoorPlant,Tank2,1,3,3
3504440,TankNutrientPoorPlant,Tank2,1,3,3
3504640,TankNutrientPoorPlant,Tank2,1,3,3
3505340,TankNutrientPoorPlant,Tank2,1,3,3
3505400,TankNutrientPoorPlant,Tank2,1,3,3
3505500,TankNutrientPoorPlant,Tank2,1,3,3
3505600,TankNutrientPoorPlant,Tank2,1,3,3
3505620,TankNutrientPoorPlant,Tank2,1,3,3
3505680,TankNutrientPoorPlant,Tank2,1,3,3
3505760,TankNutrientPoorPlant,Tank2,1,3,3
3505900,TankNutrientPoorPlant,Tank2,1,3,3
3505960,TankNutrientPoorPlant,Tank2,1,3,3
3506000,TankNutrientPoorPlant,Tank2,1,3,3
3506180,TankNutrientPoorPlant,Tank2,1,3,3
3506320,TankNutrientPoorPlant,Tank2,1,3,3
3506360,TankNutrientPoorPlant,Tank2,1,3,3
3506500,TankNutrientPoorPlant,Tank2,1,3,3
3506980,TankNutrientPoorPlant,Tank2,1,3,3
3507260,TankNutrientPoorPlant,Tank2,1,3,3
3507300,TankNutrientPoorPlant,Tank2,1,3,3
3507340,TankNutrientPoorPlant,Tank2,1,3,3
3620580,PickUpBattery,Bomber0,1,3,3
3637880,PickUpBattery,Scout0,1,3,3
3688440,PickUpBattery,Bomber2,1,3,3
3746060,UseFertilizer,Tank1,1,3,3
3789860,PickUpBattery,Scout0,1,3,3
3820820,PickUpBattery,Bomber1,1,3,3
3870680,PickUpBattery,Tank2,1,3,3
3905680,PickUpBattery,Bomber0,1,3,3
3968280,PickUpBattery,Bomber2,1,3,3
4004020,PickUpBattery,Scout0,1,3,3
4102820,PickUpBattery,Bomber0,1,3,3
4142660,PickUpBattery,Bomber2,1,3,3
4156000,PickUpBattery,Scout0,1,3,3
4157160,PickUpBattery,Tank0,1,3,3
4206760,PickUpBattery,Bomber2,1,3,3
4300740,PickUpBattery,Bomber0,1,3,3
4350660,PickUpBattery,Scout0,1,3,3
4413740,PickUpBattery,Bomber1,1,3,3
4459640,PickUpBattery,Bomber1,1,3,3
4502640,PickUpBattery,Scout0,1,3,3
4566440,PickUpBattery,Bomber2,1,3,3
4610080,PickUpBattery,Tank1,1,3,3
4628540,PickUpBattery,Bomber0,1,3,3
